2017-07-27 18:21:25	0.2
2017-07-27 18:24:40	0.1
2017-07-27 18:34:45	-0.0
2017-07-27 18:39:43	0.1
2017-07-27 18:53:08	0.1
2017-07-27 18:56:13	-0.1
2017-07-27 19:00:23	0.1
2017-07-27 19:05:08	0.0
2017-07-27 19:11:13	-0.0
2017-07-27 19:18:20	-0.1
2017-07-27 19:23:50	0.0
2017-07-27 19:33:55	0.2
2017-07-27 19:40:28	-0.1
2017-07-27 20:04:23	0.1
2017-07-27 20:11:33	-0.1
2017-07-27 20:16:20	0.0
2017-07-27 20:27:43	-0.1
2017-07-27 20:38:50	0.0
2017-07-27 20:45:10	-0.0
2017-07-27 20:58:25	0.0
2017-07-27 21:01:05	-0.1
2017-07-27 21:09:25	0.1
2017-07-27 21:18:48	-0.0
2017-07-27 21:23:45	0.1
2017-07-27 21:32:25	-0.1
2017-07-27 21:37:28	0.1
2017-07-27 21:45:48	-0.0
2017-07-27 21:49:13	0.2
2017-07-27 21:54:58	0.0
2017-07-27 21:59:28	-0.1
2017-07-27 22:02:23	0.0
2017-07-27 22:12:45	-0.1
2017-07-27 22:19:20	0.1
2017-07-27 22:25:40	0.0
2017-07-27 22:32:55	-0.1
2017-07-27 22:42:38	0.0
2017-07-27 22:57:20	-0.1
2017-07-27 23:05:50	0.0
2017-07-27 23:22:08	-0.0
2017-07-27 23:27:13	-0.1
2017-07-27 23:30:35	0.0
2017-07-27 23:38:35	-0.0
2017-07-27 23:43:45	0.0
2017-07-27 23:49:43	0.2
2017-07-27 23:54:55	-0.1
2017-07-27 23:58:43	0.1
2017-07-28 00:10:23	-0.1
2017-07-28 00:24:38	0.1
2017-07-28 00:35:28	-0.0
2017-07-28 00:41:28	0.0
2017-07-28 00:44:13	-0.0
2017-07-28 00:50:13	-0.0
2017-07-28 00:56:20	-0.0
2017-07-28 01:01:23	0.0
2017-07-28 01:06:20	-0.0
2017-07-28 01:19:53	-0.0
2017-07-28 01:29:30	0.1
2017-07-28 01:40:40	0.4
2017-07-28 01:46:20	0.1
2017-07-28 01:52:25	0.2
2017-07-28 02:03:33	0.1
2017-07-28 02:12:48	-0.0
2017-07-28 02:20:48	0.1
2017-07-28 02:25:40	0.4
2017-07-28 02:32:20	0.3
2017-07-28 02:37:15	0.5
2017-07-28 02:39:25	0.2
2017-07-28 02:46:08	0.1
2017-07-28 02:52:23	0.2
2017-07-28 03:01:05	0.2
2017-07-28 03:07:35	0.1
2017-07-28 03:24:40	0.2
2017-07-28 03:26:55	0.1
2017-07-28 03:32:18	0.3
2017-07-28 03:40:48	0.1
2017-07-28 03:47:53	0.2
2017-07-28 03:55:33	0.2
2017-07-28 03:59:40	0.4
2017-07-28 04:03:03	0.1
2017-07-28 04:08:05	0.1
2017-07-28 04:15:25	0.2
2017-07-28 04:26:45	0.1
2017-07-28 04:31:40	0.2
2017-07-28 04:43:28	0.1
2017-07-28 04:48:58	0.1
2017-07-28 04:57:38	0.2
2017-07-28 05:05:03	0.1
2017-07-28 05:09:23	0.2
2017-07-28 05:29:33	0.3
2017-07-28 05:33:20	0.1
2017-07-28 05:41:10	0.2
2017-07-28 05:51:08	0.2
2017-07-28 05:57:30	0.1
2017-07-28 06:05:48	0.2
2017-07-28 06:13:50	0.1
2017-07-28 06:22:38	0.2
2017-07-28 06:30:33	0.1
2017-07-28 06:35:43	0.2
2017-07-28 06:42:13	0.3
2017-07-28 06:50:08	0.1
2017-07-28 06:54:33	0.2
2017-07-28 06:59:05	0.1
2017-07-28 07:12:45	0.1
2017-07-28 07:19:23	0.2
2017-07-28 07:24:13	0.4
2017-07-28 07:29:10	0.2
2017-07-28 07:40:23	0.1
2017-07-28 07:44:53	0.4
2017-07-28 07:52:03	0.5
2017-07-28 07:58:48	0.2
2017-07-28 08:05:43	0.1
2017-07-28 08:12:35	0.2
2017-07-28 08:19:53	0.1
2017-07-28 08:25:18	0.2
2017-07-28 08:33:58	0.1
2017-07-28 08:39:30	0.3
2017-07-28 08:45:25	0.1
2017-07-28 08:57:50	0.5
2017-07-28 09:04:00	0.3
2017-07-28 09:09:48	0.3
2017-07-28 09:19:03	0.1
2017-07-28 09:23:23	0.1
2017-07-28 09:28:40	0.4
2017-07-28 09:36:18	0.1
2017-07-28 09:38:58	0.2
2017-07-28 09:49:00	-0.0
2017-07-28 09:57:58	0.0
2017-07-28 10:10:03	0.2
2017-07-28 10:15:33	0.1
2017-07-28 10:27:18	0.3
2017-07-28 10:29:58	0.1
2017-07-28 10:37:48	0.3
2017-07-28 10:46:13	0.1
2017-07-28 10:52:38	0.2
2017-07-28 10:58:00	0.2
2017-07-28 11:05:38	0.1
2017-07-28 11:14:58	0.3
2017-07-28 11:24:15	0.0
2017-07-28 11:33:20	0.2
2017-07-28 11:40:10	0.2
2017-07-28 11:51:45	0.1
2017-07-28 12:03:08	0.1
2017-07-28 12:11:18	0.1
2017-07-28 12:16:38	0.1
2017-07-28 12:24:08	0.1
2017-07-28 12:35:43	0.2
2017-07-28 12:42:23	0.1
2017-07-28 12:47:10	0.2
2017-07-28 12:49:45	0.2
2017-07-28 12:59:13	0.1
2017-07-28 13:09:48	0.2
2017-07-28 13:14:55	0.1
2017-07-28 13:24:28	0.1
2017-07-28 13:34:50	0.3
2017-07-28 13:40:38	0.1
2017-07-28 13:44:53	0.1
2017-07-28 13:48:43	0.3
2017-07-28 13:53:40	0.3
2017-07-28 13:56:55	0.2
2017-07-28 14:06:58	0.1
2017-07-28 14:22:50	0.2
2017-07-28 14:30:15	0.2
2017-07-28 14:36:38	0.1
2017-07-28 14:44:23	0.1
2017-07-28 14:49:43	0.1
2017-07-28 15:03:38	0.5
2017-07-28 15:06:18	0.1
2017-07-28 15:11:50	0.4
2017-07-28 15:15:15	0.1
2017-07-28 15:22:10	0.2
2017-07-28 15:27:03	0.2
2017-07-28 15:31:08	0.1
2017-07-28 15:35:48	0.0
2017-07-28 15:42:08	0.1
2017-07-28 15:53:43	0.2
2017-07-28 16:08:45	0.1
2017-07-28 16:13:25	0.0
2017-07-28 16:16:53	0.0
2017-07-28 16:31:08	0.4
2017-07-28 16:36:58	0.1
2017-07-28 16:41:53	0.2
2017-07-28 16:47:53	0.2
2017-07-28 16:57:05	-0.0
2017-07-28 17:00:35	0.0
2017-07-28 17:08:08	0.0
2017-07-28 17:16:58	0.1
2017-07-28 17:26:15	0.1
2017-07-28 17:31:43	-0.0
2017-07-28 17:42:30	0.2
2017-07-28 17:50:50	0.3
2017-07-28 17:55:53	0.2
2017-07-28 18:01:33	0.1
2017-07-28 18:11:58	0.2
2017-07-28 18:16:55	0.2
2017-07-28 18:25:38	0.1
2017-07-28 18:33:28	-0.0
2017-07-28 18:38:55	0.0
2017-07-28 18:42:45	0.1
2017-07-28 18:48:28	-0.1
2017-07-28 18:51:38	0.0
2017-07-28 19:02:48	-0.1
2017-07-28 19:12:55	0.2
2017-07-28 19:19:00	0.1
2017-07-28 19:28:20	0.2
2017-07-28 19:31:08	0.1
2017-07-28 19:35:23	0.1
2017-07-28 19:43:30	0.0
2017-07-28 19:51:40	0.1
2017-07-28 19:54:30	0.0
2017-07-28 19:57:50	0.4
2017-07-28 20:03:25	0.1
2017-07-28 20:10:30	0.2
2017-07-28 20:23:50	-0.0
2017-07-28 20:27:08	0.1
2017-07-28 20:32:53	-0.0
2017-07-28 20:38:20	0.1
2017-07-28 20:44:48	0.2
2017-07-28 20:50:48	0.1
2017-07-28 20:59:43	0.1
2017-07-28 21:07:25	-0.1
2017-07-28 21:13:00	0.1
2017-07-28 21:22:55	-0.1
2017-07-28 21:32:10	0.0
2017-07-28 21:41:15	-0.0
2017-07-28 21:46:48	-0.0
2017-07-28 21:49:58	0.2
2017-07-28 21:56:38	0.2
2017-07-28 22:01:23	-0.0
2017-07-28 22:08:40	0.1
2017-07-28 22:15:23	-0.1
2017-07-28 22:20:05	0.1
2017-07-28 22:29:43	0.2
2017-07-28 22:38:15	0.2
2017-07-28 22:44:18	0.2
2017-07-28 22:54:35	0.1
2017-07-28 23:03:33	0.3
2017-07-28 23:10:55	0.2
2017-07-28 23:16:00	0.2
2017-07-28 23:19:53	0.0
2017-07-28 23:23:53	0.1
2017-07-28 23:28:43	0.3
2017-07-28 23:36:03	0.1
2017-07-28 23:42:50	-0.0
2017-07-28 23:48:33	0.1
2017-07-28 23:53:38	0.2
2017-07-29 00:01:18	0.1
2017-07-29 00:10:20	0.0
2017-07-29 00:19:58	0.0
2017-07-29 00:24:48	-0.0
2017-07-29 00:27:05	0.1
2017-07-29 00:32:40	-0.1
2017-07-29 00:40:50	-0.2
2017-07-29 00:43:40	-0.0
2017-07-29 00:52:40	0.1
2017-07-29 00:57:28	-0.1
2017-07-29 01:06:08	0.0
2017-07-29 01:15:15	0.4
2017-07-29 01:20:33	0.2
2017-07-29 01:27:45	0.1
2017-07-29 01:33:53	0.1
2017-07-29 01:46:18	-0.1
2017-07-29 01:54:08	0.1
2017-07-29 02:03:20	0.1
2017-07-29 02:11:03	-0.0
2017-07-29 02:14:40	0.1
2017-07-29 02:18:33	0.0
2017-07-29 02:27:48	-0.2
2017-07-29 02:35:05	-0.0
2017-07-29 02:44:30	0.1
2017-07-29 02:48:25	-0.0
2017-07-29 02:56:05	-0.0
2017-07-29 03:02:08	-0.0
2017-07-29 03:04:50	0.0
2017-07-29 03:11:55	-0.1
2017-07-29 03:18:08	0.0
2017-07-29 03:24:45	0.0
2017-07-29 03:32:10	0.2
2017-07-29 03:37:08	0.1
2017-07-29 03:44:23	-0.1
2017-07-29 03:49:15	-0.0
2017-07-29 03:57:23	-0.2
2017-07-29 04:07:55	-0.1
2017-07-29 04:12:58	0.0
2017-07-29 04:19:43	0.2
2017-07-29 04:25:05	-0.1
2017-07-29 04:29:30	-0.0
2017-07-29 04:36:05	-0.1
2017-07-29 04:41:13	0.0
2017-07-29 04:48:35	-0.2
2017-07-29 04:55:43	-0.0
2017-07-29 05:01:55	-0.1
2017-07-29 05:08:38	-0.1
2017-07-29 05:15:48	0.0
2017-07-29 05:19:35	-0.1
2017-07-29 05:39:48	0.0
2017-07-29 05:46:10	-0.1
2017-07-29 05:50:23	0.0
2017-07-29 05:52:30	0.1
2017-07-29 05:57:00	-0.3
2017-07-29 06:02:43	0.1
2017-07-29 06:09:15	-0.1
2017-07-29 06:17:45	0.1
2017-07-29 06:22:35	0.0
2017-07-29 06:33:05	0.2
2017-07-29 06:38:28	-0.1
2017-07-29 06:44:08	0.0
2017-07-29 06:54:48	-0.1
2017-07-29 07:00:55	-0.0
2017-07-29 07:12:48	0.0
2017-07-29 07:18:25	-0.1
2017-07-29 07:25:28	-0.1
2017-07-29 07:34:53	0.1
2017-07-29 07:45:05	0.0
2017-07-29 07:51:38	-0.0
2017-07-29 07:54:13	-0.1
2017-07-29 08:02:28	-0.1
2017-07-29 08:09:20	0.0
2017-07-29 08:16:18	-0.1
2017-07-29 08:25:50	0.2
2017-07-29 08:29:48	-0.0
2017-07-29 08:34:08	0.1
2017-07-29 08:39:40	0.2
2017-07-29 08:42:23	0.0
2017-07-29 08:47:15	-0.1
2017-07-29 08:49:50	-0.0
2017-07-29 08:54:30	-0.1
2017-07-29 09:06:15	-0.1
2017-07-29 09:09:33	0.1
2017-07-29 09:16:23	0.2
2017-07-29 09:23:15	0.0
2017-07-29 09:29:43	-0.1
2017-07-29 09:36:33	0.0
2017-07-29 09:40:33	-0.1
2017-07-29 09:45:05	0.1
2017-07-29 09:47:50	0.0
2017-07-29 09:53:45	-0.0
2017-07-29 09:58:03	0.0
2017-07-29 10:03:55	0.0
2017-07-29 10:13:28	-0.1
2017-07-29 10:18:43	0.1
2017-07-29 10:26:48	0.3
2017-07-29 10:31:53	0.2
2017-07-29 10:41:38	0.1
2017-07-29 10:45:40	-0.1
2017-07-29 10:55:25	0.1
2017-07-29 11:00:53	0.2
2017-07-29 11:09:48	0.1
2017-07-29 11:15:48	-0.1
2017-07-29 11:17:58	0.0
2017-07-29 11:25:10	0.1
2017-07-29 11:30:45	0.1
2017-07-29 11:44:45	-0.0
2017-07-29 11:58:00	-0.1
2017-07-29 12:03:25	0.1
2017-07-29 12:11:03	-0.0
2017-07-29 12:20:45	-0.1
2017-07-29 12:33:53	0.1
2017-07-29 12:43:45	-0.0
2017-07-29 12:52:23	0.1
2017-07-29 12:58:18	0.1
2017-07-29 13:06:48	0.2
2017-07-29 13:13:40	0.1
2017-07-29 13:20:15	0.2
2017-07-29 13:27:08	0.2
2017-07-29 13:32:45	0.2
2017-07-29 13:37:28	0.1
2017-07-29 13:40:10	0.4
2017-07-29 13:44:43	0.2
2017-07-29 13:50:08	0.3
2017-07-29 13:55:03	0.4
2017-07-29 14:02:08	0.2
2017-07-29 14:05:25	0.1
2017-07-29 14:10:48	0.3
2017-07-29 14:17:05	0.4
2017-07-29 14:22:40	0.2
2017-07-29 14:31:58	0.1
2017-07-29 14:36:13	0.2
2017-07-29 14:41:03	0.1
2017-07-29 14:49:55	0.4
2017-07-29 14:58:48	0.1
2017-07-29 15:09:45	0.2
2017-07-29 15:14:43	0.1
2017-07-29 15:19:08	0.2
2017-07-29 15:25:00	0.1
2017-07-29 15:36:35	0.1
2017-07-29 15:44:10	0.2
2017-07-29 15:48:33	0.2
2017-07-29 15:53:00	0.1
2017-07-29 16:01:05	0.2
2017-07-29 16:05:08	0.1
2017-07-29 16:12:50	0.1
2017-07-29 16:19:08	0.1
2017-07-29 16:25:18	0.1
2017-07-29 16:32:50	0.1
2017-07-29 16:38:53	0.0
2017-07-29 16:45:03	0.5
2017-07-29 16:48:18	0.1
2017-07-29 16:53:13	0.6
2017-07-29 16:56:35	0.3
2017-07-29 17:00:50	0.1
2017-07-29 17:08:55	-0.1
2017-07-29 17:11:43	0.1
2017-07-29 17:19:08	-0.0
2017-07-29 17:22:38	0.2
2017-07-29 17:27:28	0.4
2017-07-29 17:33:53	0.2
2017-07-29 17:39:15	0.4
2017-07-29 17:44:18	0.1
2017-07-29 17:52:25	0.2
2017-07-29 17:56:45	0.2
2017-07-29 18:07:00	0.1
2017-07-29 18:11:25	0.2
2017-07-29 18:18:43	0.3
2017-07-29 18:21:00	0.3
2017-07-29 18:31:45	0.1
2017-07-29 18:47:43	0.2
2017-07-29 18:50:33	0.6
2017-07-29 18:54:28	0.4
2017-07-29 19:01:33	0.2
2017-07-29 19:09:23	0.1
2017-07-29 19:12:40	0.5
2017-07-29 19:17:38	0.2
2017-07-29 19:29:23	0.2
2017-07-29 19:34:25	0.5
2017-07-29 19:38:15	0.2
2017-07-29 19:43:35	0.2
2017-07-29 19:49:25	0.1
2017-07-29 19:59:25	0.3
2017-07-29 20:03:45	0.1
2017-07-29 20:10:45	0.2
2017-07-29 20:21:15	0.2
2017-07-29 20:28:25	0.5
2017-07-29 20:32:48	0.3
2017-07-29 20:37:35	0.5
2017-07-29 20:41:30	0.2
2017-07-29 20:44:58	0.1
2017-07-29 20:51:50	0.4
2017-07-29 20:57:35	0.2
2017-07-29 21:03:05	0.2
2017-07-29 21:08:40	0.4
2017-07-29 21:15:08	0.2
2017-07-29 21:18:13	0.4
2017-07-29 21:21:03	0.5
2017-07-29 21:26:23	0.5
2017-07-29 21:30:13	0.3
2017-07-29 21:35:43	0.5
2017-07-29 21:40:35	0.2
2017-07-29 21:48:13	0.1
2017-07-29 21:53:58	0.2
2017-07-29 22:02:13	0.3
2017-07-29 22:10:10	0.1
2017-07-29 22:16:28	0.2
2017-07-29 22:19:10	0.2
2017-07-29 22:28:53	0.1
2017-07-29 22:31:53	0.2
2017-07-29 22:38:58	0.1
2017-07-29 22:44:50	0.4
2017-07-29 22:49:43	0.4
2017-07-29 22:58:08	0.3
2017-07-29 23:06:35	0.3
2017-07-29 23:09:53	0.4
2017-07-29 23:22:15	0.1
2017-07-29 23:29:05	0.3
2017-07-29 23:33:50	0.4
2017-07-29 23:39:08	0.3
2017-07-29 23:51:48	0.5
2017-07-29 23:59:35	0.3
2017-07-30 00:06:23	0.4
2017-07-30 00:10:18	0.5
2017-07-30 00:20:53	0.3
2017-07-30 00:29:08	0.4
2017-07-30 00:34:08	0.2
2017-07-30 00:44:53	0.1
2017-07-30 00:48:15	0.3
2017-07-30 00:51:45	0.5
2017-07-30 01:03:53	0.2
2017-07-30 01:11:50	0.3
2017-07-30 01:16:58	0.3
2017-07-30 01:21:28	0.4
2017-07-30 01:25:15	0.2
2017-07-30 01:34:30	0.4
2017-07-30 01:39:53	0.4
2017-07-30 01:44:25	0.3
2017-07-30 01:51:40	0.4
2017-07-30 01:59:43	0.2
2017-07-30 02:05:40	0.4
2017-07-30 02:09:45	0.5
2017-07-30 02:12:35	0.2
2017-07-30 02:19:58	0.3
2017-07-30 02:25:28	0.2
2017-07-30 02:29:45	0.3
2017-07-30 02:36:30	0.5
2017-07-30 02:41:28	0.4
2017-07-30 02:46:58	0.1
2017-07-30 02:50:50	0.2
2017-07-30 02:54:00	0.3
2017-07-30 02:58:33	0.2
2017-07-30 03:08:30	0.3
2017-07-30 03:13:25	0.4
2017-07-30 03:17:23	0.3
2017-07-30 03:23:50	0.4
2017-07-30 03:27:00	0.2
2017-07-30 03:31:38	0.5
2017-07-30 03:40:45	0.5
2017-07-30 03:44:33	0.3
2017-07-30 03:48:15	0.2
2017-07-30 03:53:15	0.4
2017-07-30 03:57:40	0.3
2017-07-30 04:00:23	0.2
2017-07-30 04:06:53	0.2
2017-07-30 04:12:00	0.4
2017-07-30 04:16:03	0.3
2017-07-30 04:27:55	0.5
2017-07-30 04:36:55	0.2
2017-07-30 04:41:45	0.4
2017-07-30 04:48:13	0.4
2017-07-30 04:53:48	0.2
2017-07-30 05:02:05	0.4
2017-07-30 05:08:40	0.3
2017-07-30 05:19:20	0.4
2017-07-30 05:23:13	0.3
2017-07-30 05:30:20	0.5
2017-07-30 05:36:03	0.3
2017-07-30 05:45:48	0.4
2017-07-30 05:53:10	0.3
2017-07-30 05:56:58	0.4
2017-07-30 06:04:00	0.2
2017-07-30 06:11:05	0.5
2017-07-30 06:18:18	0.2
2017-07-30 06:22:33	0.3
2017-07-30 06:37:20	0.1
2017-07-30 06:40:00	0.3
2017-07-30 06:46:18	0.3
2017-07-30 06:54:50	0.5
2017-07-30 07:01:38	0.3
2017-07-30 07:10:35	0.3
2017-07-30 07:19:03	0.1
2017-07-30 07:23:58	0.5
2017-07-30 07:27:40	0.3
2017-07-30 07:33:00	0.4
2017-07-30 07:42:15	0.4
2017-07-30 07:45:00	0.2
2017-07-30 07:52:13	0.3
2017-07-30 07:54:55	0.2
2017-07-30 08:03:13	0.4
2017-07-30 08:06:38	0.2
2017-07-30 08:16:28	0.1
2017-07-30 08:21:50	0.2
2017-07-30 08:30:53	0.3
2017-07-30 08:36:00	0.2
2017-07-30 08:41:40	0.1
2017-07-30 08:50:50	0.2
2017-07-30 08:57:15	0.1
2017-07-30 09:02:03	0.3
2017-07-30 09:05:38	0.2
2017-07-30 09:08:53	0.2
2017-07-30 09:17:18	0.3
2017-07-30 09:22:08	0.4
2017-07-30 09:27:10	0.5
2017-07-30 09:35:05	0.4
2017-07-30 09:39:08	0.2
2017-07-30 09:44:38	0.4
2017-07-30 09:54:53	0.2
2017-07-30 10:01:30	0.4
2017-07-30 10:06:25	0.2
2017-07-30 10:12:30	0.1
2017-07-30 10:17:43	0.3
2017-07-30 10:20:48	0.3
2017-07-30 10:28:13	0.3
2017-07-30 10:34:08	0.3
2017-07-30 10:38:38	0.3
2017-07-30 10:44:53	0.4
2017-07-30 10:50:55	0.2
2017-07-30 10:54:18	0.2
2017-07-30 11:07:15	0.4
2017-07-30 11:13:53	0.2
2017-07-30 11:20:25	0.2
2017-07-30 11:26:45	0.6
2017-07-30 11:31:20	0.6
2017-07-30 11:36:35	0.3
2017-07-30 11:39:53	0.4
2017-07-30 11:48:50	0.4
2017-07-30 11:53:50	0.3
2017-07-30 11:58:58	0.2
2017-07-30 12:08:33	0.4
2017-07-30 12:16:18	0.4
2017-07-30 12:22:58	0.2
2017-07-30 12:31:48	0.6
2017-07-30 12:35:05	0.3
2017-07-30 12:40:03	0.4
2017-07-30 12:44:18	0.5
2017-07-30 12:48:35	0.2
2017-07-30 12:57:30	0.1
2017-07-30 13:00:38	0.6
2017-07-30 13:05:38	0.4
2017-07-30 13:10:30	0.4
2017-07-30 13:18:55	0.3
2017-07-30 13:24:33	0.4
2017-07-30 13:27:43	0.6
2017-07-30 13:32:00	0.3
2017-07-30 13:36:45	0.3
2017-07-30 13:43:05	0.2
2017-07-30 13:48:33	0.3
2017-07-30 13:53:10	0.1
2017-07-30 13:59:10	0.3
2017-07-30 14:05:43	0.5
2017-07-30 14:12:03	0.3
2017-07-30 14:14:53	0.4
2017-07-30 14:19:03	0.2
2017-07-30 14:25:03	0.3
2017-07-30 14:40:53	0.3
2017-07-30 14:47:58	0.3
2017-07-30 14:55:58	0.4
2017-07-30 15:04:53	0.2
2017-07-30 15:10:50	0.3
2017-07-30 15:19:35	0.3
2017-07-30 15:27:33	0.4
2017-07-30 15:36:15	0.3
2017-07-30 15:40:08	0.4
2017-07-30 15:51:33	0.2
2017-07-30 15:59:03	0.4
2017-07-30 16:03:18	0.4
2017-07-30 16:14:25	0.2
2017-07-30 16:19:00	0.5
2017-07-30 16:23:03	0.6
2017-07-30 16:30:10	0.4
2017-07-30 16:37:18	0.3
2017-07-30 16:44:00	0.8
2017-07-30 16:48:28	0.6
2017-07-30 16:51:18	0.5
2017-07-30 16:57:55	0.3
2017-07-30 17:01:35	0.5
2017-07-30 17:04:18	0.3
2017-07-30 17:07:50	0.4
2017-07-30 17:10:43	0.7
2017-07-30 17:20:00	0.5
2017-07-30 17:28:45	0.3
2017-07-30 17:33:50	0.4
2017-07-30 17:43:13	0.6
2017-07-30 17:50:53	0.4
2017-07-30 17:54:40	0.6
2017-07-30 17:59:45	0.6
2017-07-30 18:02:35	0.5
2017-07-30 18:10:15	0.4
2017-07-30 18:16:13	0.5
2017-07-30 18:20:05	0.3
2017-07-30 18:25:30	0.1
2017-07-30 18:30:40	0.3
2017-07-30 18:36:53	0.6
2017-07-30 18:41:55	0.7
2017-07-30 18:49:35	0.2
2017-07-30 18:59:08	0.3
2017-07-30 19:06:18	0.3
2017-07-30 19:11:23	0.5
2017-07-30 19:13:43	0.2
2017-07-30 19:16:28	0.4
2017-07-30 19:26:15	0.2
2017-07-30 19:33:55	0.3
2017-07-30 19:37:15	0.5
2017-07-30 19:43:20	0.4
2017-07-30 19:51:28	0.4
2017-07-30 19:55:20	0.6
2017-07-30 20:02:33	0.5
2017-07-30 20:06:50	0.6
2017-07-30 20:14:15	0.6
2017-07-30 20:19:28	0.4
2017-07-30 20:23:13	0.4
2017-07-30 20:27:23	0.4
2017-07-30 20:33:05	0.4
2017-07-30 20:39:50	0.4
2017-07-30 20:45:53	0.4
2017-07-30 20:52:30	0.4
2017-07-30 20:59:15	0.3
2017-07-30 21:06:53	0.1
2017-07-30 21:11:15	0.6
2017-07-30 21:15:18	0.6
2017-07-30 21:19:38	0.5
2017-07-30 21:25:58	0.3
2017-07-30 21:31:00	0.4
2017-07-30 21:42:08	0.3
2017-07-30 21:52:23	0.5
2017-07-30 21:59:15	0.2
2017-07-30 22:04:03	0.4
2017-07-30 22:14:13	0.3
2017-07-30 22:21:55	0.1
2017-07-30 22:25:48	0.3
2017-07-30 22:36:45	0.1
2017-07-30 22:42:53	0.1
2017-07-30 22:49:03	0.3
2017-07-30 22:58:43	0.4
2017-07-30 23:06:30	0.1
2017-07-30 23:11:35	0.2
2017-07-30 23:16:13	0.4
2017-07-30 23:23:48	0.2
2017-07-30 23:27:40	0.3
2017-07-30 23:39:08	0.5
2017-07-30 23:46:13	0.2
2017-07-30 23:53:20	0.2
2017-07-31 00:01:38	0.3
2017-07-31 00:09:25	0.4
2017-07-31 00:16:18	0.2
2017-07-31 00:19:05	0.4
2017-07-31 00:29:10	0.4
2017-07-31 00:34:10	0.2
2017-07-31 00:45:20	0.4
2017-07-31 00:55:25	0.3
2017-07-31 01:02:38	0.4
2017-07-31 01:06:58	0.3
2017-07-31 01:19:13	0.6
2017-07-31 01:22:10	0.4
2017-07-31 01:27:03	0.5
2017-07-31 01:34:25	0.5
2017-07-31 01:42:08	0.4
2017-07-31 01:46:43	0.4
2017-07-31 01:56:13	0.3
2017-07-31 02:01:58	0.3
2017-07-31 02:07:18	0.4
2017-07-31 02:10:10	0.2
2017-07-31 02:14:05	0.2
2017-07-31 02:17:53	0.4
2017-07-31 02:21:08	0.3
2017-07-31 02:28:45	0.2
2017-07-31 02:32:48	0.4
2017-07-31 02:44:33	0.1
2017-07-31 02:47:38	0.3
2017-07-31 02:53:45	0.3
2017-07-31 03:00:50	0.2
2017-07-31 03:09:13	0.1
2017-07-31 03:16:33	0.2
2017-07-31 03:29:25	0.1
2017-07-31 03:34:23	0.1
2017-07-31 03:38:48	0.2
2017-07-31 03:44:23	0.1
2017-07-31 03:49:25	0.1
2017-07-31 03:54:45	0.3
2017-07-31 04:00:50	0.2
2017-07-31 04:11:35	0.1
2017-07-31 04:15:00	0.1
2017-07-31 04:23:53	0.2
2017-07-31 04:39:18	0.4
2017-07-31 04:44:58	0.1
2017-07-31 04:48:40	0.5
2017-07-31 04:55:03	0.2
2017-07-31 05:02:25	0.1
2017-07-31 05:06:38	0.3
2017-07-31 05:11:10	0.2
2017-07-31 05:19:35	0.3
2017-07-31 05:22:58	0.2
2017-07-31 05:26:45	0.5
2017-07-31 05:33:28	0.2
2017-07-31 05:40:15	0.1
2017-07-31 05:45:55	0.1
2017-07-31 05:50:48	0.2
2017-07-31 05:55:48	0.3
2017-07-31 05:59:03	0.4
2017-07-31 06:02:28	0.3
2017-07-31 06:08:53	0.5
2017-07-31 06:16:10	0.3
2017-07-31 06:26:20	0.4
2017-07-31 06:34:00	0.2
2017-07-31 06:41:25	0.3
2017-07-31 06:52:25	0.2
2017-07-31 06:55:48	0.2
2017-07-31 07:03:55	0.1
2017-07-31 07:09:23	0.3
2017-07-31 07:15:18	0.4
2017-07-31 07:19:45	0.3
2017-07-31 07:26:15	0.6
2017-07-31 07:29:55	0.2
2017-07-31 07:41:23	0.4
2017-07-31 07:50:33	0.3
2017-07-31 07:53:50	0.4
2017-07-31 07:57:45	0.3
2017-07-31 08:07:10	0.4
2017-07-31 08:11:25	0.2
2017-07-31 08:18:40	0.4
2017-07-31 08:25:53	0.2
2017-07-31 08:35:10	0.3
2017-07-31 08:41:50	0.4
2017-07-31 08:47:25	0.2
2017-07-31 08:53:03	0.4
2017-07-31 08:59:43	0.4
2017-07-31 09:05:08	0.4
2017-07-31 09:08:28	0.3
2017-07-31 09:12:20	0.3
2017-07-31 09:17:15	0.4
2017-07-31 09:23:48	0.6
2017-07-31 09:27:45	0.4
2017-07-31 09:33:15	0.3
2017-07-31 09:39:38	0.1
2017-07-31 09:47:28	0.4
2017-07-31 09:51:23	0.2
2017-07-31 09:55:38	0.4
2017-07-31 10:03:35	0.4
2017-07-31 10:06:50	0.3
2017-07-31 10:10:08	0.4
2017-07-31 10:12:48	0.2
2017-07-31 10:20:33	0.4
2017-07-31 10:27:18	0.6
2017-07-31 10:31:38	0.1
2017-07-31 10:36:13	0.4
2017-07-31 10:40:00	0.5
2017-07-31 10:42:40	0.6
2017-07-31 10:47:03	0.4
2017-07-31 10:50:48	0.5
2017-07-31 10:58:25	0.3
2017-07-31 11:04:13	0.2
2017-07-31 11:09:45	0.4
2017-07-31 11:15:10	0.3
2017-07-31 11:24:50	0.3
2017-07-31 11:34:50	0.5
2017-07-31 11:40:45	0.4
2017-07-31 11:48:10	0.6
2017-07-31 11:55:03	0.3
2017-07-31 12:06:48	0.5
2017-07-31 12:12:50	0.3
2017-07-31 12:17:20	0.2
2017-07-31 12:20:53	0.6
2017-07-31 12:26:10	0.6
2017-07-31 12:29:00	0.4
2017-07-31 12:38:28	0.3
2017-07-31 12:47:33	0.4
2017-07-31 12:54:15	0.5
2017-07-31 13:04:40	0.5
2017-07-31 13:13:23	0.6
2017-07-31 13:18:50	0.5
2017-07-31 13:30:58	0.3
2017-07-31 13:33:50	0.6
2017-07-31 13:40:18	0.4
2017-07-31 13:46:38	0.6
2017-07-31 13:51:28	0.5
2017-07-31 13:56:33	0.6
2017-07-31 14:05:35	0.6
2017-07-31 14:13:13	0.3
2017-07-31 14:16:53	0.4
2017-07-31 14:23:10	0.6
2017-07-31 14:28:08	0.5
2017-07-31 14:34:43	0.7
2017-07-31 14:42:20	0.3
2017-07-31 14:48:35	0.5
2017-07-31 14:57:30	0.2
2017-07-31 15:05:28	0.6
2017-07-31 15:08:50	0.7
2017-07-31 15:17:43	0.2
2017-07-31 15:28:05	0.7
2017-07-31 15:33:28	0.2
2017-07-31 15:45:13	0.6
2017-07-31 15:51:15	0.3
2017-07-31 15:58:55	0.6
2017-07-31 16:06:38	0.3
2017-07-31 16:13:15	0.6
2017-07-31 16:22:33	0.4
2017-07-31 16:26:48	0.5
2017-07-31 16:39:30	0.3
2017-07-31 16:45:33	0.4
2017-07-31 16:55:00	0.5
2017-07-31 17:02:50	0.3
2017-07-31 17:06:00	0.4
2017-07-31 17:15:43	0.5
2017-07-31 17:20:15	0.3
2017-07-31 17:24:35	0.3
2017-07-31 17:30:38	0.5
2017-07-31 17:38:10	0.6
2017-07-31 17:40:50	0.5
2017-07-31 17:46:20	0.3
2017-07-31 17:57:08	0.4
2017-07-31 18:02:38	0.5
2017-07-31 18:05:18	0.4
2017-07-31 18:08:40	0.4
2017-07-31 18:15:10	0.3
2017-07-31 18:22:13	0.3
2017-07-31 18:25:03	0.4
2017-07-31 18:31:13	0.3
2017-07-31 18:35:08	0.3
2017-07-31 18:41:30	0.4
2017-07-31 18:45:43	0.2
2017-07-31 18:51:45	0.4
2017-07-31 18:59:20	0.4
2017-07-31 19:09:38	0.2
2017-07-31 19:15:35	0.2
2017-07-31 19:18:55	0.3
2017-07-31 19:25:03	0.4
2017-07-31 19:32:15	0.2
2017-07-31 19:39:10	0.4
2017-07-31 19:48:20	0.3
2017-07-31 19:56:40	0.1
2017-07-31 20:10:40	0.2
2017-07-31 20:15:03	0.1
2017-07-31 20:21:55	0.1
2017-07-31 20:32:25	0.2
2017-07-31 20:36:43	0.3
2017-07-31 20:40:13	0.1
2017-07-31 20:49:13	0.2
2017-07-31 20:54:45	0.1
2017-07-31 21:02:33	0.1
2017-07-31 21:08:55	0.1
2017-07-31 21:22:20	0.2
2017-07-31 21:29:30	0.1
2017-07-31 21:43:25	0.1
2017-07-31 21:53:38	0.2
2017-07-31 22:01:53	0.3
2017-07-31 22:09:00	0.1
2017-07-31 22:13:50	0.1
2017-07-31 22:19:45	0.2
2017-07-31 22:32:58	0.1
2017-07-31 22:45:13	0.2
2017-07-31 22:56:53	0.1
2017-07-31 23:01:20	-0.1
2017-07-31 23:09:28	-0.1
2017-07-31 23:14:23	0.1
2017-07-31 23:24:00	-0.0
2017-07-31 23:33:30	0.1
2017-07-31 23:38:15	0.1
2017-07-31 23:47:40	0.2
2017-07-31 23:54:40	0.1
2017-08-01 00:06:13	0.2
2017-08-01 00:13:53	0.0
2017-08-01 00:26:55	0.1
2017-08-01 00:42:40	0.3
2017-08-01 00:48:18	0.1
2017-08-01 00:56:38	0.2
2017-08-01 01:01:38	-0.0
2017-08-01 01:11:08	0.1
2017-08-01 01:24:15	0.0
2017-08-01 01:27:28	-0.0
2017-08-01 01:32:23	0.1
2017-08-01 01:39:23	-0.1
2017-08-01 01:45:08	0.0
2017-08-01 02:01:43	-0.0
2017-08-01 02:14:03	0.1
2017-08-01 02:29:48	-0.0
2017-08-01 02:36:28	0.1
2017-08-01 02:45:53	0.0
2017-08-01 02:58:23	0.3
2017-08-01 03:01:13	0.1
2017-08-01 03:07:33	-0.0
2017-08-01 03:14:18	0.1
2017-08-01 03:24:13	0.2
2017-08-01 03:28:18	0.1
2017-08-01 03:45:33	-0.0
2017-08-01 03:49:28	0.1
2017-08-01 03:56:45	0.1
2017-08-01 04:06:55	0.2
2017-08-01 04:21:15	0.3
2017-08-01 04:25:03	0.0
2017-08-01 04:35:58	-0.0
2017-08-01 04:47:50	-0.0
2017-08-01 05:03:03	0.1
2017-08-01 05:09:20	0.1
2017-08-01 05:21:10	0.3
2017-08-01 05:26:50	0.3
2017-08-01 05:30:18	0.1
2017-08-01 05:41:08	0.2
2017-08-01 05:45:45	0.1
2017-08-01 05:51:08	0.0
2017-08-01 06:00:20	0.2
2017-08-01 06:08:00	-0.0
2017-08-01 06:15:00	0.1
2017-08-01 06:26:10	0.3
2017-08-01 06:33:45	0.2
2017-08-01 06:41:05	0.2
2017-08-01 06:52:48	0.1
2017-08-01 07:04:58	0.2
2017-08-01 07:14:03	0.1
2017-08-01 07:19:58	0.4
2017-08-01 07:28:25	0.3
2017-08-01 07:40:40	0.1
2017-08-01 07:43:48	0.2
2017-08-01 07:49:25	0.1
2017-08-01 07:52:08	0.3
2017-08-01 07:55:28	0.1
2017-08-01 08:00:03	0.2
2017-08-01 08:07:48	0.5
2017-08-01 08:14:20	0.3
2017-08-01 08:20:55	0.1
2017-08-01 08:26:28	0.2
2017-08-01 08:32:55	0.1
2017-08-01 08:39:08	0.2
2017-08-01 08:45:53	0.4
2017-08-01 08:55:00	0.1
2017-08-01 09:06:20	0.1
2017-08-01 09:10:55	0.2
2017-08-01 09:15:38	0.3
2017-08-01 09:18:50	0.4
2017-08-01 09:23:53	0.4
2017-08-01 09:29:25	0.3
2017-08-01 09:35:20	0.3
2017-08-01 09:42:58	0.4
2017-08-01 09:47:20	0.4
2017-08-01 09:53:48	0.2
2017-08-01 09:59:20	0.1
2017-08-01 10:06:00	0.3
2017-08-01 10:14:13	0.3
2017-08-01 10:18:08	0.1
2017-08-01 10:23:05	0.4
2017-08-01 10:33:23	0.3
2017-08-01 10:40:55	0.1
2017-08-01 10:52:58	0.1
2017-08-01 10:57:53	0.2
2017-08-01 11:09:20	0.1
2017-08-01 11:19:45	0.1
2017-08-01 11:28:00	0.2
2017-08-01 11:39:20	0.1
2017-08-01 11:42:08	0.2
2017-08-01 11:46:38	0.2
2017-08-01 11:50:33	0.2
2017-08-01 12:03:28	0.1
2017-08-01 12:12:40	0.2
2017-08-01 12:22:38	0.2
2017-08-01 12:32:50	0.3
2017-08-01 12:42:18	0.3
2017-08-01 12:50:23	0.4
2017-08-01 12:55:50	0.3
2017-08-01 13:00:43	0.5
2017-08-01 13:04:30	0.3
2017-08-01 13:09:55	0.3
2017-08-01 13:18:53	0.1
2017-08-01 13:23:30	0.2
2017-08-01 13:29:33	0.2
2017-08-01 13:36:35	0.4
2017-08-01 13:41:58	0.2
2017-08-01 13:50:20	0.2
2017-08-01 13:55:50	0.1
2017-08-01 14:06:28	0.1
2017-08-01 14:14:43	0.2
2017-08-01 14:17:28	0.2
2017-08-01 14:27:23	0.4
2017-08-01 14:31:48	0.2
2017-08-01 14:37:40	0.4
2017-08-01 14:44:10	0.3
2017-08-01 14:54:20	0.2
2017-08-01 15:02:18	0.1
2017-08-01 15:14:38	0.3
2017-08-01 15:22:23	0.1
2017-08-01 15:29:38	0.2
2017-08-01 15:36:45	0.1
2017-08-01 15:42:15	0.3
2017-08-01 15:46:43	0.7
2017-08-01 15:53:35	0.5
2017-08-01 15:59:33	0.3
2017-08-01 16:05:30	0.1
2017-08-01 16:14:20	0.5
2017-08-01 16:17:45	0.2
2017-08-01 16:26:08	0.1
2017-08-01 16:32:25	0.2
2017-08-01 16:36:58	0.1
2017-08-01 16:40:15	0.2
2017-08-01 16:44:38	0.4
2017-08-01 16:51:03	0.3
2017-08-01 16:58:08	0.6
2017-08-01 17:08:35	0.3
2017-08-01 17:12:53	0.2
2017-08-01 17:20:00	0.3
2017-08-01 17:25:10	0.1
2017-08-01 17:30:23	0.2
2017-08-01 17:34:50	0.4
2017-08-01 17:40:10	0.1
2017-08-01 17:46:40	0.6
2017-08-01 17:50:55	0.3
2017-08-01 17:59:43	0.3
2017-08-01 18:06:25	0.5
2017-08-01 18:15:23	0.2
2017-08-01 18:22:55	0.2
2017-08-01 18:28:20	0.3
2017-08-01 18:36:23	0.1
2017-08-01 18:44:53	0.2
2017-08-01 18:49:53	0.1
2017-08-01 18:58:33	0.1
2017-08-01 19:02:33	0.3
2017-08-01 19:20:20	0.1
2017-08-01 19:25:15	0.3
2017-08-01 19:36:43	0.1
2017-08-01 19:42:18	0.3
2017-08-01 19:45:30	0.2
2017-08-01 19:54:43	0.5
2017-08-01 20:03:23	0.1
2017-08-01 20:10:00	0.0
2017-08-01 20:14:55	0.3
2017-08-01 20:23:48	0.2
2017-08-01 20:38:53	0.1
2017-08-01 20:49:40	0.2
2017-08-01 20:59:38	0.3
2017-08-01 21:09:10	0.2
2017-08-01 21:12:35	0.2
2017-08-01 21:18:45	0.2
2017-08-01 21:24:10	0.3
2017-08-01 21:30:23	0.1
2017-08-01 21:42:15	0.1
2017-08-01 21:46:43	0.3
2017-08-01 21:52:00	0.3
2017-08-01 21:56:20	0.4
2017-08-01 22:05:10	0.2
2017-08-01 22:10:33	0.2
2017-08-01 22:14:15	0.5
2017-08-01 22:21:20	0.4
2017-08-01 22:26:30	-0.0
2017-08-01 22:32:03	0.1
2017-08-01 22:36:28	0.2
2017-08-01 22:42:25	0.0
2017-08-01 22:48:25	0.1
2017-08-01 22:52:48	0.1
2017-08-01 22:58:18	0.3
2017-08-01 23:03:10	0.2
2017-08-01 23:07:48	0.1
2017-08-01 23:17:23	0.2
2017-08-01 23:27:20	0.1
2017-08-01 23:34:55	0.2
2017-08-01 23:42:43	0.1
2017-08-01 23:57:35	0.2
2017-08-02 00:05:18	0.5
2017-08-02 00:15:33	0.2
2017-08-02 00:29:05	0.4
2017-08-02 00:32:58	0.2
2017-08-02 00:46:25	0.1
2017-08-02 00:49:45	0.4
2017-08-02 01:00:10	0.2
2017-08-02 01:11:08	0.7
2017-08-02 01:14:20	0.3
2017-08-02 01:19:23	0.5
2017-08-02 01:22:40	0.2
2017-08-02 01:33:20	0.1
2017-08-02 01:38:48	0.1
2017-08-02 01:45:45	0.3
2017-08-02 01:54:03	0.1
2017-08-02 01:59:48	0.1
2017-08-02 02:06:40	0.2
2017-08-02 02:12:38	0.2
2017-08-02 02:17:25	0.1
2017-08-02 02:29:25	0.0
2017-08-02 02:36:25	0.1
2017-08-02 02:51:38	0.4
2017-08-02 02:58:40	0.1
2017-08-02 03:03:05	0.3
2017-08-02 03:10:48	0.1
2017-08-02 03:18:43	0.5
2017-08-02 03:25:28	0.3
2017-08-02 03:28:48	0.2
2017-08-02 03:39:43	0.6
2017-08-02 03:47:53	0.2
2017-08-02 03:52:50	-0.0
2017-08-02 04:02:05	0.1
2017-08-02 04:13:33	0.1
2017-08-02 04:26:15	0.2
2017-08-02 04:40:53	0.2
2017-08-02 04:44:05	0.2
2017-08-02 04:48:30	-0.0
2017-08-02 04:52:18	0.1
2017-08-02 05:00:08	0.0
2017-08-02 05:10:18	0.3
2017-08-02 05:16:18	0.2
2017-08-02 05:26:00	0.0
2017-08-02 05:36:28	0.3
2017-08-02 05:43:00	0.2
2017-08-02 05:52:10	0.1
2017-08-02 05:56:03	0.0
2017-08-02 06:03:48	0.2
2017-08-02 06:12:00	0.1
2017-08-02 06:20:38	0.3
2017-08-02 06:25:00	0.1
2017-08-02 06:31:03	0.2
2017-08-02 06:39:55	0.4
2017-08-02 06:47:03	0.2
2017-08-02 06:54:43	0.1
2017-08-02 06:58:50	0.1
2017-08-02 07:05:53	0.1
2017-08-02 07:13:30	-0.0
2017-08-02 07:25:00	0.3
2017-08-02 07:33:55	0.1
2017-08-02 07:47:33	-0.0
2017-08-02 07:54:08	0.2
2017-08-02 08:01:38	0.1
2017-08-02 08:20:35	-0.0
2017-08-02 08:25:08	0.1
2017-08-02 08:34:10	-0.0
2017-08-02 08:40:48	0.1
2017-08-02 08:48:58	0.2
2017-08-02 08:55:03	0.1
2017-08-02 09:09:45	0.2
2017-08-02 09:15:40	0.1
2017-08-02 09:21:35	0.2
2017-08-02 09:28:45	0.1
2017-08-02 09:38:30	0.1
2017-08-02 09:45:10	0.3
2017-08-02 09:52:10	0.3
2017-08-02 10:01:23	0.1
2017-08-02 10:11:10	0.2
2017-08-02 10:16:05	0.1
2017-08-02 10:22:50	0.3
2017-08-02 10:29:38	0.6
2017-08-02 10:34:00	0.1
2017-08-02 10:41:08	0.1
2017-08-02 10:48:18	0.3
2017-08-02 10:54:55	0.1
2017-08-02 11:00:05	0.2
2017-08-02 11:05:10	0.1
2017-08-02 11:12:35	0.2
2017-08-02 11:19:30	0.4
2017-08-02 11:27:00	0.3
2017-08-02 11:31:45	0.1
2017-08-02 11:36:05	0.3
2017-08-02 11:44:53	0.3
2017-08-02 11:56:13	0.1
2017-08-02 12:08:53	0.4
2017-08-02 12:14:53	0.2
2017-08-02 12:17:43	0.1
2017-08-02 12:26:30	0.3
2017-08-02 12:34:40	0.3
2017-08-02 12:46:55	0.1
2017-08-02 12:51:35	0.2
2017-08-02 12:57:00	0.2
2017-08-02 13:00:48	0.1
2017-08-02 13:08:28	0.1
2017-08-02 13:17:20	0.1
2017-08-02 13:26:45	0.2
2017-08-02 13:29:53	0.6
2017-08-02 13:34:05	0.4
2017-08-02 13:37:23	0.3
2017-08-02 13:46:30	0.1
2017-08-02 13:54:53	0.2
2017-08-02 13:58:45	0.4
2017-08-02 14:03:53	0.1
2017-08-02 14:15:35	0.2
2017-08-02 14:22:58	0.1
2017-08-02 14:29:28	0.0
2017-08-02 14:36:28	0.1
2017-08-02 14:49:13	0.3
2017-08-02 14:55:18	0.3
2017-08-02 15:01:53	0.1
2017-08-02 15:08:13	0.1
2017-08-02 15:19:55	0.3
2017-08-02 15:34:18	0.1
2017-08-02 15:39:55	0.1
2017-08-02 15:49:50	0.2
2017-08-02 15:54:50	0.4
2017-08-02 16:03:35	0.2
2017-08-02 16:15:25	0.2
2017-08-02 16:19:15	0.1
2017-08-02 16:24:08	0.2
2017-08-02 16:30:38	0.2
2017-08-02 16:36:20	0.1
2017-08-02 16:44:53	0.3
2017-08-02 16:50:55	0.1
2017-08-02 16:56:55	0.1
2017-08-02 17:02:08	0.2
2017-08-02 17:11:43	-0.1
2017-08-02 17:16:40	0.0
2017-08-02 17:22:40	-0.0
2017-08-02 17:32:45	0.2
2017-08-02 17:42:18	-0.1
2017-08-02 17:46:48	0.2
2017-08-02 17:49:40	-0.0
2017-08-02 18:03:43	-0.0
2017-08-02 18:13:08	0.1
2017-08-02 18:25:00	0.5
2017-08-02 18:28:03	0.4
2017-08-02 18:35:30	0.5
2017-08-02 18:52:33	1.1
2017-08-02 19:13:28	1.2
2017-08-02 19:25:00	1.3
2017-08-02 19:32:28	1.1
2017-08-02 19:48:18	1.0
2017-08-02 20:11:25	1.1
2017-08-02 20:40:18	0.8
2017-08-02 20:52:58	0.9
2017-08-02 21:12:03	0.8
2017-08-02 21:19:10	0.7
2017-08-02 21:35:18	0.5
2017-08-02 21:44:05	0.6
2017-08-02 21:50:40	0.5
2017-08-02 21:58:18	0.2
2017-08-02 22:05:45	0.1
2017-08-02 22:22:33	0.0
2017-08-02 22:45:00	-0.0
2017-08-02 22:55:43	0.0
2017-08-02 23:00:40	-0.0
2017-08-02 23:23:33	0.0
2017-08-02 23:35:43	0.2
2017-08-02 23:45:53	0.1
2017-08-03 00:10:55	0.2
2017-08-03 00:18:45	0.2
2017-08-03 00:28:33	0.1
2017-08-03 00:36:13	0.1
2017-08-03 00:41:48	0.5
2017-08-03 00:48:40	0.2
2017-08-03 00:56:13	0.4
2017-08-03 00:59:58	0.3
2017-08-03 01:06:08	0.1
2017-08-03 01:09:25	0.2
2017-08-03 01:20:48	0.5
2017-08-03 01:27:48	0.1
2017-08-03 01:35:58	0.5
2017-08-03 01:42:53	0.1
2017-08-03 01:49:08	-0.0
2017-08-03 01:52:13	0.1
2017-08-03 02:00:03	-0.0
2017-08-03 02:07:08	0.1
2017-08-03 02:27:05	-0.0
2017-08-03 02:36:30	-0.2
2017-08-03 02:44:58	-0.1
2017-08-03 03:32:53	-0.3
2017-08-03 03:56:10	-0.2
2017-08-03 04:25:40	-0.2
2017-08-03 04:47:45	-0.3
2017-08-03 05:29:03	-0.2
2017-08-03 05:35:15	-0.2
2017-08-03 05:39:15	-0.1
2017-08-03 05:54:45	-0.1
2017-08-03 06:03:13	0.0
2017-08-03 06:15:48	-0.1
2017-08-03 06:36:50	0.0
2017-08-03 06:45:13	-0.1
2017-08-03 06:49:03	-0.2
2017-08-03 07:01:05	-0.0
2017-08-03 07:15:33	0.0
2017-08-03 07:20:48	0.0
2017-08-03 07:30:23	-0.1
2017-08-03 07:35:58	0.1
2017-08-03 07:41:28	-0.0
2017-08-03 08:03:28	-0.1
2017-08-03 08:11:05	0.1
2017-08-03 08:22:33	-0.1
2017-08-03 08:27:55	0.2
2017-08-03 08:31:25	0.1
2017-08-03 08:40:03	-0.1
2017-08-03 08:47:18	0.1
2017-08-03 09:03:08	-0.2
2017-08-03 09:06:25	-0.1
2017-08-03 09:13:48	0.2
2017-08-03 09:18:55	-0.1
2017-08-03 09:32:05	-0.3
2017-08-03 09:35:30	-0.1
2017-08-03 09:47:40	0.0
2017-08-03 09:53:00	-0.1
2017-08-03 09:57:28	-0.1
2017-08-03 10:03:20	0.0
2017-08-03 10:07:15	-0.1
2017-08-03 10:14:58	0.1
2017-08-03 10:25:48	-0.1
2017-08-03 10:30:50	0.0
2017-08-03 10:38:03	-0.0
2017-08-03 10:49:28	0.3
2017-08-03 10:57:15	0.1
2017-08-03 11:05:00	0.1
2017-08-03 11:15:03	0.2
2017-08-03 11:20:05	-0.0
2017-08-03 11:26:08	0.3
2017-08-03 11:32:00	0.3
2017-08-03 11:40:10	0.2
2017-08-03 11:46:18	0.1
2017-08-03 11:50:10	-0.0
2017-08-03 11:57:28	0.0
2017-08-03 12:07:48	0.1
2017-08-03 12:15:55	0.1
2017-08-03 12:20:55	0.2
2017-08-03 12:25:23	0.2
2017-08-03 12:30:28	0.1
2017-08-03 12:34:10	0.1
2017-08-03 12:36:55	0.1
2017-08-03 12:43:25	-0.1
2017-08-03 12:55:28	0.2
2017-08-03 13:04:35	-0.0
2017-08-03 13:08:23	0.1
2017-08-03 13:24:43	-0.0
2017-08-03 13:30:13	0.2
2017-08-03 13:39:53	0.2
2017-08-03 13:49:43	0.1
2017-08-03 13:59:23	-0.0
2017-08-03 14:06:48	0.1
2017-08-03 14:18:48	0.1
2017-08-03 14:21:30	-0.2
2017-08-03 14:28:00	-0.1
2017-08-03 14:37:48	0.1
2017-08-03 14:50:25	-0.3
2017-08-03 14:55:20	-0.1
2017-08-03 15:05:58	-0.2
2017-08-03 15:10:50	0.0
2017-08-03 15:19:05	-0.1
2017-08-03 15:28:30	-0.2
2017-08-03 15:42:10	-0.1
2017-08-03 15:50:03	-0.2
2017-08-03 16:06:25	-0.2
2017-08-03 16:14:30	-0.1
2017-08-03 16:19:35	-0.2
2017-08-03 16:24:00	-0.2
2017-08-03 16:32:23	-0.1
2017-08-03 16:40:40	0.0
2017-08-03 16:50:15	0.1
2017-08-03 16:56:35	-0.0
2017-08-03 17:02:08	-0.2
2017-08-03 17:13:50	-0.3
2017-08-03 17:18:33	-0.0
2017-08-03 17:22:18	-0.3
2017-08-03 17:33:20	-0.1
2017-08-03 17:42:25	-0.2
2017-08-03 17:49:38	-0.1
2017-08-03 18:00:48	-0.1
2017-08-03 18:04:30	-0.2
2017-08-03 18:15:13	-0.1
2017-08-03 18:22:15	-0.1
2017-08-03 18:27:13	-0.3
2017-08-03 18:31:48	-0.1
2017-08-03 18:39:38	-0.3
2017-08-03 18:48:45	-0.1
2017-08-03 18:55:10	-0.2
2017-08-03 19:02:18	-0.2
2017-08-03 19:17:58	-0.1
2017-08-03 19:22:20	-0.1
2017-08-03 19:30:00	-0.2
2017-08-03 19:39:58	-0.4
2017-08-03 19:46:28	-0.2
2017-08-03 19:53:05	-0.3
2017-08-03 19:58:30	-0.3
2017-08-03 20:12:30	-0.4
2017-08-03 20:18:03	-0.2
2017-08-03 20:22:03	-0.4
2017-08-03 20:27:53	-0.3
2017-08-03 20:32:23	-0.4
2017-08-03 20:39:50	-0.3
2017-08-03 20:47:20	-0.1
2017-08-03 20:57:30	-0.3
2017-08-03 21:03:35	-0.4
2017-08-03 21:08:00	-0.1
2017-08-03 21:16:58	-0.2
2017-08-03 21:31:25	-0.4
2017-08-03 21:36:45	-0.2
2017-08-03 21:42:20	-0.5
2017-08-03 21:47:18	-0.4
2017-08-03 21:51:48	-0.2
2017-08-03 22:01:33	-0.4
2017-08-03 22:08:43	-0.2
2017-08-03 22:14:18	-0.4
2017-08-03 22:20:08	-0.3
2017-08-03 22:41:20	-0.4
2017-08-03 22:48:00	-0.3
2017-08-03 22:53:35	-0.4
2017-08-03 23:00:00	-0.6
2017-08-03 23:05:30	-0.5
2017-08-03 23:13:23	-0.4
2017-08-03 23:19:45	-0.1
2017-08-03 23:25:23	-0.3
2017-08-03 23:32:43	-0.5
2017-08-03 23:42:48	-0.2
2017-08-03 23:49:58	-0.3
2017-08-03 23:57:45	-0.1
2017-08-04 00:05:25	-0.4
2017-08-04 00:09:50	-0.2
2017-08-04 00:16:08	-0.1
2017-08-04 00:25:25	-0.5
2017-08-04 00:32:58	-0.5
2017-08-04 00:38:03	-0.4
2017-08-04 00:42:20	-0.3
2017-08-04 00:52:58	-0.4
2017-08-04 01:04:50	-0.3
2017-08-04 01:12:35	-0.3
2017-08-04 01:18:55	-0.4
2017-08-04 01:24:35	-0.3
2017-08-04 01:31:50	-0.6
2017-08-04 01:38:18	-0.6
2017-08-04 01:44:18	-0.3
2017-08-04 01:53:20	-0.4
2017-08-04 02:00:58	-0.2
2017-08-04 02:11:08	-0.3
2017-08-04 02:15:35	-0.4
2017-08-04 02:24:13	-0.3
2017-08-04 02:31:15	-0.4
2017-08-04 02:45:45	-0.6
2017-08-04 02:51:50	-0.2
2017-08-04 02:58:38	-0.5
2017-08-04 03:09:20	-0.2
2017-08-04 03:16:00	-0.5
2017-08-04 03:20:45	-0.3
2017-08-04 03:26:10	-0.4
2017-08-04 03:39:35	-0.3
2017-08-04 03:43:28	-0.3
2017-08-04 03:49:58	-0.3
2017-08-04 03:57:03	-0.4
2017-08-04 04:02:33	-0.2
2017-08-04 04:09:50	-0.5
2017-08-04 04:14:15	-0.3
2017-08-04 04:20:55	-0.4
2017-08-04 04:24:58	-0.3
2017-08-04 04:33:25	-0.4
2017-08-04 04:44:03	-0.3
2017-08-04 04:54:33	-0.4
2017-08-04 04:59:13	-0.3
2017-08-04 05:11:08	-0.4
2017-08-04 05:17:38	-0.3
2017-08-04 05:24:33	-0.4
2017-08-04 05:33:30	-0.3
2017-08-04 05:46:03	-0.4
2017-08-04 05:53:00	-0.4
2017-08-04 05:56:48	-0.2
2017-08-04 06:11:55	-0.4
2017-08-04 06:17:33	-0.1
2017-08-04 06:27:20	-0.2
2017-08-04 06:34:00	-0.2
2017-08-04 06:37:53	-0.4
2017-08-04 06:45:13	-0.2
2017-08-04 07:05:43	-0.2
2017-08-04 07:17:08	-0.3
2017-08-04 07:21:43	-0.2
2017-08-04 07:30:28	-0.3
2017-08-04 07:41:23	-0.1
2017-08-04 07:48:40	-0.3
2017-08-04 07:56:13	-0.1
2017-08-04 07:59:40	-0.2
2017-08-04 08:10:35	-0.1
2017-08-04 08:14:33	-0.3
2017-08-04 08:26:15	-0.2
2017-08-04 08:37:13	-0.1
2017-08-04 08:42:35	-0.3
2017-08-04 08:49:53	-0.1
2017-08-04 08:55:50	-0.1
2017-08-04 09:02:20	-0.3
2017-08-04 09:12:23	-0.2
2017-08-04 09:20:18	0.1
2017-08-04 09:35:50	-0.1
2017-08-04 09:42:13	-0.2
2017-08-04 09:50:23	-0.1
2017-08-04 10:00:43	-0.2
2017-08-04 10:08:10	-0.1
2017-08-04 10:11:03	-0.2
2017-08-04 10:15:08	-0.1
2017-08-04 10:23:23	0.0
2017-08-04 10:35:20	-0.2
2017-08-04 10:39:43	-0.1
2017-08-04 10:45:50	0.1
2017-08-04 10:56:48	-0.1
2017-08-04 11:02:00	-0.1
2017-08-04 11:09:08	-0.0
2017-08-04 11:18:55	-0.1
2017-08-04 11:27:45	0.1
2017-08-04 11:31:40	0.0
2017-08-04 11:36:03	-0.1
2017-08-04 11:45:15	-0.2
2017-08-04 11:57:10	-0.1
2017-08-04 12:03:53	-0.1
2017-08-04 12:10:23	0.1
2017-08-04 12:22:28	-0.1
2017-08-04 12:28:48	0.0
2017-08-04 12:34:53	0.0
2017-08-04 12:42:48	-0.1
2017-08-04 12:56:35	0.1
2017-08-04 13:03:13	-0.1
2017-08-04 13:07:33	0.0
2017-08-04 13:16:23	-0.0
2017-08-04 13:31:33	0.1
2017-08-04 13:38:40	-0.0
2017-08-04 13:43:38	-0.1
2017-08-04 13:50:18	0.1
2017-08-04 14:05:38	-0.1
2017-08-04 14:10:43	-0.1
2017-08-04 14:17:55	-0.1
2017-08-04 14:28:50	-0.2
2017-08-04 14:34:18	-0.1
2017-08-04 14:40:20	-0.2
2017-08-04 14:46:43	-0.1
2017-08-04 14:52:55	-0.0
2017-08-04 14:59:53	-0.3
2017-08-04 15:05:20	-0.1
2017-08-04 15:13:43	-0.2
2017-08-04 15:16:25	-0.1
2017-08-04 15:26:38	-0.4
2017-08-04 15:36:45	-0.2
2017-08-04 15:42:15	-0.4
2017-08-04 15:54:45	0.0
2017-08-04 16:01:35	-0.0
2017-08-04 16:05:58	-0.3
2017-08-04 16:16:05	-0.1
2017-08-04 16:23:28	-0.3
2017-08-04 16:31:03	-0.4
2017-08-04 16:39:28	-0.2
2017-08-04 16:51:18	-0.1
2017-08-04 16:56:38	-0.4
2017-08-04 17:09:03	-0.3
2017-08-04 17:16:40	-0.2
2017-08-04 17:25:03	-0.4
2017-08-04 17:31:23	-0.2
2017-08-04 17:38:23	-0.4
2017-08-04 17:44:28	-0.3
2017-08-04 17:49:53	-0.4
2017-08-04 17:59:58	-0.3
2017-08-04 18:04:53	-0.6
2017-08-04 18:10:03	-0.4
2017-08-04 18:20:50	-0.6
2017-08-04 18:28:18	-0.2
2017-08-04 18:37:25	-0.2
2017-08-04 18:43:28	-0.3
2017-08-04 18:54:15	-0.5
2017-08-04 19:00:48	-0.4
2017-08-04 19:03:53	-0.2
2017-08-04 19:12:30	-0.4
2017-08-04 19:15:50	-0.2
2017-08-04 19:21:13	-0.3
2017-08-04 19:25:40	-0.4
2017-08-04 19:29:45	-0.4
2017-08-04 19:39:23	-0.3
2017-08-04 19:44:28	-0.4
2017-08-04 19:55:35	-0.3
2017-08-04 20:02:10	-0.4
2017-08-04 20:06:10	-0.3
2017-08-04 20:13:18	-0.4
2017-08-04 20:17:55	-0.2
2017-08-04 20:24:13	-0.4
2017-08-04 20:27:35	-0.2
2017-08-04 20:40:50	-0.1
2017-08-04 20:47:05	-0.4
2017-08-04 20:52:08	-0.2
2017-08-04 21:03:30	-0.4
2017-08-04 21:08:18	-0.3
2017-08-04 21:14:58	-0.4
2017-08-04 21:22:28	-0.3
2017-08-04 21:45:43	-0.3
2017-08-04 21:56:28	-0.2
2017-08-04 22:03:53	-0.1
2017-08-04 22:22:43	-0.3
2017-08-04 22:35:20	-0.1
2017-08-04 22:44:30	-0.4
2017-08-04 22:49:28	-0.2
2017-08-04 23:06:23	-0.3
2017-08-04 23:10:23	-0.3
2017-08-04 23:15:28	-0.3
2017-08-04 23:30:53	-0.2
2017-08-04 23:37:58	-0.2
2017-08-04 23:46:55	0.0
2017-08-04 23:54:03	-0.1
2017-08-05 00:02:40	0.1
2017-08-05 00:07:08	-0.0
2017-08-05 00:18:58	-0.2
2017-08-05 00:29:03	-0.1
2017-08-05 00:38:20	-0.3
2017-08-05 00:44:20	-0.1
2017-08-05 00:49:30	-0.1
2017-08-05 00:53:40	-0.1
2017-08-05 00:59:18	-0.0
2017-08-05 01:03:48	-0.1
2017-08-05 01:13:55	-0.0
2017-08-05 01:17:50	0.0
2017-08-05 01:35:33	-0.2
2017-08-05 01:43:23	-0.1
2017-08-05 01:51:55	-0.2
2017-08-05 02:02:05	-0.1
2017-08-05 02:09:20	-0.2
2017-08-05 02:15:28	-0.1
2017-08-05 02:24:53	-0.2
2017-08-05 02:32:18	-0.0
2017-08-05 02:38:38	-0.2
2017-08-05 02:48:43	-0.1
2017-08-05 02:52:38	-0.2
2017-08-05 02:59:40	-0.1
2017-08-05 03:07:45	-0.0
2017-08-05 03:17:45	0.1
2017-08-05 03:22:28	-0.2
2017-08-05 03:28:08	-0.1
2017-08-05 03:35:48	-0.2
2017-08-05 03:41:50	-0.1
2017-08-05 03:46:48	-0.1
2017-08-05 03:54:30	-0.3
2017-08-05 04:02:03	-0.2
2017-08-05 04:07:38	-0.1
2017-08-05 04:15:18	-0.2
2017-08-05 04:23:15	-0.1
2017-08-05 04:28:08	-0.1
2017-08-05 04:35:00	-0.2
2017-08-05 04:39:23	-0.1
2017-08-05 04:50:25	-0.2
2017-08-05 04:56:58	-0.1
2017-08-05 05:01:33	-0.3
2017-08-05 05:10:18	-0.2
2017-08-05 05:19:43	-0.0
2017-08-05 05:27:30	-0.1
2017-08-05 05:46:03	0.1
2017-08-05 05:54:05	-0.1
2017-08-05 06:01:10	0.1
2017-08-05 06:09:08	-0.1
2017-08-05 06:12:50	0.1
2017-08-05 06:16:43	-0.1
2017-08-05 06:22:40	0.1
2017-08-05 06:28:25	-0.0
2017-08-05 06:35:33	-0.1
2017-08-05 06:38:55	-0.2
2017-08-05 06:49:50	0.1
2017-08-05 07:00:03	-0.1
2017-08-05 07:07:50	-0.2
2017-08-05 07:10:43	0.1
2017-08-05 07:16:45	-0.1
2017-08-05 07:26:30	0.0
2017-08-05 07:30:53	-0.1
2017-08-05 07:38:00	0.0
2017-08-05 07:46:25	-0.2
2017-08-05 07:51:20	-0.1
2017-08-05 07:55:20	0.1
2017-08-05 08:03:13	-0.1
2017-08-05 08:10:00	-0.1
2017-08-05 08:19:53	0.1
2017-08-05 08:27:23	0.3
2017-08-05 08:34:10	0.1
2017-08-05 08:44:43	-0.1
2017-08-05 08:50:58	0.1
2017-08-05 08:54:48	-0.1
2017-08-05 09:00:15	0.1
2017-08-05 09:08:10	0.2
2017-08-05 09:16:15	0.1
2017-08-05 09:24:48	-0.0
2017-08-05 09:28:10	0.0
2017-08-05 09:40:45	-0.1
2017-08-05 09:47:00	-0.1
2017-08-05 09:52:23	-0.1
2017-08-05 09:57:58	0.2
2017-08-05 10:05:10	0.2
2017-08-05 10:10:48	0.1
2017-08-05 10:20:40	0.5
2017-08-05 10:25:50	0.0
2017-08-05 10:34:03	0.1
2017-08-05 10:41:23	-0.0
2017-08-05 10:44:10	0.0
2017-08-05 10:55:18	0.1
2017-08-05 11:03:43	-0.0
2017-08-05 11:13:43	0.0
2017-08-05 11:17:05	-0.1
2017-08-05 11:34:25	0.1
2017-08-05 11:42:35	-0.1
2017-08-05 11:49:48	0.2
2017-08-05 11:58:58	0.1
2017-08-05 12:04:28	0.1
2017-08-05 12:17:08	0.1
2017-08-05 12:23:13	0.3
2017-08-05 12:32:20	-0.1
2017-08-05 12:42:18	0.1
2017-08-05 12:51:30	-0.1
2017-08-05 13:01:10	0.2
2017-08-05 13:05:20	0.1
2017-08-05 13:09:50	-0.1
2017-08-05 13:16:05	0.1
2017-08-05 13:20:53	-0.1
2017-08-05 13:30:18	0.1
2017-08-05 13:33:03	-0.1
2017-08-05 13:44:10	0.1
2017-08-05 13:50:18	-0.0
2017-08-05 13:59:43	0.1
2017-08-05 14:06:53	-0.0
2017-08-05 14:11:05	0.1
2017-08-05 14:21:15	-0.1
2017-08-05 14:40:18	0.0
2017-08-05 14:52:45	-0.1
2017-08-05 14:57:38	0.0
2017-08-05 15:05:13	-0.1
2017-08-05 15:24:05	0.0
2017-08-05 15:32:20	-0.2
2017-08-05 15:43:50	-0.0
2017-08-05 15:47:58	-0.0
2017-08-05 15:57:53	-0.2
2017-08-05 16:01:40	-0.1
2017-08-05 16:06:00	-0.3
2017-08-05 16:17:58	-0.1
2017-08-05 16:27:45	-0.1
2017-08-05 16:35:15	-0.1
2017-08-05 16:42:08	-0.0
2017-08-05 16:52:43	-0.0
2017-08-05 17:01:43	-0.1
2017-08-05 17:11:58	-0.2
2017-08-05 17:18:48	-0.1
2017-08-05 17:24:53	-0.2
2017-08-05 17:28:35	-0.1
2017-08-05 17:42:23	0.0
2017-08-05 17:52:25	-0.1
2017-08-05 17:59:15	0.1
2017-08-05 18:04:43	-0.1
2017-08-05 18:09:30	-0.2
2017-08-05 18:25:20	-0.2
2017-08-05 18:32:55	-0.1
2017-08-05 18:39:35	-0.2
2017-08-05 18:48:40	-0.1
2017-08-05 18:52:05	-0.1
2017-08-05 18:58:53	-0.1
2017-08-05 19:01:35	-0.2
2017-08-05 19:07:00	-0.1
2017-08-05 19:16:10	-0.2
2017-08-05 19:23:45	-0.1
2017-08-05 19:31:08	-0.2
2017-08-05 19:36:10	-0.1
2017-08-05 19:43:20	-0.1
2017-08-05 19:49:53	0.0
2017-08-05 19:57:50	0.0
2017-08-05 20:05:18	-0.1
2017-08-05 20:10:45	-0.1
2017-08-05 20:19:33	-0.2
2017-08-05 20:25:23	-0.2
2017-08-05 20:42:45	-0.1
2017-08-05 20:46:00	-0.2
2017-08-05 20:59:58	-0.1
2017-08-05 21:06:05	0.0
2017-08-05 21:19:23	-0.3
2017-08-05 21:27:25	-0.2
2017-08-05 21:31:55	-0.1
2017-08-05 21:37:50	-0.2
2017-08-05 21:52:13	-0.1
2017-08-05 21:57:58	-0.2
2017-08-05 22:08:13	-0.1
2017-08-05 22:20:23	-0.2
2017-08-05 22:37:13	-0.2
2017-08-05 22:48:25	-0.1
2017-08-05 22:51:50	-0.1
2017-08-05 23:02:25	-0.2
2017-08-05 23:13:20	-0.1
2017-08-05 23:24:08	-0.1
2017-08-05 23:30:13	0.0
2017-08-05 23:34:00	-0.1
2017-08-05 23:38:20	-0.1
2017-08-05 23:53:33	-0.3
2017-08-06 00:05:23	-0.2
2017-08-06 00:11:05	-0.1
2017-08-06 00:21:15	-0.1
2017-08-06 00:27:45	-0.2
2017-08-06 00:32:18	0.1
2017-08-06 00:36:15	-0.1
2017-08-06 00:42:23	-0.1
2017-08-06 00:51:15	-0.3
2017-08-06 00:58:10	-0.1
2017-08-06 01:12:18	0.1
2017-08-06 01:16:45	-0.0
2017-08-06 01:25:15	-0.2
2017-08-06 01:30:48	-0.1
2017-08-06 01:46:13	-0.0
2017-08-06 01:51:43	-0.1
2017-08-06 01:58:53	0.1
2017-08-06 02:14:03	-0.0
2017-08-06 02:27:43	0.1
2017-08-06 02:33:48	0.1
2017-08-06 02:37:08	-0.0
2017-08-06 02:49:00	-0.1
2017-08-06 02:55:45	-0.0
2017-08-06 03:07:15	0.0
2017-08-06 03:12:53	0.1
2017-08-06 03:18:43	-0.0
2017-08-06 03:24:55	-0.0
2017-08-06 03:43:08	-0.1
2017-08-06 03:53:03	-0.2
2017-08-06 03:56:58	-0.1
2017-08-06 04:03:35	0.0
2017-08-06 04:09:23	-0.1
2017-08-06 04:15:23	0.1
2017-08-06 04:27:33	-0.1
2017-08-06 04:39:33	0.0
2017-08-06 04:51:10	-0.0
2017-08-06 04:59:43	-0.1
2017-08-06 05:03:25	0.0
2017-08-06 05:09:33	0.1
2017-08-06 05:13:35	0.1
2017-08-06 05:18:00	0.2
2017-08-06 05:23:23	0.0
2017-08-06 05:43:05	0.1
2017-08-06 05:51:50	0.2
2017-08-06 05:58:13	0.2
2017-08-06 06:10:33	0.4
2017-08-06 06:18:43	0.3
2017-08-06 06:25:15	0.4
2017-08-06 06:33:08	0.3
2017-08-06 06:37:33	0.2
2017-08-06 06:43:05	0.1
2017-08-06 06:51:00	0.3
2017-08-06 06:59:00	0.1
2017-08-06 07:03:38	0.2
2017-08-06 07:13:28	0.2
2017-08-06 07:16:40	0.2
2017-08-06 07:24:00	-0.0
2017-08-06 07:30:05	0.6
2017-08-06 07:38:20	0.1
2017-08-06 07:44:53	0.2
2017-08-06 07:50:45	0.1
2017-08-06 07:55:43	0.2
2017-08-06 08:02:53	0.1
2017-08-06 08:15:00	0.1
2017-08-06 08:18:50	-0.1
2017-08-06 08:27:10	0.1
2017-08-06 08:30:55	0.0
2017-08-06 08:41:18	0.1
2017-08-06 08:51:40	0.3
2017-08-06 09:04:23	0.1
2017-08-06 09:13:58	-0.0
2017-08-06 09:22:25	0.0
2017-08-06 09:36:48	-0.1
2017-08-06 09:42:08	0.1
2017-08-06 09:48:58	0.3
2017-08-06 09:59:25	0.1
2017-08-06 10:13:45	0.1
2017-08-06 10:24:40	-0.1
2017-08-06 10:28:43	0.0
2017-08-06 10:32:50	0.1
2017-08-06 10:37:50	-0.0
2017-08-06 10:46:25	-0.1
2017-08-06 10:52:55	0.0
2017-08-06 10:57:55	-0.0
2017-08-06 11:07:13	0.1
2017-08-06 11:11:10	-0.1
2017-08-06 11:18:40	0.0
2017-08-06 11:27:50	-0.0
2017-08-06 11:31:35	0.1
2017-08-06 11:39:33	-0.1
2017-08-06 11:53:25	0.0
2017-08-06 12:08:45	0.0
2017-08-06 12:18:05	-0.1
2017-08-06 12:26:58	-0.0
2017-08-06 12:39:08	-0.1
2017-08-06 12:45:10	0.0
2017-08-06 12:52:43	0.1
2017-08-06 12:58:10	-0.1
2017-08-06 13:02:03	-0.1
2017-08-06 13:05:43	-0.0
2017-08-06 13:15:23	0.1
2017-08-06 13:28:45	-0.1
2017-08-06 13:32:05	0.0
2017-08-06 13:39:15	-0.1
2017-08-06 13:45:45	0.1
2017-08-06 13:51:45	0.1
2017-08-06 14:06:58	0.1
2017-08-06 14:15:08	0.0
2017-08-06 14:23:10	-0.0
2017-08-06 14:31:50	0.0
2017-08-06 14:39:38	0.1
2017-08-06 14:46:15	-0.0
2017-08-06 15:00:48	0.1
2017-08-06 15:12:20	0.1
2017-08-06 15:19:40	-0.1
2017-08-06 15:27:55	0.2
2017-08-06 15:35:48	0.0
2017-08-06 15:43:30	-0.0
2017-08-06 15:50:58	0.0
2017-08-06 15:56:23	-0.0
2017-08-06 16:13:03	0.0
2017-08-06 16:20:58	0.0
2017-08-06 16:29:18	0.1
2017-08-06 16:38:48	-0.1
2017-08-06 16:43:18	0.1
2017-08-06 16:50:53	0.1
2017-08-06 16:58:13	-0.0
2017-08-06 17:10:28	0.1
2017-08-06 17:14:50	0.1
2017-08-06 17:26:23	-0.0
2017-08-06 17:33:43	0.1
2017-08-06 17:40:53	-0.0
2017-08-06 17:53:45	0.1
2017-08-06 18:05:55	-0.1
2017-08-06 18:18:48	0.1
2017-08-06 18:24:45	0.1
2017-08-06 18:32:00	-0.1
2017-08-06 18:38:08	0.0
2017-08-06 18:45:13	-0.1
2017-08-06 18:49:03	-0.2
2017-08-06 18:57:55	-0.1
2017-08-06 19:11:40	0.1
2017-08-06 19:15:18	0.1
2017-08-06 19:20:15	0.1
2017-08-06 19:34:20	-0.0
2017-08-06 19:44:48	-0.1
2017-08-06 19:51:10	0.1
2017-08-06 19:56:58	-0.1
2017-08-06 20:05:48	0.1
2017-08-06 20:13:38	-0.1
2017-08-06 20:19:30	-0.1
2017-08-06 20:28:15	-0.2
2017-08-06 20:37:20	-0.0
2017-08-06 20:46:55	0.1
2017-08-06 20:51:58	0.0
2017-08-06 20:58:08	-0.1
2017-08-06 21:06:28	0.1
2017-08-06 21:20:20	-0.1
2017-08-06 21:30:33	0.2
2017-08-06 21:42:08	0.0
2017-08-06 21:55:48	-0.1
2017-08-06 22:00:53	-0.1
2017-08-06 22:11:43	-0.0
2017-08-06 22:20:08	-0.1
2017-08-06 22:38:23	-0.2
2017-08-06 22:44:03	-0.2
2017-08-06 22:59:33	-0.0
2017-08-06 23:11:58	-0.1
2017-08-06 23:24:38	0.0
2017-08-06 23:30:50	-0.1
2017-08-06 23:38:10	0.1
2017-08-06 23:43:43	-0.0
2017-08-06 23:51:53	-0.1
2017-08-06 23:59:55	-0.2
2017-08-07 00:08:10	-0.1
2017-08-07 00:14:45	-0.0
2017-08-07 00:19:40	-0.0
2017-08-07 00:26:03	-0.2
2017-08-07 00:29:30	-0.1
2017-08-07 00:36:38	-0.1
2017-08-07 00:43:03	-0.2
2017-08-07 00:46:53	-0.1
2017-08-07 00:56:43	-0.0
2017-08-07 01:08:40	-0.4
2017-08-07 01:19:43	-0.1
2017-08-07 01:30:15	-0.2
2017-08-07 01:35:25	-0.3
2017-08-07 01:41:18	-0.1
2017-08-07 01:50:48	-0.2
2017-08-07 01:54:40	-0.1
2017-08-07 01:59:50	-0.2
2017-08-07 02:07:50	-0.4
2017-08-07 02:17:58	-0.3
2017-08-07 02:22:23	-0.3
2017-08-07 02:25:43	-0.4
2017-08-07 02:34:18	-0.3
2017-08-07 02:37:38	-0.5
2017-08-07 02:49:03	-0.3
2017-08-07 02:52:53	-0.5
2017-08-07 02:56:13	-0.4
2017-08-07 02:59:20	-0.6
2017-08-07 03:02:33	-0.4
2017-08-07 03:08:15	-0.3
2017-08-07 03:12:18	-0.4
2017-08-07 03:19:53	-0.3
2017-08-07 03:28:40	-0.4
2017-08-07 03:35:20	-0.4
2017-08-07 03:40:38	-0.6
2017-08-07 03:46:53	-0.5
2017-08-07 03:57:30	-0.3
2017-08-07 04:04:50	-0.5
2017-08-07 04:14:00	-0.6
2017-08-07 04:25:40	-0.5
2017-08-07 04:34:35	-0.3
2017-08-07 04:40:30	-0.5
2017-08-07 04:51:50	-0.6
2017-08-07 05:06:38	-0.5
2017-08-07 05:13:38	-0.6
2017-08-07 05:21:18	-0.6
2017-08-07 05:40:40	-0.7
2017-08-07 05:45:48	-0.6
2017-08-07 06:01:20	-0.7
2017-08-07 06:07:30	-0.4
2017-08-07 06:13:20	-0.7
2017-08-07 06:21:43	-0.5
2017-08-07 06:32:25	-0.6
2017-08-07 06:38:33	-0.7
2017-08-07 06:47:03	-0.6
2017-08-07 06:50:20	-0.7
2017-08-07 06:58:28	-0.8
2017-08-07 07:10:43	-0.6
2017-08-07 07:21:28	-0.8
2017-08-07 07:35:23	-0.6
2017-08-07 07:42:10	-0.8
2017-08-07 07:52:55	-0.9
2017-08-07 07:58:33	-0.8
2017-08-07 08:12:45	-0.9
2017-08-07 08:16:45	-0.8
2017-08-07 08:29:55	-0.8
2017-08-07 08:43:53	-0.9
2017-08-07 08:50:38	-0.7
2017-08-07 09:08:48	-0.6
2017-08-07 09:15:53	-0.7
2017-08-07 09:29:20	-0.7
2017-08-07 09:36:28	-0.8
2017-08-07 09:40:48	-0.7
2017-08-07 09:48:43	-0.6
2017-08-07 10:00:45	-0.7
2017-08-07 10:04:30	-0.8
2017-08-07 10:14:13	-0.7
2017-08-07 10:25:35	-0.6
2017-08-07 10:36:28	-0.5
2017-08-07 10:42:08	-0.6
2017-08-07 10:47:58	-0.8
2017-08-07 10:56:43	-0.6
2017-08-07 11:12:35	-0.7
2017-08-07 11:20:58	-0.5
2017-08-07 11:28:38	-0.6
2017-08-07 11:34:40	-0.3
2017-08-07 11:41:23	-0.4
2017-08-07 11:49:18	-0.7
2017-08-07 12:04:23	-0.6
2017-08-07 12:10:28	-0.6
2017-08-07 12:21:43	-0.4
2017-08-07 12:28:50	-0.6
2017-08-07 12:34:13	-0.5
2017-08-07 12:39:50	-0.6
2017-08-07 12:46:23	-0.4
2017-08-07 12:57:15	-0.6
2017-08-07 13:10:05	-0.4
2017-08-07 13:15:08	-0.2
2017-08-07 13:21:50	-0.5
2017-08-07 13:28:35	-0.3
2017-08-07 13:34:45	-0.4
2017-08-07 13:41:05	-0.3
2017-08-07 13:53:00	-0.4
2017-08-07 13:59:40	-0.2
2017-08-07 14:08:25	-0.4
2017-08-07 14:14:40	-0.3
2017-08-07 14:21:53	-0.1
2017-08-07 14:39:08	-0.2
2017-08-07 14:49:45	-0.3
2017-08-07 14:56:20	-0.2
2017-08-07 15:05:48	-0.2
2017-08-07 15:17:08	-0.1
2017-08-07 15:25:58	-0.3
2017-08-07 15:33:58	-0.2
2017-08-07 15:41:30	-0.2
2017-08-07 15:52:35	-0.1
2017-08-07 16:09:20	-0.2
2017-08-07 16:15:28	-0.1
2017-08-07 16:18:45	-0.1
2017-08-07 16:27:20	-0.2
2017-08-07 16:31:50	-0.1
2017-08-07 16:38:25	-0.2
2017-08-07 16:45:08	-0.0
2017-08-07 16:53:20	0.1
2017-08-07 17:01:23	-0.1
2017-08-07 17:13:15	-0.2
2017-08-07 17:19:23	-0.1
2017-08-07 17:25:20	-0.2
2017-08-07 17:34:15	-0.2
2017-08-07 17:42:23	0.0
2017-08-07 17:47:13	-0.2
2017-08-07 17:56:13	-0.1
2017-08-07 18:03:30	-0.2
2017-08-07 18:14:08	-0.1
2017-08-07 18:23:40	-0.1
2017-08-07 18:26:18	-0.2
2017-08-07 18:36:55	-0.1
2017-08-07 18:42:15	-0.3
2017-08-07 18:49:20	-0.3
2017-08-07 18:59:43	-0.5
2017-08-07 19:08:03	-0.2
2017-08-07 19:16:48	-0.1
2017-08-07 19:21:18	-0.4
2017-08-07 19:33:40	-0.3
2017-08-07 19:42:23	-0.4
2017-08-07 19:53:33	-0.3
2017-08-07 19:58:25	-0.5
2017-08-07 20:01:50	-0.3
2017-08-07 20:09:33	-0.4
2017-08-07 20:14:08	-0.3
2017-08-07 20:18:33	-0.3
2017-08-07 20:33:18	-0.4
2017-08-07 20:38:03	-0.3
2017-08-07 20:48:15	-0.2
2017-08-07 20:58:55	-0.3
2017-08-07 21:10:58	-0.3
2017-08-07 21:23:25	-0.4
2017-08-07 21:28:35	-0.3
2017-08-07 21:36:43	-0.4
2017-08-07 21:47:20	-0.3
2017-08-07 21:59:20	-0.3
2017-08-07 22:05:30	-0.4
2017-08-07 22:11:53	-0.3
2017-08-07 22:16:50	-0.2
2017-08-07 22:27:50	-0.2
2017-08-07 22:40:30	-0.3
2017-08-07 22:44:25	-0.1
2017-08-07 22:52:13	-0.2
2017-08-07 22:56:05	-0.4
2017-08-07 23:02:03	-0.1
2017-08-07 23:07:40	-0.2
2017-08-07 23:16:48	-0.1
2017-08-07 23:29:35	-0.3
2017-08-07 23:47:45	-0.5
2017-08-07 23:54:48	-0.2
2017-08-08 00:00:18	-0.4
2017-08-08 00:11:13	-0.2
2017-08-08 00:17:20	-0.4
2017-08-08 00:25:53	-0.4
2017-08-08 00:35:55	-0.3
2017-08-08 00:45:58	-0.4
2017-08-08 00:49:55	-0.3
2017-08-08 01:00:08	-0.1
2017-08-08 01:10:33	-0.3
2017-08-08 01:16:08	-0.4
2017-08-08 01:24:58	-0.3
2017-08-08 01:30:45	-0.4
2017-08-08 01:40:25	-0.4
2017-08-08 01:44:43	-0.3
2017-08-08 01:51:25	-0.5
2017-08-08 02:00:33	-0.3
2017-08-08 02:05:00	-0.5
2017-08-08 02:10:40	-0.3
2017-08-08 02:21:23	-0.4
2017-08-08 02:29:15	-0.3
2017-08-08 02:36:25	-0.4
2017-08-08 02:47:20	-0.3
2017-08-08 02:55:50	-0.4
2017-08-08 03:00:30	-0.3
2017-08-08 03:05:33	-0.4
2017-08-08 03:14:13	-0.5
2017-08-08 03:20:23	-0.3
2017-08-08 03:26:28	-0.4
2017-08-08 03:31:18	-0.3
2017-08-08 03:37:13	-0.4
2017-08-08 03:46:03	-0.3
2017-08-08 03:52:45	-0.4
2017-08-08 03:59:48	-0.4
2017-08-08 04:12:10	-0.3
2017-08-08 04:17:53	-0.3
2017-08-08 04:24:45	-0.2
2017-08-08 04:32:25	-0.4
2017-08-08 04:42:18	-0.4
2017-08-08 04:45:18	-0.6
2017-08-08 04:55:08	-0.4
2017-08-08 04:59:43	-0.3
2017-08-08 05:05:28	-0.4
2017-08-08 05:13:55	-0.4
2017-08-08 05:22:43	-0.3
2017-08-08 05:34:10	-0.4
2017-08-08 05:42:50	-0.3
2017-08-08 05:46:10	-0.5
2017-08-08 05:50:08	-0.4
2017-08-08 06:02:55	-0.6
2017-08-08 06:12:20	-0.4
2017-08-08 06:15:18	-0.3
2017-08-08 06:22:13	-0.3
2017-08-08 06:30:03	-0.4
2017-08-08 06:33:28	-0.3
2017-08-08 06:39:38	-0.4
2017-08-08 06:47:40	-0.4
2017-08-08 06:53:40	-0.3
2017-08-08 06:59:53	-0.4
2017-08-08 07:12:05	-0.3
2017-08-08 07:26:50	-0.2
2017-08-08 07:33:03	-0.3
2017-08-08 07:45:35	-0.4
2017-08-08 07:50:28	-0.2
2017-08-08 07:57:15	-0.3
2017-08-08 08:08:23	-0.3
2017-08-08 08:20:55	-0.2
2017-08-08 08:25:45	-0.1
2017-08-08 08:33:00	-0.3
2017-08-08 08:40:25	-0.2
2017-08-08 08:44:20	-0.0
2017-08-08 08:56:05	-0.2
2017-08-08 09:02:28	-0.3
2017-08-08 09:06:25	-0.1
2017-08-08 09:13:13	-0.2
2017-08-08 09:19:20	-0.1
2017-08-08 09:32:28	-0.2
2017-08-08 09:37:58	-0.1
2017-08-08 09:47:35	0.0
2017-08-08 09:53:03	-0.1
2017-08-08 09:59:15	-0.1
2017-08-08 10:05:10	0.1
2017-08-08 10:12:50	-0.1
2017-08-08 10:23:18	-0.2
2017-08-08 10:26:30	-0.1
2017-08-08 10:39:23	0.1
2017-08-08 10:56:20	0.4
2017-08-08 11:07:43	0.0
2017-08-08 11:15:10	-0.1
2017-08-08 11:22:28	0.1
2017-08-08 11:36:30	-0.0
2017-08-08 11:47:28	0.1
2017-08-08 11:56:53	-0.0
2017-08-08 12:01:08	0.2
2017-08-08 12:09:05	0.2
2017-08-08 12:17:35	0.4
2017-08-08 12:22:08	0.2
2017-08-08 12:28:08	0.1
2017-08-08 12:32:58	0.2
2017-08-08 12:39:05	0.4
2017-08-08 12:44:30	0.2
2017-08-08 12:52:33	0.1
2017-08-08 13:07:45	0.1
2017-08-08 13:14:20	0.3
2017-08-08 13:17:38	0.4
2017-08-08 13:21:48	0.2
2017-08-08 13:30:30	0.1
2017-08-08 13:34:25	-0.0
2017-08-08 13:39:13	0.2
2017-08-08 13:46:08	0.4
2017-08-08 13:48:53	0.2
2017-08-08 13:53:08	0.1
2017-08-08 14:04:30	0.3
2017-08-08 14:14:50	0.1
2017-08-08 14:21:33	0.0
2017-08-08 14:24:18	0.3
2017-08-08 14:35:20	0.1
2017-08-08 14:40:53	0.2
2017-08-08 14:54:15	0.3
2017-08-08 15:01:23	0.2
2017-08-08 15:08:13	0.1
2017-08-08 15:13:08	0.2
2017-08-08 15:19:10	0.1
2017-08-08 15:24:13	0.2
2017-08-08 15:29:45	0.6
2017-08-08 15:34:03	0.3
2017-08-08 15:39:25	0.2
2017-08-08 15:45:20	0.1
2017-08-08 15:50:18	0.2
2017-08-08 15:54:38	0.1
2017-08-08 16:03:45	0.4
2017-08-08 16:11:53	0.1
2017-08-08 16:18:25	0.2
2017-08-08 16:22:33	0.1
2017-08-08 16:27:30	0.1
2017-08-08 16:34:13	0.2
2017-08-08 16:40:30	0.1
2017-08-08 16:49:18	0.2
2017-08-08 16:59:05	0.3
2017-08-08 17:05:45	0.3
2017-08-08 17:10:13	0.6
2017-08-08 17:15:40	0.2
2017-08-08 17:18:55	0.3
2017-08-08 17:23:43	0.1
2017-08-08 17:26:50	0.4
2017-08-08 17:30:33	0.1
2017-08-08 17:34:25	0.6
2017-08-08 17:39:58	0.3
2017-08-08 17:43:18	0.3
2017-08-08 17:52:58	0.4
2017-08-08 17:56:53	0.2
2017-08-08 18:04:38	0.4
2017-08-08 18:09:48	0.2
2017-08-08 18:19:18	0.3
2017-08-08 18:25:13	0.5
2017-08-08 18:28:58	0.2
2017-08-08 18:36:40	0.1
2017-08-08 18:42:53	0.4
2017-08-08 18:51:08	0.4
2017-08-08 19:01:30	0.1
2017-08-08 19:10:10	0.3
2017-08-08 19:14:35	0.4
2017-08-08 19:17:40	0.3
2017-08-08 19:21:05	0.3
2017-08-08 19:32:20	0.1
2017-08-08 19:36:10	0.2
2017-08-08 19:40:40	0.4
2017-08-08 19:45:20	0.3
2017-08-08 19:50:43	0.2
2017-08-08 19:57:00	0.1
2017-08-08 20:04:33	0.1
2017-08-08 20:07:48	0.3
2017-08-08 20:17:15	0.1
2017-08-08 20:21:13	0.2
2017-08-08 20:25:08	0.1
2017-08-08 20:33:28	0.2
2017-08-08 20:45:55	0.1
2017-08-08 20:57:18	-0.0
2017-08-08 21:13:03	0.1
2017-08-08 21:16:55	0.1
2017-08-08 21:25:18	0.2
2017-08-08 21:30:20	0.3
2017-08-08 21:38:40	0.1
2017-08-08 21:42:55	0.3
2017-08-08 21:48:53	0.1
2017-08-08 21:58:53	0.2
2017-08-08 22:03:48	0.1
2017-08-08 22:15:10	0.2
2017-08-08 22:26:28	0.4
2017-08-08 22:34:20	0.2
2017-08-08 22:42:40	0.4
2017-08-08 22:51:30	0.1
2017-08-08 23:07:48	0.5
2017-08-08 23:12:45	0.6
2017-08-08 23:19:50	0.6
2017-08-08 23:25:48	0.5
2017-08-08 23:32:05	0.2
2017-08-08 23:39:40	0.5
2017-08-08 23:48:13	0.3
2017-08-08 23:55:53	0.3
2017-08-09 00:00:23	0.2
2017-08-09 00:06:40	0.4
2017-08-09 00:10:08	0.3
2017-08-09 00:17:00	0.2
2017-08-09 00:20:48	0.4
2017-08-09 00:27:15	0.8
2017-08-09 00:31:38	0.5
2017-08-09 00:37:20	0.3
2017-08-09 00:44:55	0.2
2017-08-09 00:49:45	0.2
2017-08-09 00:52:58	0.4
2017-08-09 01:05:50	0.2
2017-08-09 01:15:18	0.4
2017-08-09 01:17:58	0.1
2017-08-09 01:21:43	0.4
2017-08-09 01:25:00	0.4
2017-08-09 01:29:25	0.1
2017-08-09 01:32:18	0.2
2017-08-09 01:39:53	0.3
2017-08-09 01:46:45	0.6
2017-08-09 01:52:18	0.6
2017-08-09 02:02:08	0.5
2017-08-09 02:09:18	0.3
2017-08-09 02:15:43	0.2
2017-08-09 02:26:30	0.1
2017-08-09 02:36:58	0.1
2017-08-09 02:42:28	0.3
2017-08-09 02:50:00	0.3
2017-08-09 02:55:10	0.4
2017-08-09 02:58:25	0.2
2017-08-09 03:04:15	0.1
2017-08-09 03:09:55	0.2
2017-08-09 03:14:25	0.2
2017-08-09 03:21:03	0.1
2017-08-09 03:27:03	0.3
2017-08-09 03:33:15	0.4
2017-08-09 03:45:28	0.4
2017-08-09 03:51:05	0.2
2017-08-09 03:59:50	0.4
2017-08-09 04:03:08	0.1
2017-08-09 04:10:55	0.1
2017-08-09 04:16:18	0.3
2017-08-09 04:21:23	0.2
2017-08-09 04:25:48	0.3
2017-08-09 04:32:30	0.2
2017-08-09 04:39:50	0.1
2017-08-09 04:48:05	0.2
2017-08-09 04:57:38	0.1
2017-08-09 05:02:10	0.3
2017-08-09 05:04:50	0.1
2017-08-09 05:22:48	0.2
2017-08-09 05:31:05	0.1
2017-08-09 05:37:00	0.2
2017-08-09 05:47:45	0.1
2017-08-09 05:52:38	0.2
2017-08-09 05:55:48	0.3
2017-08-09 06:02:18	0.1
2017-08-09 06:09:05	0.0
2017-08-09 06:16:48	0.1
2017-08-09 06:25:38	0.3
2017-08-09 06:30:08	0.1
2017-08-09 06:34:23	0.1
2017-08-09 06:42:43	0.1
2017-08-09 06:47:40	0.1
2017-08-09 06:55:18	-0.1
2017-08-09 07:03:50	0.1
2017-08-09 07:08:08	0.0
2017-08-09 07:19:43	-0.1
2017-08-09 07:24:10	0.3
2017-08-09 07:30:15	-0.1
2017-08-09 07:45:23	-0.1
2017-08-09 07:50:15	0.1
2017-08-09 07:54:25	-0.1
2017-08-09 07:59:58	-0.1
2017-08-09 08:03:50	0.1
2017-08-09 08:12:53	-0.2
2017-08-09 08:19:53	-0.1
2017-08-09 08:28:43	-0.1
2017-08-09 08:37:03	0.0
2017-08-09 08:43:13	0.1
2017-08-09 08:50:58	-0.0
2017-08-09 08:59:18	0.1
2017-08-09 09:06:58	-0.2
2017-08-09 09:17:30	-0.1
2017-08-09 09:24:03	-0.2
2017-08-09 09:29:35	-0.1
2017-08-09 09:35:55	-0.2
2017-08-09 09:40:48	-0.1
2017-08-09 09:49:28	0.1
2017-08-09 09:58:25	-0.1
2017-08-09 10:05:48	-0.1
2017-08-09 10:17:40	0.0
2017-08-09 10:23:50	-0.2
2017-08-09 10:39:53	-0.2
2017-08-09 10:49:25	-0.1
2017-08-09 10:58:53	-0.2
2017-08-09 11:08:10	-0.1
2017-08-09 11:14:43	-0.1
2017-08-09 11:18:35	-0.2
2017-08-09 11:25:48	-0.0
2017-08-09 11:33:25	-0.1
2017-08-09 11:40:50	-0.2
2017-08-09 11:46:28	-0.1
2017-08-09 11:55:48	-0.0
2017-08-09 12:03:40	-0.0
2017-08-09 12:07:28	0.0
2017-08-09 12:15:58	-0.2
2017-08-09 12:20:08	-0.1
2017-08-09 12:28:25	0.1
2017-08-09 12:32:43	-0.0
2017-08-09 12:37:43	-0.1
2017-08-09 12:46:48	-0.1
2017-08-09 13:00:20	-0.2
2017-08-09 13:04:10	-0.3
2017-08-09 13:09:23	-0.1
2017-08-09 13:31:35	-0.0
2017-08-09 13:44:30	-0.2
2017-08-09 13:52:30	-0.1
2017-08-09 13:57:10	-0.2
2017-08-09 14:14:20	0.0
2017-08-09 14:18:13	-0.0
2017-08-09 14:23:23	-0.1
2017-08-09 14:27:30	-0.2
2017-08-09 14:33:30	-0.1
2017-08-09 14:50:15	-0.2
2017-08-09 14:54:35	-0.1
2017-08-09 15:05:08	-0.2
2017-08-09 15:08:53	-0.1
2017-08-09 15:14:18	-0.2
2017-08-09 15:20:15	-0.1
2017-08-09 15:23:28	-0.1
2017-08-09 15:28:28	-0.2
2017-08-09 15:34:48	-0.1
2017-08-09 15:45:25	-0.2
2017-08-09 15:54:50	-0.1
2017-08-09 16:02:08	-0.2
2017-08-09 16:07:48	-0.0
2017-08-09 16:17:40	-0.1
2017-08-09 16:22:13	-0.2
2017-08-09 16:32:43	-0.2
2017-08-09 16:40:05	-0.2
2017-08-09 16:51:28	-0.1
2017-08-09 16:55:23	-0.2
2017-08-09 17:15:13	-0.3
2017-08-09 17:23:25	-0.2
2017-08-09 17:27:58	-0.3
2017-08-09 17:38:33	-0.3
2017-08-09 17:45:55	-0.1
2017-08-09 17:49:45	0.0
2017-08-09 17:54:05	-0.5
2017-08-09 17:59:55	-0.1
2017-08-09 18:06:10	-0.3
2017-08-09 18:15:13	-0.2
2017-08-09 18:20:08	-0.2
2017-08-09 18:31:23	-0.1
2017-08-09 18:38:40	-0.3
2017-08-09 18:54:03	-0.3
2017-08-09 19:02:30	-0.2
2017-08-09 19:16:43	-0.4
2017-08-09 19:21:08	-0.2
2017-08-09 19:28:45	-0.1
2017-08-09 19:34:10	-0.1
2017-08-09 19:38:15	-0.4
2017-08-09 19:43:18	-0.2
2017-08-09 19:52:05	-0.4
2017-08-09 19:58:13	-0.3
2017-08-09 20:04:10	-0.3
2017-08-09 20:12:55	-0.4
2017-08-09 20:19:08	-0.3
2017-08-09 20:24:40	-0.2
2017-08-09 20:30:35	-0.3
2017-08-09 20:35:25	-0.4
2017-08-09 20:39:10	-0.0
2017-08-09 20:49:13	-0.5
2017-08-09 20:57:43	-0.2
2017-08-09 21:02:45	-0.4
2017-08-09 21:07:18	-0.4
2017-08-09 21:14:48	-0.3
2017-08-09 21:20:18	-0.2
2017-08-09 21:25:50	-0.5
2017-08-09 21:34:40	-0.1
2017-08-09 21:38:30	-0.4
2017-08-09 21:44:13	-0.3
2017-08-09 21:51:28	-0.5
2017-08-09 21:58:48	-0.4
2017-08-09 22:08:20	-0.3
2017-08-09 22:16:10	-0.1
2017-08-09 22:23:25	-0.2
2017-08-09 22:32:23	-0.4
2017-08-09 22:39:20	-0.4
2017-08-09 22:52:43	-0.3
2017-08-09 23:00:15	-0.2
2017-08-09 23:04:43	-0.6
2017-08-09 23:13:23	-0.5
2017-08-09 23:28:15	-0.3
2017-08-09 23:34:25	-0.5
2017-08-09 23:47:03	-0.4
2017-08-09 23:55:00	-0.3
2017-08-09 23:59:50	-0.3
2017-08-10 00:10:48	-0.4
2017-08-10 00:20:35	-0.4
2017-08-10 00:32:08	-0.5
2017-08-10 00:38:50	-0.5
2017-08-10 00:45:28	-0.4
2017-08-10 00:53:18	-0.6
2017-08-10 01:00:53	-0.3
2017-08-10 01:04:38	-0.4
2017-08-10 01:08:08	-0.3
2017-08-10 01:21:33	-0.6
2017-08-10 01:25:53	-0.5
2017-08-10 01:29:18	-0.4
2017-08-10 01:37:43	-0.3
2017-08-10 01:45:28	-0.5
2017-08-10 01:49:53	-0.3
2017-08-10 01:53:53	-0.4
2017-08-10 02:02:23	-0.4
2017-08-10 02:07:50	-0.2
2017-08-10 02:14:40	-0.4
2017-08-10 02:25:13	-0.3
2017-08-10 02:28:28	-0.4
2017-08-10 02:35:15	-0.3
2017-08-10 02:38:28	-0.5
2017-08-10 02:44:25	-0.3
2017-08-10 02:51:30	-0.4
2017-08-10 02:54:43	-0.3
2017-08-10 03:03:43	-0.1
2017-08-10 03:07:48	-0.3
2017-08-10 03:14:00	-0.4
2017-08-10 03:23:25	-0.3
2017-08-10 03:33:35	-0.3
2017-08-10 03:40:45	-0.3
2017-08-10 03:44:53	-0.1
2017-08-10 03:51:23	-0.4
2017-08-10 03:57:50	-0.3
2017-08-10 04:07:25	-0.1
2017-08-10 04:15:05	0.0
2017-08-10 04:25:43	-0.1
2017-08-10 04:30:30	-0.1
2017-08-10 04:39:23	-0.4
2017-08-10 04:48:33	-0.3
2017-08-10 05:00:00	-0.4
2017-08-10 05:06:53	-0.2
2017-08-10 05:12:03	-0.4
2017-08-10 05:15:23	-0.2
2017-08-10 05:26:43	-0.4
2017-08-10 05:38:18	-0.3
2017-08-10 05:52:50	-0.4
2017-08-10 05:59:25	-0.2
2017-08-10 06:16:25	-0.4
2017-08-10 06:21:50	-0.3
2017-08-10 06:29:03	-0.4
2017-08-10 06:39:40	-0.3
2017-08-10 06:55:35	-0.4
2017-08-10 06:59:58	-0.3
2017-08-10 07:08:18	-0.4
2017-08-10 07:18:43	-0.3
2017-08-10 07:22:30	-0.3
2017-08-10 07:33:28	-0.1
2017-08-10 07:41:23	-0.3
2017-08-10 07:49:03	-0.4
2017-08-10 08:03:25	-0.3
2017-08-10 08:09:58	-0.4
2017-08-10 08:24:35	-0.3
2017-08-10 08:30:58	-0.3
2017-08-10 08:36:40	-0.4
2017-08-10 08:42:53	-0.1
2017-08-10 08:49:33	-0.2
2017-08-10 08:52:55	-0.2
2017-08-10 08:59:58	-0.3
2017-08-10 09:07:15	-0.4
2017-08-10 09:11:45	-0.3
2017-08-10 09:19:28	-0.5
2017-08-10 09:26:45	-0.5
2017-08-10 09:35:30	-0.3
2017-08-10 09:49:00	-0.2
2017-08-10 09:56:28	-0.2
2017-08-10 10:01:15	-0.2
2017-08-10 10:08:53	-0.1
2017-08-10 10:11:48	-0.1
2017-08-10 10:18:40	0.4
2017-08-10 10:25:40	0.1
2017-08-10 10:31:33	0.1
2017-08-10 10:35:45	0.3
2017-08-10 10:39:13	0.4
2017-08-10 10:46:00	0.3
2017-08-10 10:51:50	0.7
2017-08-10 10:56:08	0.8
2017-08-10 11:00:20	0.8
2017-08-10 11:03:38	0.5
2017-08-10 11:15:15	0.8
2017-08-10 11:29:38	1.0
2017-08-10 11:50:23	1.2
2017-08-10 12:14:43	1.0
2017-08-10 12:45:15	1.4
2017-08-10 12:58:03	1.3
2017-08-10 13:13:58	1.2
2017-08-10 13:20:13	1.3
2017-08-10 13:24:40	1.0
2017-08-10 13:35:50	0.9
2017-08-10 13:54:55	0.5
2017-08-10 14:04:38	0.1
2017-08-10 14:13:48	0.2
2017-08-10 14:23:03	0.1
2017-08-10 14:28:20	-0.1
2017-08-10 14:39:45	0.1
2017-08-10 14:45:58	-0.1
2017-08-10 14:59:00	0.0
2017-08-10 15:15:35	-0.1
2017-08-10 15:19:20	-0.2
2017-08-10 15:23:55	-0.1
2017-08-10 15:29:23	-0.2
2017-08-10 15:37:15	-0.1
2017-08-10 15:44:38	-0.2
2017-08-10 15:51:30	-0.1
2017-08-10 15:58:35	-0.3
2017-08-10 16:03:15	-0.1
2017-08-10 16:07:15	-0.2
2017-08-10 16:16:30	-0.1
2017-08-10 16:25:35	-0.2
2017-08-10 16:39:20	-0.1
2017-08-10 16:46:20	-0.2
2017-08-10 17:08:08	-0.1
2017-08-10 17:21:23	-0.2
2017-08-10 17:29:25	-0.1
2017-08-10 17:45:30	-0.2
2017-08-10 17:51:15	-0.1
2017-08-10 17:55:38	-0.2
2017-08-10 18:12:45	-0.1
