2017-07-27 22:05:03	-59.6
2017-07-27 22:08:43	-59.7
2017-07-28 03:08:28	-59.8
2017-07-28 03:59:28	-59.6
2017-07-28 04:00:35	-59.8
2017-07-28 04:01:58	-59.7
2017-07-28 04:03:35	-59.8
2017-07-28 04:04:08	-59.6
2017-07-28 04:04:40	-59.8
2017-07-28 04:06:08	-59.6
2017-07-28 04:14:45	-59.5
2017-07-28 04:15:45	-59.7
2017-07-28 04:17:33	-59.6
2017-07-28 04:18:30	-59.7
2017-07-28 04:20:28	-59.5
2017-07-28 04:23:48	-59.7
2017-07-28 04:44:10	-59.8
2017-07-28 04:45:13	-59.7
2017-07-28 04:52:05	-59.8
2017-07-28 04:54:05	-59.5
2017-07-28 04:54:45	-59.7
2017-07-28 04:55:33	-59.6
2017-07-28 04:57:03	-59.7
2017-07-28 06:51:50	-58.3
2017-07-28 06:52:23	-58.6
2017-07-28 06:52:53	-58.8
2017-07-28 06:54:40	-59.1
2017-07-28 06:59:13	-59.8
2017-07-29 06:38:43	-59.1
2017-07-29 06:39:15	-59.8
2017-07-29 06:39:45	-59.4
2017-07-29 06:41:33	-59.3
2017-07-29 06:46:05	-59.8
2017-07-29 14:42:50	-59.6
2017-07-29 14:44:25	-59.7
2017-07-29 14:47:05	-59.5
2017-07-29 14:47:53	-59.7
2017-07-29 14:55:13	-59.8
2017-07-29 15:36:38	-59.7
2017-07-29 15:41:10	-59.8
2017-07-30 04:32:45	-59.4
2017-07-30 04:33:33	-59.7
2017-07-30 04:35:15	-59.3
2017-07-30 04:36:08	-59.7
2017-07-30 04:41:18	-59.4
2017-07-30 04:41:48	-59.8
2017-07-30 04:42:20	-59.6
2017-07-30 04:45:10	-59.8
2017-07-30 04:45:43	-59.6
2017-07-30 04:46:13	-59.4
2017-07-30 04:46:45	-59.6
2017-07-30 04:49:03	-59.8
2017-07-30 04:50:23	-59.5
2017-07-30 04:51:30	-59.7
2017-07-30 04:55:08	-59.2
2017-07-30 04:55:48	-59.7
2017-07-30 04:57:28	-59.5
2017-07-30 04:58:38	-59.7
2017-07-30 05:24:50	-59.5
2017-07-30 05:26:08	-59.7
2017-07-30 05:27:10	-59.6
2017-07-30 05:28:50	-59.7
2017-07-30 06:19:50	-59.8
2017-07-30 06:25:35	-58.9
2017-07-30 06:26:38	-58.7
2017-07-30 06:28:28	-59.8
2017-07-30 14:33:40	-59.7
2017-07-30 14:38:13	-59.8
2017-07-31 00:24:35	-59.3
2017-07-31 00:25:08	-59.1
2017-07-31 00:25:15	-59.6
2017-07-31 00:25:38	-59.4
2017-07-31 00:26:10	-59.1
2017-07-31 00:26:43	-59.4
2017-07-31 00:27:13	-59.6
2017-07-31 00:27:50	-58.9
2017-07-31 00:28:15	-59.0
2017-07-31 00:28:48	-59.3
2017-07-31 00:29:20	-59.1
2017-07-31 00:29:53	-58.9
2017-07-31 00:30:25	-58.8
2017-07-31 00:30:58	-59.1
2017-07-31 00:31:28	-59.3
2017-07-31 00:31:58	-59.4
2017-07-31 00:32:30	-59.1
2017-07-31 00:32:55	-59.5
2017-07-31 00:33:03	-59.3
2017-07-31 00:33:35	-59.1
2017-07-31 00:34:05	-59.4
2017-07-31 00:34:35	-59.0
2017-07-31 00:35:08	-59.3
2017-07-31 00:35:25	-59.8
2017-07-31 00:35:40	-59.3
2017-07-31 00:36:10	-58.8
2017-07-31 00:36:43	-59.4
2017-07-31 00:37:15	-59.8
2017-07-31 00:37:45	-59.4
2017-07-31 00:37:58	-59.3
2017-07-31 00:38:18	-59.4
2017-07-31 00:39:18	-59.1
2017-07-31 00:39:53	-59.6
2017-07-31 00:41:00	-59.2
2017-07-31 00:42:03	-59.4
2017-07-31 00:42:33	-58.8
2017-07-31 00:43:03	-59.7
2017-07-31 00:43:35	-59.5
2017-07-31 00:44:08	-59.3
2017-07-31 00:45:38	-59.5
2017-07-31 00:45:43	-59.2
2017-07-31 00:46:13	-59.4
2017-07-31 00:46:48	-59.7
2017-07-31 00:47:18	-59.3
2017-07-31 00:47:50	-58.8
2017-07-31 00:48:08	-59.3
2017-07-31 00:48:53	-59.4
2017-07-31 00:49:23	-59.3
2017-07-31 00:50:43	-59.5
2017-07-31 00:50:58	-59.2
2017-07-31 00:51:28	-59.5
2017-07-31 00:52:00	-59.1
2017-07-31 00:52:30	-59.3
2017-07-31 00:53:33	-59.2
2017-07-31 00:54:05	-59.7
2017-07-31 00:54:40	-59.5
2017-07-31 00:55:48	-59.3
2017-07-31 00:56:18	-59.4
2017-07-31 00:56:43	-59.6
2017-07-31 00:56:50	-59.0
2017-07-31 00:57:58	-59.6
2017-07-31 00:58:20	-58.8
2017-07-31 00:58:30	-59.3
2017-07-31 00:59:00	-59.0
2017-07-31 00:59:33	-59.8
2017-07-31 01:00:05	-58.9
2017-07-31 01:00:35	-59.4
2017-07-31 01:00:53	-59.1
2017-07-31 01:01:05	-59.4
2017-07-31 01:02:08	-59.3
2017-07-31 01:03:25	-59.6
2017-07-31 01:03:43	-59.4
2017-07-31 01:04:15	-59.2
2017-07-31 01:04:48	-59.7
2017-07-31 01:05:53	-59.8
2017-07-31 01:05:58	-59.4
2017-07-31 01:06:25	-59.3
2017-07-31 01:06:55	-59.4
2017-07-31 01:08:00	-59.3
2017-07-31 01:08:33	-59.4
2017-07-31 01:09:35	-59.1
2017-07-31 01:10:05	-59.4
2017-07-31 01:10:35	-59.3
2017-07-31 01:11:05	-59.8
2017-07-31 01:11:08	-59.5
2017-07-31 01:12:10	-59.6
2017-07-31 01:12:40	-59.2
2017-07-31 01:13:13	-59.3
2017-07-31 01:13:43	-58.8
2017-07-31 01:14:13	-59.1
2017-07-31 01:14:48	-59.2
2017-07-31 01:15:53	-59.7
2017-07-31 01:16:10	-59.1
2017-07-31 01:17:28	-59.6
2017-07-31 01:18:00	-59.4
2017-07-31 01:18:43	-59.8
2017-07-31 01:19:03	-59.1
2017-07-31 01:20:05	-59.5
2017-07-31 01:20:35	-59.1
2017-07-31 01:21:38	-59.4
2017-07-31 01:22:08	-59.2
2017-07-31 01:24:03	-59.6
2017-07-31 01:28:35	-59.8
2017-07-31 06:12:38	-58.0
2017-07-31 06:13:10	-58.3
2017-07-31 06:13:40	-58.6
2017-07-31 06:15:20	-58.8
2017-07-31 06:19:53	-59.8
2017-08-01 05:59:20	-58.7
2017-08-01 05:59:53	-59.4
2017-08-01 06:02:13	-59.8
2017-08-01 13:01:45	-59.4
2017-08-01 13:02:15	-59.6
2017-08-01 13:05:45	-59.8
2017-08-01 13:06:25	-59.6
2017-08-01 13:07:18	-59.4
2017-08-01 13:08:03	-59.7
2017-08-01 13:11:05	-59.4
2017-08-01 13:12:28	-59.3
2017-08-01 13:13:00	-59.8
2017-08-01 13:13:33	-59.6
2017-08-01 13:16:05	-59.5
2017-08-01 13:17:10	-59.6
2017-08-01 13:27:53	-59.4
2017-08-01 13:29:38	-59.7
2017-08-01 13:33:30	-59.5
2017-08-01 13:35:08	-59.6
2017-08-01 13:42:30	-59.7
2017-08-01 13:43:58	-59.4
2017-08-01 13:47:28	-59.7
2017-08-01 13:59:03	-59.6
2017-08-01 14:03:35	-59.8
2017-08-01 20:13:05	-59.7
2017-08-01 20:17:38	-59.8
2017-08-01 20:34:28	-59.7
2017-08-01 20:39:00	-59.8
2017-08-01 20:50:00	-59.6
2017-08-01 20:54:33	-59.8
2017-08-02 03:55:15	-59.7
2017-08-02 03:58:28	-59.5
2017-08-02 04:00:38	-59.7
2017-08-02 04:02:23	-59.5
2017-08-02 04:03:23	-59.7
2017-08-02 04:05:40	-59.4
2017-08-02 04:06:53	-59.7
2017-08-02 04:09:33	-59.5
2017-08-02 04:11:55	-59.7
2017-08-02 04:19:30	-59.8
2017-08-02 04:20:18	-59.6
2017-08-02 04:25:13	-59.5
2017-08-02 04:27:03	-59.7
2017-08-02 04:34:03	-59.4
2017-08-02 04:34:35	-59.7
2017-08-02 04:40:05	-59.8
2017-08-02 04:41:40	-59.5
2017-08-02 04:42:13	-59.7
2017-08-02 04:46:05	-59.5
2017-08-02 04:50:33	-59.7
2017-08-02 04:55:05	-59.8
2017-08-02 05:46:15	-59.6
2017-08-02 05:46:48	-59.8
2017-08-02 05:47:18	-59.1
2017-08-02 05:49:05	-59.3
2017-08-02 05:53:38	-59.8
2017-08-02 10:57:28	-59.7
2017-08-02 11:02:00	-59.8
2017-08-02 11:04:58	-59.7
2017-08-02 11:09:30	-59.8
2017-08-02 11:28:50	-59.6
2017-08-02 11:33:23	-59.8
2017-08-02 15:43:50	-59.5
2017-08-02 15:44:20	-59.3
2017-08-02 15:44:55	-59.6
2017-08-02 15:46:35	-59.4
2017-08-02 15:47:25	-59.7
2017-08-02 15:53:13	-59.3
2017-08-02 15:53:45	-59.7
2017-08-02 15:54:25	-59.5
2017-08-02 15:55:05	-59.7
2017-08-02 15:57:35	-59.5
2017-08-02 15:59:40	-59.7
2017-08-02 16:00:55	-59.5
2017-08-02 16:01:28	-59.6
2017-08-02 16:04:23	-59.5
2017-08-02 16:06:55	-59.7
2017-08-02 16:10:23	-59.6
2017-08-02 16:12:43	-59.7
2017-08-02 16:13:43	-59.5
2017-08-02 16:15:03	-59.3
2017-08-02 16:15:55	-59.6
2017-08-02 16:17:08	-59.3
2017-08-02 16:17:48	-59.7
2017-08-02 16:19:43	-59.5
2017-08-02 16:21:20	-59.6
2017-08-02 16:24:08	-59.5
2017-08-02 16:24:48	-59.7
2017-08-02 16:25:40	-59.4
2017-08-02 16:26:28	-59.7
2017-08-02 16:32:20	-59.5
2017-08-02 16:32:55	-59.7
2017-08-02 16:33:25	-59.8
2017-08-02 16:34:43	-59.7
2017-08-02 16:38:33	-59.4
2017-08-02 16:39:15	-59.7
2017-08-02 16:56:48	-59.6
2017-08-02 17:01:20	-59.8
2017-08-03 05:33:08	-59.3
2017-08-03 05:33:38	-59.6
2017-08-03 05:34:10	-59.3
2017-08-03 05:36:00	-59.8
2017-08-03 23:26:18	-59.7
2017-08-03 23:27:58	-59.8
2017-08-03 23:29:33	-59.5
2017-08-03 23:30:05	-59.6
2017-08-03 23:30:35	-59.8
2017-08-03 23:31:40	-59.4
2017-08-03 23:33:03	-59.3
2017-08-03 23:33:35	-59.4
2017-08-03 23:34:10	-59.2
2017-08-03 23:35:00	-59.4
2017-08-03 23:35:35	-59.7
2017-08-03 23:36:55	-59.6
2017-08-03 23:37:28	-59.4
2017-08-03 23:38:45	-59.7
2017-08-03 23:39:25	-59.5
2017-08-03 23:40:28	-59.8
2017-08-03 23:40:58	-59.7
2017-08-03 23:42:28	-59.4
2017-08-03 23:43:30	-59.6
2017-08-03 23:44:03	-59.8
2017-08-03 23:44:35	-59.6
2017-08-03 23:45:38	-59.8
2017-08-03 23:46:23	-59.1
2017-08-03 23:46:53	-59.4
2017-08-03 23:47:25	-59.8
2017-08-03 23:48:58	-59.6
2017-08-03 23:50:33	-59.7
2017-08-03 23:51:38	-59.3
2017-08-03 23:52:08	-59.6
2017-08-03 23:52:40	-59.4
2017-08-03 23:53:13	-59.8
2017-08-03 23:53:45	-59.3
2017-08-03 23:54:18	-59.6
2017-08-03 23:54:48	-59.8
2017-08-03 23:55:20	-59.5
2017-08-03 23:56:20	-59.7
2017-08-03 23:57:23	-59.5
2017-08-03 23:57:55	-59.7
2017-08-03 23:58:28	-59.8
2017-08-03 23:59:03	-59.6
2017-08-03 23:59:33	-59.5
2017-08-04 00:00:03	-59.7
2017-08-04 00:00:33	-59.3
2017-08-04 00:01:03	-59.5
2017-08-04 00:02:08	-59.7
2017-08-04 00:02:48	-59.3
2017-08-04 00:03:18	-59.4
2017-08-04 00:03:50	-59.8
2017-08-04 00:04:28	-59.7
2017-08-04 00:05:00	-59.4
2017-08-04 00:06:00	-59.6
2017-08-04 00:06:33	-59.4
2017-08-04 00:07:15	-59.7
2017-08-04 00:07:45	-59.3
2017-08-04 00:08:15	-59.7
2017-08-04 00:09:23	-59.5
2017-08-04 00:10:00	-59.7
2017-08-04 00:10:43	-59.4
2017-08-04 00:11:45	-59.6
2017-08-04 00:13:35	-59.8
2017-08-04 00:15:30	-59.6
2017-08-04 00:17:03	-59.8
2017-08-04 00:18:50	-59.6
2017-08-04 00:19:28	-59.3
2017-08-04 00:20:00	-59.7
2017-08-04 00:20:30	-59.1
2017-08-04 00:21:13	-59.7
2017-08-04 00:21:43	-59.8
2017-08-04 00:22:20	-59.7
2017-08-04 00:22:53	-59.4
2017-08-04 00:23:25	-59.8
2017-08-04 00:31:53	-59.7
2017-08-04 00:36:25	-59.8
2017-08-04 02:25:00	-59.5
2017-08-04 02:25:53	-59.7
2017-08-04 02:26:25	-59.8
2017-08-04 02:32:20	-59.7
2017-08-04 02:39:53	-59.8
2017-08-04 05:20:00	-58.6
2017-08-04 05:20:33	-58.8
2017-08-04 05:21:05	-59.2
2017-08-04 05:22:53	-59.5
2017-08-04 05:27:25	-59.8
2017-08-04 06:23:30	-59.7
2017-08-04 06:28:03	-59.8
2017-08-04 08:26:13	-59.7
2017-08-04 08:31:13	-58.9
2017-08-04 08:35:20	-59.6
2017-08-04 08:43:58	-59.8
2017-08-04 08:57:55	-59.7
2017-08-04 08:59:55	-59.2
2017-08-04 09:01:00	-59.6
2017-08-04 09:02:38	-59.3
2017-08-04 09:04:00	-59.7
2017-08-04 09:08:33	-59.8
2017-08-04 09:10:45	-59.4
2017-08-04 09:14:53	-59.6
2017-08-04 09:19:25	-59.8
2017-08-04 09:25:20	-59.7
2017-08-04 09:29:53	-59.8
2017-08-04 09:30:30	-59.4
2017-08-04 09:33:28	-59.7
2017-08-04 09:35:45	-59.5
2017-08-04 09:37:00	-59.6
2017-08-04 09:38:50	-59.3
2017-08-04 09:43:23	-59.8
2017-08-04 09:47:28	-59.5
2017-08-04 09:52:00	-59.8
2017-08-04 10:24:03	-59.7
2017-08-04 10:35:40	-59.8
2017-08-04 10:36:13	-59.6
2017-08-04 10:37:00	-59.5
2017-08-04 10:38:38	-59.2
2017-08-04 10:39:48	-59.7
2017-08-04 10:40:40	-59.1
2017-08-04 10:41:30	-59.7
2017-08-04 10:42:33	-59.8
2017-08-04 10:43:05	-59.6
2017-08-04 10:44:53	-59.4
2017-08-04 10:46:28	-59.7
2017-08-04 10:49:03	-59.4
2017-08-04 10:50:35	-59.7
2017-08-04 10:52:00	-59.4
2017-08-04 10:52:35	-59.6
2017-08-04 10:53:18	-59.2
2017-08-04 10:53:48	-59.7
2017-08-04 10:54:33	-59.5
2017-08-04 10:57:03	-59.6
2017-08-04 10:57:33	-59.5
2017-08-04 10:58:13	-59.7
2017-08-04 10:59:43	-59.5
2017-08-04 11:02:45	-59.7
2017-08-04 11:03:43	-59.4
2017-08-04 11:04:38	-59.6
2017-08-04 11:09:10	-59.7
2017-08-04 11:10:50	-59.4
2017-08-04 11:12:30	-59.6
2017-08-04 11:13:00	-59.0
2017-08-04 11:13:43	-59.7
2017-08-04 11:16:05	-59.4
2017-08-04 11:17:20	-59.7
2017-08-04 11:20:55	-59.4
2017-08-04 11:24:43	-59.6
2017-08-04 11:34:38	-59.8
2017-08-04 11:35:58	-59.3
2017-08-04 11:40:30	-59.8
2017-08-04 12:24:28	-59.7
2017-08-04 12:29:00	-59.8
2017-08-04 13:22:08	-59.7
2017-08-04 13:30:23	-59.8
2017-08-04 14:13:03	-59.6
2017-08-04 14:16:23	-59.4
2017-08-04 14:20:55	-59.8
2017-08-04 14:22:05	-59.7
2017-08-04 14:23:28	-59.3
2017-08-04 14:24:05	-59.6
2017-08-04 14:26:48	-59.5
2017-08-04 14:28:13	-59.6
2017-08-04 14:30:45	-59.5
2017-08-04 14:32:23	-59.7
2017-08-04 15:21:25	-59.5
2017-08-04 15:22:35	-59.7
2017-08-04 15:23:25	-59.5
2017-08-04 15:28:20	-59.8
2017-08-04 15:40:08	-59.4
2017-08-04 15:44:43	-59.8
2017-08-04 16:02:05	-59.4
2017-08-04 16:06:38	-59.8
2017-08-04 16:07:15	-59.6
2017-08-04 16:11:48	-59.8
2017-08-04 16:12:28	-59.7
2017-08-04 16:20:55	-59.8
2017-08-04 19:25:05	-59.5
2017-08-04 19:29:40	-59.8
2017-08-04 19:54:35	-59.6
2017-08-04 19:59:13	-59.7
2017-08-04 20:08:30	-59.5
2017-08-04 20:10:10	-59.7
2017-08-04 20:14:43	-59.8
2017-08-04 21:21:43	-59.6
2017-08-04 21:28:23	-59.8
2017-08-04 21:31:58	-59.6
2017-08-04 21:36:30	-59.5
2017-08-04 21:41:03	-59.8
2017-08-04 21:48:48	-59.6
2017-08-04 21:53:20	-59.8
2017-08-04 22:10:53	-59.7
2017-08-04 22:15:25	-59.8
2017-08-05 05:06:53	-58.0
2017-08-05 05:07:25	-58.5
2017-08-05 05:07:58	-58.7
2017-08-05 05:09:45	-59.7
2017-08-05 05:14:18	-59.8
2017-08-05 16:08:43	-59.7
2017-08-05 16:13:15	-59.8
2017-08-06 04:11:23	-59.7
2017-08-06 04:15:55	-59.8
2017-08-06 04:39:50	-59.5
2017-08-06 04:44:23	-59.8
2017-08-06 04:53:48	-58.5
2017-08-06 04:54:18	-58.4
2017-08-06 04:54:50	-58.8
2017-08-06 04:56:38	-59.3
2017-08-06 04:57:40	-59.5
2017-08-06 04:58:20	-59.7
2017-08-06 10:14:53	-59.8
2017-08-06 11:54:33	-59.7
2017-08-06 12:03:03	-59.4
2017-08-06 12:07:30	-59.7
2017-08-06 12:36:33	-59.6
2017-08-06 12:41:05	-59.8
2017-08-06 12:46:35	-59.6
2017-08-06 12:48:08	-59.7
2017-08-06 13:05:33	-59.5
2017-08-06 13:06:35	-59.7
2017-08-06 13:19:48	-59.4
2017-08-06 13:24:20	-59.8
2017-08-06 13:40:30	-59.7
2017-08-06 13:45:05	-59.8
2017-08-06 22:54:30	-59.7
2017-08-06 23:03:25	-59.8
2017-08-06 23:04:13	-59.6
2017-08-06 23:09:53	-59.8
2017-08-06 23:11:08	-59.6
2017-08-06 23:17:33	-59.8
2017-08-06 23:27:08	-59.7
2017-08-06 23:35:20	-59.8
2017-08-07 20:04:43	-59.7
2017-08-07 20:09:15	-59.8
2017-08-07 20:26:08	-59.6
2017-08-07 20:30:40	-59.8
2017-08-07 20:34:05	-59.7
2017-08-07 20:38:38	-59.8
2017-08-08 04:27:33	-58.7
2017-08-08 04:28:03	-59.3
2017-08-08 04:28:35	-59.1
2017-08-08 04:30:23	-59.3
2017-08-08 04:34:55	-59.8
2017-08-08 11:29:40	-59.4
2017-08-08 11:30:43	-59.5
2017-08-08 11:32:08	-59.6
2017-08-08 11:34:48	-59.5
2017-08-08 11:37:03	-59.7
2017-08-08 11:37:35	-59.6
2017-08-08 11:42:48	-59.7
2017-08-08 11:46:53	-59.6
2017-08-08 11:50:05	-59.4
2017-08-08 11:50:40	-59.7
2017-08-08 11:53:53	-59.4
2017-08-08 11:57:18	-59.7
2017-08-08 11:57:53	-59.6
2017-08-08 12:03:15	-59.8
2017-08-08 12:08:58	-59.6
2017-08-08 12:13:55	-59.5
2017-08-08 12:15:00	-59.6
2017-08-08 12:18:20	-59.5
2017-08-08 12:20:58	-59.7
2017-08-08 18:50:48	-59.8
2017-08-08 20:26:28	-59.7
2017-08-09 03:13:18	-59.8
2017-08-09 04:14:25	-59.1
2017-08-09 04:14:58	-58.7
2017-08-09 04:15:28	-59.6
2017-08-09 04:17:18	-59.8
2017-08-09 06:17:15	-59.7
2017-08-09 06:19:08	-59.5
2017-08-09 06:22:23	-59.7
2017-08-10 00:32:48	-59.8
2017-08-10 04:01:18	-58.2
2017-08-10 04:01:48	-59.0
2017-08-10 04:02:20	-59.1
2017-08-10 04:04:10	-59.6
2017-08-10 04:04:40	-59.3
2017-08-10 04:05:28	-59.7
2017-08-10 11:00:25	-59.5
2017-08-10 11:01:30	-59.6
2017-08-10 11:02:30	-59.8
2017-08-10 11:03:33	-59.6
2017-08-10 11:04:38	-59.5
2017-08-10 11:05:10	-59.8
2017-08-10 11:06:50	-59.7
2017-08-10 11:07:20	-59.8
2017-08-10 11:09:03	-59.6
2017-08-10 11:09:35	-59.8
2017-08-10 11:10:05	-59.6
2017-08-10 11:10:38	-59.3
2017-08-10 11:11:10	-59.5
2017-08-10 11:11:53	-59.6
2017-08-10 11:13:03	-59.8
2017-08-10 11:14:13	-59.6
2017-08-10 11:14:43	-59.8
2017-08-10 11:15:20	-59.3
2017-08-10 11:15:50	-59.8
2017-08-10 11:16:55	-59.7
2017-08-10 11:18:38	-59.5
2017-08-10 11:19:08	-59.8
2017-08-10 11:19:38	-59.2
2017-08-10 11:20:10	-59.8
2017-08-10 11:21:45	-59.6
2017-08-10 11:22:20	-59.4
2017-08-10 11:22:58	-59.7
2017-08-10 11:23:48	-59.5
2017-08-10 11:24:18	-59.7
2017-08-10 11:26:00	-59.4
2017-08-10 11:26:38	-59.6
2017-08-10 11:27:38	-59.4
2017-08-10 11:28:45	-59.7
2017-08-10 11:29:15	-59.5
2017-08-10 11:29:48	-59.7
2017-08-10 11:30:25	-59.5
2017-08-10 11:31:35	-59.7
2017-08-10 11:32:08	-59.4
2017-08-10 11:32:38	-59.8
2017-08-10 11:33:10	-59.3
2017-08-10 11:33:48	-59.4
2017-08-10 11:34:20	-59.7
2017-08-10 11:40:15	-59.5
2017-08-10 11:40:53	-59.7
2017-08-10 11:41:35	-59.5
2017-08-10 11:44:38	-59.6
2017-08-10 11:46:20	-59.3
2017-08-10 11:46:55	-59.6
2017-08-10 11:51:25	-59.3
2017-08-10 11:51:55	-59.8
2017-08-10 11:52:28	-59.5
2017-08-10 11:53:00	-59.7
2017-08-10 11:54:58	-59.5
2017-08-10 11:55:50	-59.7
2017-08-10 11:56:20	-59.8
2017-08-10 11:57:53	-59.6
2017-08-10 12:02:48	-59.8
2017-08-10 12:59:33	-59.7
2017-08-10 13:14:25	-59.8
2017-08-10 13:22:08	-59.6
2017-08-10 13:26:40	-59.8
2017-08-10 19:12:55	-59.8
