2017-07-27 18:00	-42.0
2017-07-27 18:20	-42.0
2017-07-27 18:40	-41.9
2017-07-27 19:00	-42.0
2017-07-27 19:20	-42.0
2017-07-27 19:40	-42.0
2017-07-27 20:00	-42.0
2017-07-27 20:20	-42.0
2017-07-27 20:40	-42.0
2017-07-27 21:00	-42.0
2017-07-27 21:20	-42.0
2017-07-27 21:40	-42.0
2017-07-27 22:00	-42.0
2017-07-27 22:20	-42.0
2017-07-27 22:40	-42.0
2017-07-27 23:00	-42.0
2017-07-27 23:20	-42.0
2017-07-27 23:40	-42.0
2017-07-28 00:00	-42.0
2017-07-28 00:20	-42.0
2017-07-28 00:40	-42.0
2017-07-28 01:00	-42.0
2017-07-28 01:20	-42.0
2017-07-28 01:40	-42.0
2017-07-28 02:00	-42.0
2017-07-28 02:20	-42.0
2017-07-28 02:40	-42.0
2017-07-28 03:00	-42.1
2017-07-28 03:20	-42.0
2017-07-28 03:40	-42.0
2017-07-28 04:00	-42.0
2017-07-28 04:20	-42.0
2017-07-28 04:40	-42.0
2017-07-28 05:00	-42.0
2017-07-28 05:20	-42.0
2017-07-28 05:40	-42.0
2017-07-28 06:00	-42.0
2017-07-28 06:20	-42.0
2017-07-28 06:40	-42.0
2017-07-28 07:00	-42.0
2017-07-28 07:20	-42.0
2017-07-28 07:40	-42.0
2017-07-28 08:00	-42.0
2017-07-28 08:20	-42.0
2017-07-28 08:40	-42.0
2017-07-28 09:00	-42.0
2017-07-28 09:20	-42.0
2017-07-28 09:40	-42.0
2017-07-28 10:00	-42.0
2017-07-28 10:20	-42.0
2017-07-28 10:40	-42.0
2017-07-28 11:00	-42.0
2017-07-28 11:20	-42.0
2017-07-28 11:40	-42.0
2017-07-28 12:00	-42.0
2017-07-28 12:20	-42.0
2017-07-28 12:40	-42.0
2017-07-28 13:00	-42.0
2017-07-28 13:20	-42.0
2017-07-28 13:40	-42.0
2017-07-28 14:00	-42.0
2017-07-28 14:20	-42.0
2017-07-28 14:40	-41.9
2017-07-28 15:00	-42.1
2017-07-28 15:20	-41.9
2017-07-28 15:40	-42.0
2017-07-28 16:00	-42.0
2017-07-28 16:20	-42.1
2017-07-28 16:40	-42.0
2017-07-28 17:00	-42.0
2017-07-28 17:20	-42.1
2017-07-28 17:40	-42.0
2017-07-28 18:00	-42.1
2017-07-28 18:20	-42.0
2017-07-28 18:40	-42.1
2017-07-28 19:00	-42.1
2017-07-28 19:20	-42.0
2017-07-28 19:40	-42.1
2017-07-28 20:00	-42.0
2017-07-28 20:20	-42.0
2017-07-28 20:40	-42.0
2017-07-28 21:00	-42.0
2017-07-28 21:20	-42.0
2017-07-28 21:40	-42.2
2017-07-28 22:00	-42.1
2017-07-28 22:20	-42.0
2017-07-28 22:40	-42.0
2017-07-28 23:00	-42.0
2017-07-28 23:20	-42.1
2017-07-28 23:40	-42.0
2017-07-29 00:00	-42.0
2017-07-29 00:20	-42.0
2017-07-29 00:40	-42.1
2017-07-29 01:00	-42.1
2017-07-29 01:20	-42.0
2017-07-29 01:40	-42.0
2017-07-29 02:00	-42.0
2017-07-29 02:20	-42.0
2017-07-29 02:40	-42.0
2017-07-29 03:00	-42.1
2017-07-29 03:20	-42.1
2017-07-29 03:40	-42.3
2017-07-29 04:00	-42.0
2017-07-29 04:20	-42.1
2017-07-29 04:40	-42.1
2017-07-29 05:00	-42.0
2017-07-29 05:20	-42.2
2017-07-29 05:40	-42.1
2017-07-29 06:00	-42.0
2017-07-29 06:20	-42.0
2017-07-29 06:40	-42.1
2017-07-29 07:00	-42.0
2017-07-29 07:20	-42.0
2017-07-29 07:40	-42.0
2017-07-29 08:00	-42.0
2017-07-29 08:20	-42.0
2017-07-29 08:40	-42.4
2017-07-29 09:00	-42.0
2017-07-29 09:20	-42.0
2017-07-29 09:40	-42.0
2017-07-29 10:00	-42.0
2017-07-29 10:20	-42.0
2017-07-29 10:40	-42.0
2017-07-29 11:00	-42.0
2017-07-29 11:20	-42.0
2017-07-29 11:40	-42.0
2017-07-29 12:00	-42.0
2017-07-29 12:20	-42.0
2017-07-29 12:40	-42.0
2017-07-29 13:00	-42.0
2017-07-29 13:20	-42.0
2017-07-29 13:40	-42.0
2017-07-29 14:00	-42.0
2017-07-29 14:20	-42.0
2017-07-29 14:40	-42.0
2017-07-29 15:00	-42.0
2017-07-29 15:20	-42.0
2017-07-29 15:40	-42.0
2017-07-29 16:00	-42.0
2017-07-29 16:20	-42.0
2017-07-29 16:40	-42.0
2017-07-29 17:00	-42.0
2017-07-29 17:20	-42.0
2017-07-29 17:40	-42.0
2017-07-29 18:00	-42.0
2017-07-29 18:20	-42.0
2017-07-29 18:40	-42.0
2017-07-29 19:00	-42.0
2017-07-29 19:20	-42.0
2017-07-29 19:40	-42.0
2017-07-29 20:00	-42.0
2017-07-29 20:20	-42.0
2017-07-29 20:40	-42.0
2017-07-29 21:00	-42.0
2017-07-29 21:20	-42.0
2017-07-29 21:40	-42.0
2017-07-29 22:00	-42.0
2017-07-29 22:20	-42.0
2017-07-29 22:40	-42.0
2017-07-29 23:00	-42.0
2017-07-29 23:20	-42.0
2017-07-29 23:40	-42.0
2017-07-30 00:00	-42.0
2017-07-30 00:20	-42.0
2017-07-30 00:40	-42.0
2017-07-30 01:00	-42.0
2017-07-30 01:20	-42.0
2017-07-30 01:40	-42.0
2017-07-30 02:00	-42.0
2017-07-30 02:20	-42.0
2017-07-30 02:40	-42.0
2017-07-30 03:00	-42.0
2017-07-30 03:20	-42.0
2017-07-30 03:40	-42.0
2017-07-30 04:00	-42.0
2017-07-30 04:20	-42.0
2017-07-30 04:40	-42.0
2017-07-30 05:00	-42.0
2017-07-30 05:20	-42.0
2017-07-30 05:40	-42.0
2017-07-30 06:00	-42.0
2017-07-30 06:20	-42.0
2017-07-30 06:40	-42.0
2017-07-30 07:00	-42.0
2017-07-30 07:20	-42.0
2017-07-30 07:40	-42.0
2017-07-30 08:00	-42.0
2017-07-30 08:20	-42.0
2017-07-30 08:40	-42.0
2017-07-30 09:00	-42.0
2017-07-30 09:20	-42.0
2017-07-30 09:40	-42.0
2017-07-30 10:00	-42.0
2017-07-30 10:20	-42.0
2017-07-30 10:40	-42.0
2017-07-30 11:00	-42.0
2017-07-30 11:20	-42.0
2017-07-30 11:40	-42.0
2017-07-30 12:00	-42.0
2017-07-30 12:20	-42.0
2017-07-30 12:40	-42.0
2017-07-30 13:00	-42.0
2017-07-30 13:20	-42.0
2017-07-30 13:40	-42.0
2017-07-30 14:00	-42.0
2017-07-30 14:20	-42.0
2017-07-30 14:40	-42.0
2017-07-30 15:00	-42.0
2017-07-30 15:20	-42.0
2017-07-30 15:40	-42.0
2017-07-30 16:00	-42.0
2017-07-30 16:20	-42.0
2017-07-30 16:40	-42.0
2017-07-30 17:00	-42.0
2017-07-30 17:20	-42.0
2017-07-30 17:40	-42.0
2017-07-30 18:00	-42.0
2017-07-30 18:20	-42.0
2017-07-30 18:40	-42.0
2017-07-30 19:00	-42.0
2017-07-30 19:20	-42.0
2017-07-30 19:40	-42.0
2017-07-30 20:00	-42.0
2017-07-30 20:20	-42.0
2017-07-30 20:40	-42.0
2017-07-30 21:00	-42.0
2017-07-30 21:20	-42.0
2017-07-30 21:40	-42.0
2017-07-30 22:00	-42.1
2017-07-30 22:20	-42.0
2017-07-30 22:40	-42.0
2017-07-30 23:00	-42.0
2017-07-30 23:20	-42.0
2017-07-30 23:40	-42.0
2017-07-31 00:00	-42.0
2017-07-31 00:20	-42.0
2017-07-31 00:40	-42.0
2017-07-31 01:00	-42.0
2017-07-31 01:20	-42.0
2017-07-31 01:40	-42.0
2017-07-31 02:00	-42.0
2017-07-31 02:20	-42.0
2017-07-31 02:40	-42.0
2017-07-31 03:00	-42.0
2017-07-31 03:20	-42.0
2017-07-31 03:40	-42.0
2017-07-31 04:00	-42.0
2017-07-31 04:20	-42.0
2017-07-31 04:40	-42.0
2017-07-31 05:00	-42.0
2017-07-31 05:20	-42.0
2017-07-31 05:40	-42.0
2017-07-31 06:00	-42.0
2017-07-31 06:20	-42.0
2017-07-31 06:40	-42.0
2017-07-31 07:00	-42.0
2017-07-31 07:20	-42.0
2017-07-31 07:40	-42.0
2017-07-31 08:00	-42.0
2017-07-31 08:20	-42.0
2017-07-31 08:40	-42.0
2017-07-31 09:00	-42.0
2017-07-31 09:20	-42.0
2017-07-31 09:40	-42.0
2017-07-31 10:00	-42.0
2017-07-31 10:20	-42.0
2017-07-31 10:40	-42.0
2017-07-31 11:00	-42.0
2017-07-31 11:20	-42.1
2017-07-31 11:40	-42.0
2017-07-31 12:00	-42.0
2017-07-31 12:20	-42.0
2017-07-31 12:40	-42.0
2017-07-31 13:00	-42.0
2017-07-31 13:20	-42.0
2017-07-31 13:40	-42.0
2017-07-31 14:00	-42.0
2017-07-31 14:20	-42.0
2017-07-31 14:40	-42.0
2017-07-31 15:00	-42.0
2017-07-31 15:20	-42.0
2017-07-31 15:40	-42.0
2017-07-31 16:00	-42.0
2017-07-31 16:20	-42.0
2017-07-31 16:40	-42.0
2017-07-31 17:00	-42.0
2017-07-31 17:20	-42.0
2017-07-31 17:40	-42.0
2017-07-31 18:00	-42.0
2017-07-31 18:20	-42.0
2017-07-31 18:40	-42.0
2017-07-31 19:00	-42.0
2017-07-31 19:20	-42.0
2017-07-31 19:40	-42.0
2017-07-31 20:00	-42.0
2017-07-31 20:20	-42.0
2017-07-31 20:40	-42.1
2017-07-31 21:00	-42.0
2017-07-31 21:20	-42.0
2017-07-31 21:40	-42.0
2017-07-31 22:00	-42.0
2017-07-31 22:20	-42.1
2017-07-31 22:40	-42.0
2017-07-31 23:00	-42.1
2017-07-31 23:20	-42.0
2017-07-31 23:40	-42.0
2017-08-01 00:00	-42.0
2017-08-01 00:20	-42.0
2017-08-01 00:40	-42.0
2017-08-01 01:00	-42.0
2017-08-01 01:20	-42.0
2017-08-01 01:40	-42.0
2017-08-01 02:00	-42.0
2017-08-01 02:20	-42.0
2017-08-01 02:40	-42.0
2017-08-01 03:00	-42.0
2017-08-01 03:20	-42.1
2017-08-01 03:40	-42.1
2017-08-01 04:00	-42.1
2017-08-01 04:20	-42.0
2017-08-01 04:40	-42.1
2017-08-01 05:00	-42.0
2017-08-01 05:20	-42.1
2017-08-01 05:40	-42.0
2017-08-01 06:00	-42.0
2017-08-01 06:20	-42.3
2017-08-01 06:40	-42.1
2017-08-01 07:00	-42.0
2017-08-01 07:20	-42.3
2017-08-01 07:40	-42.1
2017-08-01 08:00	-42.1
2017-08-01 08:20	-42.1
2017-08-01 08:40	-42.0
2017-08-01 09:00	-42.0
2017-08-01 09:20	-42.2
2017-08-01 09:40	-42.1
2017-08-01 10:00	-42.1
2017-08-01 10:20	-42.0
2017-08-01 10:40	-42.0
2017-08-01 11:00	-42.1
2017-08-01 11:20	-42.0
2017-08-01 11:40	-42.1
2017-08-01 12:00	-42.1
2017-08-01 12:20	-42.1
2017-08-01 12:40	-42.0
2017-08-01 13:00	-42.1
2017-08-01 13:20	-42.0
2017-08-01 13:40	-42.1
2017-08-01 14:00	-42.1
2017-08-01 14:20	-42.0
2017-08-01 14:40	-42.0
2017-08-01 15:00	-42.0
2017-08-01 15:20	-42.1
2017-08-01 15:40	-42.1
2017-08-01 16:00	-42.0
2017-08-01 16:20	-42.0
2017-08-01 16:40	-42.2
2017-08-01 17:00	-42.0
2017-08-01 17:20	-42.1
2017-08-01 17:40	-42.3
2017-08-01 18:00	-42.2
2017-08-01 18:20	-42.2
2017-08-01 18:40	-42.4
2017-08-01 19:00	-42.2
2017-08-01 19:20	-42.1
2017-08-01 19:40	-42.3
2017-08-01 20:00	-42.4
2017-08-01 20:20	-42.1
2017-08-01 20:40	-42.3
2017-08-01 21:00	-42.2
2017-08-01 21:20	-42.3
2017-08-01 21:40	-42.2
2017-08-01 22:00	-42.4
2017-08-01 22:20	-42.2
2017-08-01 22:40	-42.2
2017-08-01 23:00	-42.3
2017-08-01 23:20	-42.1
2017-08-01 23:40	-42.1
2017-08-02 00:00	-42.0
2017-08-02 00:20	-42.0
2017-08-02 00:40	-42.2
2017-08-02 01:00	-42.0
2017-08-02 01:20	-42.1
2017-08-02 01:40	-42.0
2017-08-02 02:00	-42.1
2017-08-02 02:20	-42.2
2017-08-02 02:40	-42.3
2017-08-02 03:00	-42.2
2017-08-02 03:20	-42.0
2017-08-02 03:40	-42.2
2017-08-02 04:00	-42.1
2017-08-02 04:20	-42.1
2017-08-02 04:40	-42.0
2017-08-02 05:00	-42.1
2017-08-02 05:20	-42.3
2017-08-02 05:40	-42.4
2017-08-02 06:00	-42.3
2017-08-02 06:20	-42.2
2017-08-02 06:40	-42.3
2017-08-02 07:00	-42.6
2017-08-02 07:20	-42.5
2017-08-02 07:40	-42.3
2017-08-02 08:00	-42.3
2017-08-02 08:20	-42.2
2017-08-02 08:40	-42.8
2017-08-02 09:00	-42.3
2017-08-02 09:20	-42.4
2017-08-02 09:40	-42.8
2017-08-02 10:00	-42.7
2017-08-02 10:20	-42.8
2017-08-02 10:40	-42.6
2017-08-02 11:00	-42.4
2017-08-02 11:20	-42.7
2017-08-02 11:40	-42.9
2017-08-02 12:00	-42.4
2017-08-02 12:20	-42.8
2017-08-02 12:40	-42.5
2017-08-02 13:00	-42.6
2017-08-02 13:20	-42.4
2017-08-02 13:40	-42.5
2017-08-02 14:00	-42.3
2017-08-02 14:20	-42.4
2017-08-02 14:40	-42.4
2017-08-02 15:00	-42.4
2017-08-02 15:20	-42.5
2017-08-02 15:40	-42.5
2017-08-02 16:00	-42.4
2017-08-02 16:20	-42.5
2017-08-02 16:40	-42.5
2017-08-02 17:00	-42.8
2017-08-02 17:20	-42.4
2017-08-02 17:40	-42.6
2017-08-02 18:00	-42.6
2017-08-02 18:20	-42.5
2017-08-02 18:40	-42.4
2017-08-02 19:00	-42.8
2017-08-02 19:20	-42.9
2017-08-02 19:40	-42.8
2017-08-02 20:00	-42.7
2017-08-02 20:20	-42.8
2017-08-02 20:40	-43.1
2017-08-02 21:00	-42.8
2017-08-02 21:20	-43.1
2017-08-02 21:40	-43.0
2017-08-02 22:00	-42.7
2017-08-02 22:20	-42.8
2017-08-02 22:40	-42.7
2017-08-02 23:00	-42.6
2017-08-02 23:20	-42.8
2017-08-02 23:40	-43.1
2017-08-03 00:00	-42.9
2017-08-03 00:20	-42.8
2017-08-03 00:40	-43.0
2017-08-03 01:00	-43.1
2017-08-03 01:20	-42.7
2017-08-03 01:40	-43.0
2017-08-03 02:00	-42.9
2017-08-03 02:20	-42.6
2017-08-03 02:40	-42.6
2017-08-03 03:00	-42.6
2017-08-03 03:20	-42.6
2017-08-03 03:40	-42.9
2017-08-03 04:00	-42.6
2017-08-03 04:20	-42.8
2017-08-03 04:40	-42.7
2017-08-03 05:00	-42.9
2017-08-03 05:20	-43.1
2017-08-03 05:40	-42.7
2017-08-03 06:00	-42.8
2017-08-03 06:20	-42.9
2017-08-03 06:40	-43.0
2017-08-03 07:00	-42.7
2017-08-03 07:20	-42.8
2017-08-03 07:40	-42.6
2017-08-03 08:00	-42.5
2017-08-03 08:20	-42.5
2017-08-03 08:40	-42.7
2017-08-03 09:00	-42.7
2017-08-03 09:20	-42.7
2017-08-03 09:40	-42.8
2017-08-03 10:00	-43.0
2017-08-03 10:20	-42.6
2017-08-03 10:40	-42.4
2017-08-03 11:00	-42.5
2017-08-03 11:20	-42.4
2017-08-03 11:40	-42.8
2017-08-03 12:00	-42.5
2017-08-03 12:20	-42.4
2017-08-03 12:40	-42.5
2017-08-03 13:00	-42.5
2017-08-03 13:20	-42.6
2017-08-03 13:40	-42.3
2017-08-03 14:00	-42.5
2017-08-03 14:20	-42.7
2017-08-03 14:40	-42.5
2017-08-03 15:00	-42.7
2017-08-03 15:20	-42.8
2017-08-03 15:40	-42.4
2017-08-03 16:00	-42.7
2017-08-03 16:20	-42.2
2017-08-03 16:40	-42.5
2017-08-03 17:00	-42.7
2017-08-03 17:20	-42.9
2017-08-03 17:40	-42.9
2017-08-03 18:00	-42.5
2017-08-03 18:20	-42.8
2017-08-03 18:40	-42.9
2017-08-03 19:00	-42.9
2017-08-03 19:20	-42.7
2017-08-03 19:40	-42.7
2017-08-03 20:00	-42.8
2017-08-03 20:20	-42.8
2017-08-03 20:40	-42.2
2017-08-03 21:00	-42.7
2017-08-03 21:20	-42.8
2017-08-03 21:40	-42.5
2017-08-03 22:00	-42.7
2017-08-03 22:20	-42.9
2017-08-03 22:40	-42.6
2017-08-03 23:00	-42.7
2017-08-03 23:20	-42.5
2017-08-03 23:40	-42.6
2017-08-04 00:00	-42.5
2017-08-04 00:20	-42.9
2017-08-04 00:40	-42.5
2017-08-04 01:00	-42.6
2017-08-04 01:20	-42.9
2017-08-04 01:40	-42.4
2017-08-04 02:00	-42.4
2017-08-04 02:20	-42.4
2017-08-04 02:40	-42.4
2017-08-04 03:00	-42.5
2017-08-04 03:20	-42.5
2017-08-04 03:40	-42.5
2017-08-04 04:00	-42.5
2017-08-04 04:20	-42.3
2017-08-04 04:40	-42.1
2017-08-04 05:00	-42.1
2017-08-04 05:20	-42.0
2017-08-04 05:40	-42.1
2017-08-04 06:00	-42.2
2017-08-04 06:20	-42.4
2017-08-04 06:40	-42.1
2017-08-04 07:00	-42.2
2017-08-04 07:20	-42.1
2017-08-04 07:40	-42.1
2017-08-04 08:00	-42.2
2017-08-04 08:20	-42.2
2017-08-04 08:40	-42.0
2017-08-04 09:00	-42.2
2017-08-04 09:20	-42.1
2017-08-04 09:40	-42.3
2017-08-04 10:00	-42.1
2017-08-04 10:20	-42.0
2017-08-04 10:40	-42.2
2017-08-04 11:00	-42.0
2017-08-04 11:20	-42.0
2017-08-04 11:40	-42.2
2017-08-04 12:00	-42.0
2017-08-04 12:20	-42.1
2017-08-04 12:40	-42.1
2017-08-04 13:00	-42.0
2017-08-04 13:20	-42.1
2017-08-04 13:40	-41.9
2017-08-04 14:00	-41.8
2017-08-04 14:20	-42.1
2017-08-04 14:40	-42.1
2017-08-04 15:00	-42.0
2017-08-04 15:20	-42.0
2017-08-04 15:40	-42.3
2017-08-04 16:00	-42.1
2017-08-04 16:20	-42.1
2017-08-04 16:40	-42.0
2017-08-04 17:00	-42.0
2017-08-04 17:20	-42.0
2017-08-04 17:40	-42.0
2017-08-04 18:00	-42.0
2017-08-04 18:20	-42.0
2017-08-04 18:40	-42.1
2017-08-04 19:00	-42.1
2017-08-04 19:20	-42.0
2017-08-04 19:40	-42.0
2017-08-04 20:00	-42.0
2017-08-04 20:20	-42.0
2017-08-04 20:40	-42.0
2017-08-04 21:00	-42.0
2017-08-04 21:20	-42.0
2017-08-04 21:40	-42.1
2017-08-04 22:00	-42.0
2017-08-04 22:20	-42.0
2017-08-04 22:40	-42.0
2017-08-04 23:00	-42.0
2017-08-04 23:20	-42.0
2017-08-04 23:40	-42.0
2017-08-05 00:00	-42.0
2017-08-05 00:20	-42.0
2017-08-05 00:40	-42.1
2017-08-05 01:00	-42.0
2017-08-05 01:20	-42.0
2017-08-05 01:40	-42.0
2017-08-05 02:00	-42.0
2017-08-05 02:20	-42.0
2017-08-05 02:40	-42.0
2017-08-05 03:00	-42.0
2017-08-05 03:20	-42.0
2017-08-05 03:40	-42.0
2017-08-05 04:00	-42.0
2017-08-05 04:20	-42.0
2017-08-05 04:40	-42.0
2017-08-05 05:00	-42.0
2017-08-05 05:20	-42.0
2017-08-05 05:40	-42.0
2017-08-05 06:00	-42.0
2017-08-05 06:20	-42.0
2017-08-05 06:40	-42.0
2017-08-05 07:00	-42.0
2017-08-05 07:20	-42.0
2017-08-05 07:40	-42.0
2017-08-05 08:00	-42.0
2017-08-05 08:20	-42.0
2017-08-05 08:40	-42.0
2017-08-05 09:00	-42.0
2017-08-05 09:20	-42.1
2017-08-05 09:40	-42.0
2017-08-05 10:00	-42.0
2017-08-05 10:20	-42.0
2017-08-05 10:40	-42.1
2017-08-05 11:00	-42.0
2017-08-05 11:20	-42.0
2017-08-05 11:40	-42.0
2017-08-05 12:00	-42.0
2017-08-05 12:20	-42.0
2017-08-05 12:40	-42.1
2017-08-05 13:00	-42.0
2017-08-05 13:20	-42.0
2017-08-05 13:40	-42.0
2017-08-05 14:00	-42.0
2017-08-05 14:20	-42.0
2017-08-05 14:40	-42.0
2017-08-05 15:00	-42.1
2017-08-05 15:20	-42.0
2017-08-05 15:40	-42.0
2017-08-05 16:00	-42.0
2017-08-05 16:20	-42.0
2017-08-05 16:40	-42.0
2017-08-05 17:00	-42.1
2017-08-05 17:20	-42.0
2017-08-05 17:40	-42.1
2017-08-05 18:00	-42.1
2017-08-05 18:20	-42.2
2017-08-05 18:40	-42.0
2017-08-05 19:00	-42.2
2017-08-05 19:20	-42.1
2017-08-05 19:40	-42.2
2017-08-05 20:00	-42.4
2017-08-05 20:20	-42.1
2017-08-05 20:40	-42.4
2017-08-05 21:00	-42.2
2017-08-05 21:20	-42.3
2017-08-05 21:40	-42.3
2017-08-05 22:00	-42.2
2017-08-05 22:20	-42.2
2017-08-05 22:40	-42.0
2017-08-05 23:00	-42.2
2017-08-05 23:20	-42.6
2017-08-05 23:40	-42.1
2017-08-06 00:00	-42.4
2017-08-06 00:20	-42.0
2017-08-06 00:40	-42.2
2017-08-06 01:00	-42.4
2017-08-06 01:20	-42.3
2017-08-06 01:40	-42.5
2017-08-06 02:00	-42.4
2017-08-06 02:20	-42.3
2017-08-06 02:40	-42.3
2017-08-06 03:00	-42.4
2017-08-06 03:20	-42.6
2017-08-06 03:40	-42.6
2017-08-06 04:00	-42.8
2017-08-06 04:20	-42.8
2017-08-06 04:40	-42.8
2017-08-06 05:00	-42.9
2017-08-06 05:20	-42.9
2017-08-06 05:40	-43.0
2017-08-06 06:00	-42.7
2017-08-06 06:20	-43.1
2017-08-06 06:40	-42.6
2017-08-06 07:00	-42.6
2017-08-06 07:20	-43.0
2017-08-06 07:40	-43.0
2017-08-06 08:00	-42.8
2017-08-06 08:20	-43.0
2017-08-06 08:40	-43.1
2017-08-06 09:00	-42.9
2017-08-06 09:20	-43.1
2017-08-06 09:40	-42.9
2017-08-06 10:00	-42.9
2017-08-06 10:20	-42.7
2017-08-06 10:40	-43.1
2017-08-06 11:00	-43.0
2017-08-06 11:20	-43.0
2017-08-06 11:40	-43.1
2017-08-06 12:00	-43.0
2017-08-06 12:20	-43.1
2017-08-06 12:40	-43.1
2017-08-06 13:00	-43.1
2017-08-06 13:20	-43.1
2017-08-06 13:40	-43.1
2017-08-06 14:00	-43.1
2017-08-06 14:20	-43.1
2017-08-06 14:40	-43.1
2017-08-06 15:00	-43.0
2017-08-06 15:20	-43.1
2017-08-06 15:40	-43.1
2017-08-06 16:00	-43.1
2017-08-06 16:20	-43.1
2017-08-06 16:40	-43.1
2017-08-06 17:00	-43.1
2017-08-06 17:20	-43.1
2017-08-06 17:40	-43.1
2017-08-06 18:00	-43.1
2017-08-06 18:20	-43.1
2017-08-06 18:40	-43.1
2017-08-06 19:00	-43.1
2017-08-06 19:20	-43.1
2017-08-06 19:40	-43.1
2017-08-06 20:00	-43.1
2017-08-06 20:20	-43.1
2017-08-06 20:40	-43.1
2017-08-06 21:00	-43.1
2017-08-06 21:20	-43.1
2017-08-06 21:40	-43.0
2017-08-06 22:00	-43.1
2017-08-06 22:20	-43.1
2017-08-06 22:40	-43.1
2017-08-06 23:00	-43.1
2017-08-06 23:20	-43.1
2017-08-06 23:40	-43.0
2017-08-07 00:00	-43.1
2017-08-07 00:20	-43.1
2017-08-07 00:40	-43.1
2017-08-07 01:00	-43.1
2017-08-07 01:20	-43.1
2017-08-07 01:40	-43.1
2017-08-07 02:00	-43.1
2017-08-07 02:20	-43.1
2017-08-07 02:40	-43.1
2017-08-07 03:00	-43.1
2017-08-07 03:20	-43.1
2017-08-07 03:40	-43.1
2017-08-07 04:00	-43.1
2017-08-07 04:20	-43.1
2017-08-07 04:40	-43.1
2017-08-07 05:00	-43.1
2017-08-07 05:20	-43.1
2017-08-07 05:40	-43.1
2017-08-07 06:00	-43.1
2017-08-07 06:20	-43.1
2017-08-07 06:40	-43.2
2017-08-07 07:00	-43.1
2017-08-07 07:20	-43.1
2017-08-07 07:40	-43.1
2017-08-07 08:00	-43.1
2017-08-07 08:20	-43.2
2017-08-07 08:40	-43.2
2017-08-07 09:00	-43.2
2017-08-07 09:20	-43.2
2017-08-07 09:40	-43.1
2017-08-07 10:00	-43.0
2017-08-07 10:20	-43.1
2017-08-07 10:40	-43.0
2017-08-07 11:00	-43.0
2017-08-07 11:20	-43.0
2017-08-07 11:40	-43.0
2017-08-07 12:00	-43.0
2017-08-07 12:20	-43.0
2017-08-07 12:40	-43.0
2017-08-07 13:00	-43.0
2017-08-07 13:20	-43.0
2017-08-07 13:40	-43.0
2017-08-07 14:00	-43.0
2017-08-07 14:20	-43.0
2017-08-07 14:40	-43.0
2017-08-07 15:00	-43.1
2017-08-07 15:20	-43.1
2017-08-07 15:40	-43.1
2017-08-07 16:00	-43.1
2017-08-07 16:20	-43.1
2017-08-07 16:40	-43.1
2017-08-07 17:00	-43.1
2017-08-07 17:20	-43.1
2017-08-07 17:40	-43.1
2017-08-07 18:00	-43.1
2017-08-07 18:20	-43.1
2017-08-07 18:40	-43.1
2017-08-07 19:00	-43.1
2017-08-07 19:20	-42.9
2017-08-07 19:40	-43.0
2017-08-07 20:00	-43.0
2017-08-07 20:20	-42.8
2017-08-07 20:40	-43.1
2017-08-07 21:00	-42.9
2017-08-07 21:20	-43.1
2017-08-07 21:40	-43.0
2017-08-07 22:00	-42.7
2017-08-07 22:20	-42.7
2017-08-07 22:40	-42.9
2017-08-07 23:00	-42.6
2017-08-07 23:20	-42.8
2017-08-07 23:40	-42.5
2017-08-08 00:00	-42.8
2017-08-08 00:20	-42.8
2017-08-08 00:40	-42.9
2017-08-08 01:00	-42.9
2017-08-08 01:20	-43.0
2017-08-08 01:40	-43.0
2017-08-08 02:00	-43.1
2017-08-08 02:20	-42.9
2017-08-08 02:40	-43.1
2017-08-08 03:00	-43.0
2017-08-08 03:20	-43.1
2017-08-08 03:40	-43.0
2017-08-08 04:00	-43.0
2017-08-08 04:20	-43.0
2017-08-08 04:40	-43.1
2017-08-08 05:00	-42.8
2017-08-08 05:20	-43.1
2017-08-08 05:40	-43.0
2017-08-08 06:00	-43.1
2017-08-08 06:20	-42.9
2017-08-08 06:40	-43.1
2017-08-08 07:00	-43.1
2017-08-08 07:20	-43.1
2017-08-08 07:40	-43.0
2017-08-08 08:00	-42.6
2017-08-08 08:20	-42.8
2017-08-08 08:40	-42.7
2017-08-08 09:00	-42.9
2017-08-08 09:20	-42.6
2017-08-08 09:40	-42.5
2017-08-08 10:00	-42.4
2017-08-08 10:20	-42.1
2017-08-08 10:40	-42.1
2017-08-08 11:00	-42.1
2017-08-08 11:20	-41.7
2017-08-08 11:40	-42.3
2017-08-08 12:00	-42.4
2017-08-08 12:20	-42.5
2017-08-08 12:40	-42.5
2017-08-08 13:00	-42.5
2017-08-08 13:20	-42.6
2017-08-08 13:40	-42.6
2017-08-08 14:00	-42.6
2017-08-08 14:20	-42.6
2017-08-08 14:40	-42.6
2017-08-08 15:00	-42.5
2017-08-08 15:20	-42.5
2017-08-08 15:40	-42.5
2017-08-08 16:00	-42.5
2017-08-08 16:20	-42.5
2017-08-08 16:40	-42.5
2017-08-08 17:00	-42.5
2017-08-08 17:20	-42.5
2017-08-08 17:40	-42.5
2017-08-08 18:00	-42.5
2017-08-08 18:20	-42.5
2017-08-08 18:40	-42.5
2017-08-08 19:00	-42.5
2017-08-08 19:20	-42.5
2017-08-08 19:40	-42.5
2017-08-08 20:00	-42.5
2017-08-08 20:20	-42.5
2017-08-08 20:40	-42.5
2017-08-08 21:00	-42.5
2017-08-08 21:20	-42.5
2017-08-08 21:40	-42.5
2017-08-08 22:00	-42.5
2017-08-08 22:20	-42.5
2017-08-08 22:40	-42.5
2017-08-08 23:00	-42.5
2017-08-08 23:20	-42.6
2017-08-08 23:40	-42.5
2017-08-09 00:00	-42.5
2017-08-09 00:20	-42.5
2017-08-09 00:40	-42.5
2017-08-09 01:00	-42.5
2017-08-09 01:20	-42.5
2017-08-09 01:40	-42.5
2017-08-09 02:00	-42.5
2017-08-09 02:20	-42.5
2017-08-09 02:40	-42.5
2017-08-09 03:00	-42.5
2017-08-09 03:20	-42.5
2017-08-09 03:40	-42.5
2017-08-09 04:00	-42.5
2017-08-09 04:20	-42.5
2017-08-09 04:40	-42.5
2017-08-09 05:00	-42.5
2017-08-09 05:20	-42.5
2017-08-09 05:40	-42.5
2017-08-09 06:00	-42.5
2017-08-09 06:20	-42.5
2017-08-09 06:40	-42.5
2017-08-09 07:00	-42.5
2017-08-09 07:20	-42.5
2017-08-09 07:40	-42.5
2017-08-09 08:00	-42.5
2017-08-09 08:20	-42.5
2017-08-09 08:40	-42.6
2017-08-09 09:00	-42.6
2017-08-09 09:20	-42.5
2017-08-09 09:40	-42.5
2017-08-09 10:00	-42.5
2017-08-09 10:20	-42.5
2017-08-09 10:40	-42.5
2017-08-09 11:00	-42.5
2017-08-09 11:20	-42.5
2017-08-09 11:40	-42.5
2017-08-09 12:00	-42.5
2017-08-09 12:20	-42.5
2017-08-09 12:40	-42.5
2017-08-09 13:00	-42.5
2017-08-09 13:20	-42.5
2017-08-09 13:40	-42.5
2017-08-09 14:00	-42.5
2017-08-09 14:20	-42.5
2017-08-09 14:40	-42.4
2017-08-09 15:00	-42.4
2017-08-09 15:20	-42.5
2017-08-09 15:40	-42.5
2017-08-09 16:00	-42.5
2017-08-09 16:20	-42.5
2017-08-09 16:40	-42.5
2017-08-09 17:00	-42.5
2017-08-09 17:20	-42.5
2017-08-09 17:40	-42.5
2017-08-09 18:00	-42.5
2017-08-09 18:20	-42.5
2017-08-09 18:40	-42.5
2017-08-09 19:00	-42.5
2017-08-09 19:20	-42.5
2017-08-09 19:40	-42.5
2017-08-09 20:00	-42.5
2017-08-09 20:20	-42.5
2017-08-09 20:40	-42.5
2017-08-09 21:00	-42.5
2017-08-09 21:20	-42.5
2017-08-09 21:40	-42.5
2017-08-09 22:00	-42.5
2017-08-09 22:20	-42.5
2017-08-09 22:40	-42.5
2017-08-09 23:00	-42.5
2017-08-09 23:20	-42.5
2017-08-09 23:40	-42.5
2017-08-10 00:00	-42.5
2017-08-10 00:20	-42.5
2017-08-10 00:40	-42.5
2017-08-10 01:00	-42.5
2017-08-10 01:20	-42.6
2017-08-10 01:40	-42.5
2017-08-10 02:00	-42.5
2017-08-10 02:20	-42.4
2017-08-10 02:40	-42.5
2017-08-10 03:00	-42.5
2017-08-10 03:20	-42.5
2017-08-10 03:40	-42.5
2017-08-10 04:00	-42.5
2017-08-10 04:20	-42.5
2017-08-10 04:40	-42.5
2017-08-10 05:00	-42.5
2017-08-10 05:20	-42.5
2017-08-10 05:40	-42.5
2017-08-10 06:00	-42.4
2017-08-10 06:20	-42.6
2017-08-10 06:40	-42.6
2017-08-10 07:00	-42.5
2017-08-10 07:20	-42.5
2017-08-10 07:40	-42.5
2017-08-10 08:00	-42.4
2017-08-10 08:20	-42.4
2017-08-10 08:40	-42.5
2017-08-10 09:00	-42.5
2017-08-10 09:20	-42.5
2017-08-10 09:40	-42.4
2017-08-10 10:00	-42.4
2017-08-10 10:20	-42.4
2017-08-10 10:40	-42.4
2017-08-10 11:00	-42.5
2017-08-10 11:20	-42.5
2017-08-10 11:40	-42.7
2017-08-10 12:00	-42.4
2017-08-10 12:20	-42.4
2017-08-10 12:40	-42.4
2017-08-10 13:00	-42.4
2017-08-10 13:20	-42.4
2017-08-10 13:40	-42.4
2017-08-10 14:00	-42.4
2017-08-10 14:20	-42.4
2017-08-10 14:40	-42.4
2017-08-10 15:00	-42.4
2017-08-10 15:20	-42.4
2017-08-10 15:40	-42.4
2017-08-10 16:00	-42.4
2017-08-10 16:20	-42.5
2017-08-10 16:40	-42.5
2017-08-10 17:00	-42.5
2017-08-10 17:20	-43.1
2017-08-10 17:40	-42.8
2017-08-10 18:00	-42.9
