PixelBarrel BpI Sector 1 POH 4L Detector|TSil|PixelBarrel_BpI|21.53|2017-09-26 10:32:49.697000|TK_PLCS/Pixel/crate05/module05/channel_read_08
PixelBarrel BpI Sector 1 POH 4L Detector|TSil|PixelBarrel_BpI|21.02|2017-09-26 10:34:14.697000|TK_PLCS/Pixel/crate05/module05/channel_read_08
PixelBarrel BpI Sector 1 POH 4L Detector|TSil|PixelBarrel_BpI|20.51|2017-09-26 10:35:49.697000|TK_PLCS/Pixel/crate05/module05/channel_read_08
PixelBarrel BpI Sector 1 POH 4L Detector|TSil|PixelBarrel_BpI|19.99|2017-09-26 10:37:44.680000|TK_PLCS/Pixel/crate05/module05/channel_read_08
PixelBarrel BpI Sector 1 POH 4L Detector|TSil|PixelBarrel_BpI|20.51|2017-09-26 10:43:19.690000|TK_PLCS/Pixel/crate05/module05/channel_read_08
PixelBarrel BpI Sector 1 POH 4L Detector|TSil|PixelBarrel_BpI|19.99|2017-09-26 10:49:04.700000|TK_PLCS/Pixel/crate05/module05/channel_read_08
PixelBarrel BpI Sector 1 POH 4L Detector|TSil|PixelBarrel_BpI|19.48|2017-09-26 10:51:07.201000|TK_PLCS/Pixel/crate05/module05/channel_read_08
PixelBarrel BpI Sector 1 POH 4L Detector|TSil|PixelBarrel_BpI|18.96|2017-09-26 10:53:37.295000|TK_PLCS/Pixel/crate05/module05/channel_read_08
PixelBarrel BpI Sector 1 POH 4L Detector|TSil|PixelBarrel_BpI|18.45|2017-09-26 10:56:52.182000|TK_PLCS/Pixel/crate05/module05/channel_read_08
PixelBarrel BpO Sector 8 POH 4L Detector|TSil|PixelBarrel_BpO|12.38|2017-09-26 10:12:44.682000|TK_PLCS/Pixel/crate05/module07/channel_read_08
PixelBarrel BpO Sector 8 POH 4L Detector|TSil|PixelBarrel_BpO|11.86|2017-09-26 10:32:32.179000|TK_PLCS/Pixel/crate05/module07/channel_read_08
PixelBarrel BpO Sector 8 POH 4L Detector|TSil|PixelBarrel_BpO|11.34|2017-09-26 10:34:07.179000|TK_PLCS/Pixel/crate05/module07/channel_read_08
PixelBarrel BpO Sector 8 POH 4L Detector|TSil|PixelBarrel_BpO|10.82|2017-09-26 10:36:02.192000|TK_PLCS/Pixel/crate05/module07/channel_read_08
PixelBarrel BpO Sector 8 POH 4L Detector|TSil|PixelBarrel_BpO|11.34|2017-09-26 10:45:17.309000|TK_PLCS/Pixel/crate05/module07/channel_read_08
PixelBarrel BpO Sector 8 POH 4L Detector|TSil|PixelBarrel_BpO|10.82|2017-09-26 10:48:49.678000|TK_PLCS/Pixel/crate05/module07/channel_read_08
PixelBarrel BpO Sector 8 POH 4L Detector|TSil|PixelBarrel_BpO|10.29|2017-09-26 10:51:09.681000|TK_PLCS/Pixel/crate05/module07/channel_read_08
PixelBarrel BpO Sector 8 POH 4L Detector|TSil|PixelBarrel_BpO|9.77|2017-09-26 10:54:27.194000|TK_PLCS/Pixel/crate05/module07/channel_read_08
PixelBarrel BpO Sector 8 POH 4L Detector|TSil|PixelBarrel_BpO|9.25|2017-09-26 10:59:54.693000|TK_PLCS/Pixel/crate05/module07/channel_read_08
PixelBarrel BpI Sector 4 POH 1L Detector|TSil|PixelBarrel_BpI|14.4|2017-09-26 10:13:57.203000|TK_PLCS/Pixel/crate05/module05/channel_read_02
PixelBarrel BpI Sector 4 POH 1L Detector|TSil|PixelBarrel_BpI|13.88|2017-09-26 10:32:32.179000|TK_PLCS/Pixel/crate05/module05/channel_read_02
PixelBarrel BpI Sector 4 POH 1L Detector|TSil|PixelBarrel_BpI|13.37|2017-09-26 10:33:47.305000|TK_PLCS/Pixel/crate05/module05/channel_read_02
PixelBarrel BpI Sector 4 POH 1L Detector|TSil|PixelBarrel_BpI|12.86|2017-09-26 10:35:19.700000|TK_PLCS/Pixel/crate05/module05/channel_read_02
PixelBarrel BpI Sector 4 POH 1L Detector|TSil|PixelBarrel_BpI|12.35|2017-09-26 10:37:14.698000|TK_PLCS/Pixel/crate05/module05/channel_read_02
PixelBarrel BpI Sector 4 POH 1L Detector|TSil|PixelBarrel_BpI|12.86|2017-09-26 10:40:29.689000|TK_PLCS/Pixel/crate05/module05/channel_read_02
PixelBarrel BpI Sector 4 POH 1L Detector|TSil|PixelBarrel_BpI|13.37|2017-09-26 10:45:49.677000|TK_PLCS/Pixel/crate05/module05/channel_read_02
PixelBarrel BpI Sector 4 POH 1L Detector|TSil|PixelBarrel_BpI|12.86|2017-09-26 10:48:14.688000|TK_PLCS/Pixel/crate05/module05/channel_read_02
PixelBarrel BpI Sector 4 POH 1L Detector|TSil|PixelBarrel_BpI|12.35|2017-09-26 10:49:54.696000|TK_PLCS/Pixel/crate05/module05/channel_read_02
PixelBarrel BpI Sector 4 POH 1L Detector|TSil|PixelBarrel_BpI|11.84|2017-09-26 10:52:07.196000|TK_PLCS/Pixel/crate05/module05/channel_read_02
PixelBarrel BpI Sector 4 POH 1L Detector|TSil|PixelBarrel_BpI|11.33|2017-09-26 10:55:32.203000|TK_PLCS/Pixel/crate05/module05/channel_read_02
PixelBarrel BpO Sector 5 POH 1L Detector|TSil|PixelBarrel_BpO|13.76|2017-09-26 10:10:17.315000|TK_PLCS/Pixel/crate05/module07/channel_read_02
PixelBarrel BpO Sector 5 POH 1L Detector|TSil|PixelBarrel_BpO|13.24|2017-09-26 10:31:54.678000|TK_PLCS/Pixel/crate05/module07/channel_read_02
PixelBarrel BpO Sector 5 POH 1L Detector|TSil|PixelBarrel_BpO|12.73|2017-09-26 10:32:57.200000|TK_PLCS/Pixel/crate05/module07/channel_read_02
PixelBarrel BpO Sector 5 POH 1L Detector|TSil|PixelBarrel_BpO|12.21|2017-09-26 10:34:22.185000|TK_PLCS/Pixel/crate05/module07/channel_read_02
PixelBarrel BpO Sector 5 POH 1L Detector|TSil|PixelBarrel_BpO|11.68|2017-09-26 10:36:12.207000|TK_PLCS/Pixel/crate05/module07/channel_read_02
PixelBarrel BpO Sector 5 POH 1L Detector|TSil|PixelBarrel_BpO|12.19|2017-09-26 10:42:59.707000|TK_PLCS/Pixel/crate05/module07/channel_read_02
PixelBarrel BpO Sector 5 POH 1L Detector|TSil|PixelBarrel_BpO|11.68|2017-09-26 10:48:54.685000|TK_PLCS/Pixel/crate05/module07/channel_read_02
PixelBarrel BpO Sector 5 POH 1L Detector|TSil|PixelBarrel_BpO|11.16|2017-09-26 10:50:57.202000|TK_PLCS/Pixel/crate05/module07/channel_read_02
PixelBarrel BpO Sector 5 POH 1L Detector|TSil|PixelBarrel_BpO|10.64|2017-09-26 10:53:57.192000|TK_PLCS/Pixel/crate05/module07/channel_read_02
PixelBarrel BpO Sector 5 POH 1L Detector|TSil|PixelBarrel_BpO|10.12|2017-09-26 10:58:54.706000|TK_PLCS/Pixel/crate05/module07/channel_read_02
PixelBarrel BmI Sector 1 POH 4R Detector|TSil|PixelBarrel_BmI|21.51|2017-09-26 10:31:52.182000|TK_PLCS/Pixel/crate04/module09/channel_read_08
PixelBarrel BmI Sector 1 POH 4R Detector|TSil|PixelBarrel_BmI|21.0|2017-09-26 10:33:07.184000|TK_PLCS/Pixel/crate04/module09/channel_read_08
PixelBarrel BmI Sector 1 POH 4R Detector|TSil|PixelBarrel_BmI|20.48|2017-09-26 10:34:39.703000|TK_PLCS/Pixel/crate04/module09/channel_read_08
PixelBarrel BmI Sector 1 POH 4R Detector|TSil|PixelBarrel_BmI|19.97|2017-09-26 10:36:24.702000|TK_PLCS/Pixel/crate04/module09/channel_read_08
PixelBarrel BmI Sector 1 POH 4R Detector|TSil|PixelBarrel_BmI|19.45|2017-09-26 10:49:54.696000|TK_PLCS/Pixel/crate04/module09/channel_read_08
PixelBarrel BmI Sector 1 POH 4R Detector|TSil|PixelBarrel_BmI|18.94|2017-09-26 10:52:14.684000|TK_PLCS/Pixel/crate04/module09/channel_read_08
PixelBarrel BmI Sector 1 POH 4R Detector|TSil|PixelBarrel_BmI|18.43|2017-09-26 10:55:12.181000|TK_PLCS/Pixel/crate04/module09/channel_read_08
PixelBarrel BmI Sector 1 POH 4R Detector|TSil|PixelBarrel_BmI|17.92|2017-09-26 10:59:07.293000|TK_PLCS/Pixel/crate04/module09/channel_read_08
PixelBarrel BmI Sector 2 POH 3R Detector|TSil|PixelBarrel_BmI|21.51|2017-09-26 10:12:12.189000|TK_PLCS/Pixel/crate04/module09/channel_read_06
PixelBarrel BmI Sector 2 POH 3R Detector|TSil|PixelBarrel_BmI|21.0|2017-09-26 10:32:22.195000|TK_PLCS/Pixel/crate04/module09/channel_read_06
PixelBarrel BmI Sector 2 POH 3R Detector|TSil|PixelBarrel_BmI|20.48|2017-09-26 10:33:34.701000|TK_PLCS/Pixel/crate04/module09/channel_read_06
PixelBarrel BmI Sector 2 POH 3R Detector|TSil|PixelBarrel_BmI|19.97|2017-09-26 10:35:02.182000|TK_PLCS/Pixel/crate04/module09/channel_read_06
PixelBarrel BmI Sector 2 POH 3R Detector|TSil|PixelBarrel_BmI|19.45|2017-09-26 10:36:42.189000|TK_PLCS/Pixel/crate04/module09/channel_read_06
PixelBarrel BmI Sector 2 POH 3R Detector|TSil|PixelBarrel_BmI|19.97|2017-09-26 10:43:14.698000|TK_PLCS/Pixel/crate04/module09/channel_read_06
PixelBarrel BmI Sector 2 POH 3R Detector|TSil|PixelBarrel_BmI|19.45|2017-09-26 10:48:52.205000|TK_PLCS/Pixel/crate04/module09/channel_read_06
PixelBarrel BmI Sector 2 POH 3R Detector|TSil|PixelBarrel_BmI|18.94|2017-09-26 10:50:44.691000|TK_PLCS/Pixel/crate04/module09/channel_read_06
PixelBarrel BmI Sector 2 POH 3R Detector|TSil|PixelBarrel_BmI|18.43|2017-09-26 10:53:04.695000|TK_PLCS/Pixel/crate04/module09/channel_read_06
PixelBarrel BmI Sector 2 POH 3R Detector|TSil|PixelBarrel_BmI|17.92|2017-09-26 10:56:14.695000|TK_PLCS/Pixel/crate04/module09/channel_read_06
PixelBarrel BmI Sector 3 POH 2R Detector|TSil|PixelBarrel_BmI|18.96|2017-09-26 10:14:29.697000|TK_PLCS/Pixel/crate04/module09/channel_read_04
PixelBarrel BmI Sector 3 POH 2R Detector|TSil|PixelBarrel_BmI|18.45|2017-09-26 10:32:49.697000|TK_PLCS/Pixel/crate04/module09/channel_read_04
PixelBarrel BmI Sector 3 POH 2R Detector|TSil|PixelBarrel_BmI|17.94|2017-09-26 10:34:09.690000|TK_PLCS/Pixel/crate04/module09/channel_read_04
PixelBarrel BmI Sector 3 POH 2R Detector|TSil|PixelBarrel_BmI|17.43|2017-09-26 10:35:42.178000|TK_PLCS/Pixel/crate04/module09/channel_read_04
PixelBarrel BmI Sector 3 POH 2R Detector|TSil|PixelBarrel_BmI|16.92|2017-09-26 10:37:37.192000|TK_PLCS/Pixel/crate04/module09/channel_read_04
PixelBarrel BmI Sector 3 POH 2R Detector|TSil|PixelBarrel_BmI|17.43|2017-09-26 10:41:07.190000|TK_PLCS/Pixel/crate04/module09/channel_read_04
PixelBarrel BmI Sector 3 POH 2R Detector|TSil|PixelBarrel_BmI|16.92|2017-09-26 10:49:49.704000|TK_PLCS/Pixel/crate04/module09/channel_read_04
PixelBarrel BmI Sector 3 POH 2R Detector|TSil|PixelBarrel_BmI|16.41|2017-09-26 10:52:04.685000|TK_PLCS/Pixel/crate04/module09/channel_read_04
PixelBarrel BmI Sector 3 POH 2R Detector|TSil|PixelBarrel_BmI|15.89|2017-09-26 10:54:54.701000|TK_PLCS/Pixel/crate04/module09/channel_read_04
PixelBarrel BmI Sector 3 POH 2R Detector|TSil|PixelBarrel_BmI|15.37|2017-09-26 10:59:07.293000|TK_PLCS/Pixel/crate04/module09/channel_read_04
PixelBarrel BmI Sector 4 POH 1R Detector|TSil|PixelBarrel_BmI|14.52|2017-09-26 10:11:17.295000|TK_PLCS/Pixel/crate04/module09/channel_read_02
PixelBarrel BmI Sector 4 POH 1R Detector|TSil|PixelBarrel_BmI|14.01|2017-09-26 10:32:09.685000|TK_PLCS/Pixel/crate04/module09/channel_read_02
PixelBarrel BmI Sector 4 POH 1R Detector|TSil|PixelBarrel_BmI|13.49|2017-09-26 10:33:17.292000|TK_PLCS/Pixel/crate04/module09/channel_read_02
PixelBarrel BmI Sector 4 POH 1R Detector|TSil|PixelBarrel_BmI|12.98|2017-09-26 10:34:47.316000|TK_PLCS/Pixel/crate04/module09/channel_read_02
PixelBarrel BmI Sector 4 POH 1R Detector|TSil|PixelBarrel_BmI|12.47|2017-09-26 10:36:47.290000|TK_PLCS/Pixel/crate04/module09/channel_read_02
PixelBarrel BmI Sector 4 POH 1R Detector|TSil|PixelBarrel_BmI|12.98|2017-09-26 10:41:37.187000|TK_PLCS/Pixel/crate04/module09/channel_read_02
PixelBarrel BmI Sector 4 POH 1R Detector|TSil|PixelBarrel_BmI|12.47|2017-09-26 10:49:19.691000|TK_PLCS/Pixel/crate04/module09/channel_read_02
PixelBarrel BmI Sector 4 POH 1R Detector|TSil|PixelBarrel_BmI|11.96|2017-09-26 10:51:34.703000|TK_PLCS/Pixel/crate04/module09/channel_read_02
PixelBarrel BmI Sector 4 POH 1R Detector|TSil|PixelBarrel_BmI|11.45|2017-09-26 10:54:39.700000|TK_PLCS/Pixel/crate04/module09/channel_read_02
PixelBarrel BmI Sector 4 POH 1R Detector|TSil|PixelBarrel_BmI|10.94|2017-09-26 10:59:57.189000|TK_PLCS/Pixel/crate04/module09/channel_read_02
PixelBarrel BmI Sector 5 POH 1L Detector|TSil|PixelBarrel_BmI|13.79|2017-09-26 10:10:39.700000|TK_PLCS/Pixel/crate05/module09/channel_read_02
PixelBarrel BmI Sector 5 POH 1L Detector|TSil|PixelBarrel_BmI|13.28|2017-09-26 10:31:59.685000|TK_PLCS/Pixel/crate05/module09/channel_read_02
PixelBarrel BmI Sector 5 POH 1L Detector|TSil|PixelBarrel_BmI|12.76|2017-09-26 10:33:07.184000|TK_PLCS/Pixel/crate05/module09/channel_read_02
PixelBarrel BmI Sector 5 POH 1L Detector|TSil|PixelBarrel_BmI|12.25|2017-09-26 10:34:39.703000|TK_PLCS/Pixel/crate05/module09/channel_read_02
PixelBarrel BmI Sector 5 POH 1L Detector|TSil|PixelBarrel_BmI|11.74|2017-09-26 10:36:29.694000|TK_PLCS/Pixel/crate05/module09/channel_read_02
PixelBarrel BmI Sector 5 POH 1L Detector|TSil|PixelBarrel_BmI|12.25|2017-09-26 10:41:37.187000|TK_PLCS/Pixel/crate05/module09/channel_read_02
PixelBarrel BmI Sector 5 POH 1L Detector|TSil|PixelBarrel_BmI|11.74|2017-09-26 10:49:22.202000|TK_PLCS/Pixel/crate05/module09/channel_read_02
PixelBarrel BmI Sector 5 POH 1L Detector|TSil|PixelBarrel_BmI|11.23|2017-09-26 10:51:39.679000|TK_PLCS/Pixel/crate05/module09/channel_read_02
PixelBarrel BmI Sector 5 POH 1L Detector|TSil|PixelBarrel_BmI|10.72|2017-09-26 10:54:52.190000|TK_PLCS/Pixel/crate05/module09/channel_read_02
PixelBarrel BmI Sector 6 POH 2L Detector|TSil|PixelBarrel_BmI|14.64|2017-09-26 10:31:44.679000|TK_PLCS/Pixel/crate05/module09/channel_read_04
PixelBarrel BmI Sector 6 POH 2L Detector|TSil|PixelBarrel_BmI|14.13|2017-09-26 10:32:49.697000|TK_PLCS/Pixel/crate05/module09/channel_read_04
PixelBarrel BmI Sector 6 POH 2L Detector|TSil|PixelBarrel_BmI|13.62|2017-09-26 10:34:09.690000|TK_PLCS/Pixel/crate05/module09/channel_read_04
PixelBarrel BmI Sector 6 POH 2L Detector|TSil|PixelBarrel_BmI|13.1|2017-09-26 10:35:52.193000|TK_PLCS/Pixel/crate05/module09/channel_read_04
PixelBarrel BmI Sector 6 POH 2L Detector|TSil|PixelBarrel_BmI|13.62|2017-09-26 10:44:12.182000|TK_PLCS/Pixel/crate05/module09/channel_read_04
PixelBarrel BmI Sector 6 POH 2L Detector|TSil|PixelBarrel_BmI|13.1|2017-09-26 10:48:47.291000|TK_PLCS/Pixel/crate05/module09/channel_read_04
PixelBarrel BmI Sector 6 POH 2L Detector|TSil|PixelBarrel_BmI|12.59|2017-09-26 10:50:47.312000|TK_PLCS/Pixel/crate05/module09/channel_read_04
PixelBarrel BmI Sector 6 POH 2L Detector|TSil|PixelBarrel_BmI|12.08|2017-09-26 10:53:19.686000|TK_PLCS/Pixel/crate05/module09/channel_read_04
PixelBarrel BmI Sector 6 POH 2L Detector|TSil|PixelBarrel_BmI|11.57|2017-09-26 10:57:12.189000|TK_PLCS/Pixel/crate05/module09/channel_read_04
PixelBarrel BmI Sector 7 POH 3L Detector|TSil|PixelBarrel_BmI|14.66|2017-09-26 10:10:59.683000|TK_PLCS/Pixel/crate05/module09/channel_read_06
PixelBarrel BmI Sector 7 POH 3L Detector|TSil|PixelBarrel_BmI|14.15|2017-09-26 10:32:04.693000|TK_PLCS/Pixel/crate05/module09/channel_read_06
PixelBarrel BmI Sector 7 POH 3L Detector|TSil|PixelBarrel_BmI|13.64|2017-09-26 10:33:14.702000|TK_PLCS/Pixel/crate05/module09/channel_read_06
PixelBarrel BmI Sector 7 POH 3L Detector|TSil|PixelBarrel_BmI|13.13|2017-09-26 10:34:47.316000|TK_PLCS/Pixel/crate05/module09/channel_read_06
PixelBarrel BmI Sector 7 POH 3L Detector|TSil|PixelBarrel_BmI|12.62|2017-09-26 10:36:34.701000|TK_PLCS/Pixel/crate05/module09/channel_read_06
PixelBarrel BmI Sector 7 POH 3L Detector|TSil|PixelBarrel_BmI|13.13|2017-09-26 10:42:19.695000|TK_PLCS/Pixel/crate05/module09/channel_read_06
PixelBarrel BmI Sector 7 POH 3L Detector|TSil|PixelBarrel_BmI|12.62|2017-09-26 10:49:27.178000|TK_PLCS/Pixel/crate05/module09/channel_read_06
PixelBarrel BmI Sector 7 POH 3L Detector|TSil|PixelBarrel_BmI|12.11|2017-09-26 10:51:39.679000|TK_PLCS/Pixel/crate05/module09/channel_read_06
PixelBarrel BmI Sector 7 POH 3L Detector|TSil|PixelBarrel_BmI|11.59|2017-09-26 10:54:44.705000|TK_PLCS/Pixel/crate05/module09/channel_read_06
PixelBarrel BmI Sector 7 POH 3L Detector|TSil|PixelBarrel_BmI|11.08|2017-09-26 10:59:32.186000|TK_PLCS/Pixel/crate05/module09/channel_read_06
PixelBarrel BmI Sector 8 POH 4L Detector|TSil|PixelBarrel_BmI|11.79|2017-09-26 10:13:17.425000|TK_PLCS/Pixel/crate05/module09/channel_read_08
PixelBarrel BmI Sector 8 POH 4L Detector|TSil|PixelBarrel_BmI|11.28|2017-09-26 10:32:34.706000|TK_PLCS/Pixel/crate05/module09/channel_read_08
PixelBarrel BmI Sector 8 POH 4L Detector|TSil|PixelBarrel_BmI|10.76|2017-09-26 10:34:05.587000|TK_PLCS/Pixel/crate05/module09/channel_read_08
PixelBarrel BmI Sector 8 POH 4L Detector|TSil|PixelBarrel_BmI|10.25|2017-09-26 10:36:02.192000|TK_PLCS/Pixel/crate05/module09/channel_read_08
PixelBarrel BmI Sector 8 POH 4L Detector|TSil|PixelBarrel_BmI|10.76|2017-09-26 10:44:37.187000|TK_PLCS/Pixel/crate05/module09/channel_read_08
PixelBarrel BmI Sector 8 POH 4L Detector|TSil|PixelBarrel_BmI|10.25|2017-09-26 10:48:52.205000|TK_PLCS/Pixel/crate05/module09/channel_read_08
PixelBarrel BmI Sector 8 POH 4L Detector|TSil|PixelBarrel_BmI|9.74|2017-09-26 10:51:19.696000|TK_PLCS/Pixel/crate05/module09/channel_read_08
PixelBarrel BmI Sector 8 POH 4L Detector|TSil|PixelBarrel_BmI|9.23|2017-09-26 10:54:44.705000|TK_PLCS/Pixel/crate05/module09/channel_read_08
PixelBarrel BpI Sector 3 POH 2L Detector|TSil|PixelBarrel_BpI|19.6|2017-09-26 10:10:29.701000|TK_PLCS/Pixel/crate05/module05/channel_read_04
PixelBarrel BpI Sector 3 POH 2L Detector|TSil|PixelBarrel_BpI|19.09|2017-09-26 10:31:49.702000|TK_PLCS/Pixel/crate05/module05/channel_read_04
PixelBarrel BpI Sector 3 POH 2L Detector|TSil|PixelBarrel_BpI|18.57|2017-09-26 10:32:42.178000|TK_PLCS/Pixel/crate05/module05/channel_read_04
PixelBarrel BpI Sector 3 POH 2L Detector|TSil|PixelBarrel_BpI|18.06|2017-09-26 10:33:47.305000|TK_PLCS/Pixel/crate05/module05/channel_read_04
PixelBarrel BpI Sector 3 POH 2L Detector|TSil|PixelBarrel_BpI|17.55|2017-09-26 10:35:04.693000|TK_PLCS/Pixel/crate05/module05/channel_read_04
PixelBarrel BpI Sector 3 POH 2L Detector|TSil|PixelBarrel_BpI|17.04|2017-09-26 10:36:44.685000|TK_PLCS/Pixel/crate05/module05/channel_read_04
PixelBarrel BpI Sector 3 POH 2L Detector|TSil|PixelBarrel_BpI|17.55|2017-09-26 10:41:29.684000|TK_PLCS/Pixel/crate05/module05/channel_read_04
PixelBarrel BpI Sector 3 POH 2L Detector|TSil|PixelBarrel_BpI|17.04|2017-09-26 10:49:12.203000|TK_PLCS/Pixel/crate05/module05/channel_read_04
PixelBarrel BpI Sector 3 POH 2L Detector|TSil|PixelBarrel_BpI|16.53|2017-09-26 10:50:57.202000|TK_PLCS/Pixel/crate05/module05/channel_read_04
PixelBarrel BpI Sector 3 POH 2L Detector|TSil|PixelBarrel_BpI|16.01|2017-09-26 10:53:12.198000|TK_PLCS/Pixel/crate05/module05/channel_read_04
PixelBarrel BpI Sector 3 POH 2L Detector|TSil|PixelBarrel_BpI|15.5|2017-09-26 10:56:24.706000|TK_PLCS/Pixel/crate05/module05/channel_read_04
PixelBarrel BpO Sector 6 POH 2L Detector|TSil|PixelBarrel_BpO|16.17|2017-09-26 10:03:27.179000|TK_PLCS/Pixel/crate05/module07/channel_read_04
PixelBarrel BpO Sector 6 POH 2L Detector|TSil|PixelBarrel_BpO|15.67|2017-09-26 10:31:47.300000|TK_PLCS/Pixel/crate05/module07/channel_read_04
PixelBarrel BpO Sector 6 POH 2L Detector|TSil|PixelBarrel_BpO|15.15|2017-09-26 10:32:47.295000|TK_PLCS/Pixel/crate05/module07/channel_read_04
PixelBarrel BpO Sector 6 POH 2L Detector|TSil|PixelBarrel_BpO|14.63|2017-09-26 10:34:05.587000|TK_PLCS/Pixel/crate05/module07/channel_read_04
PixelBarrel BpO Sector 6 POH 2L Detector|TSil|PixelBarrel_BpO|14.11|2017-09-26 10:35:44.705000|TK_PLCS/Pixel/crate05/module07/channel_read_04
PixelBarrel BpO Sector 6 POH 2L Detector|TSil|PixelBarrel_BpO|13.58|2017-09-26 10:37:44.680000|TK_PLCS/Pixel/crate05/module07/channel_read_04
PixelBarrel BpO Sector 6 POH 2L Detector|TSil|PixelBarrel_BpO|14.11|2017-09-26 10:40:34.696000|TK_PLCS/Pixel/crate05/module07/channel_read_04
PixelBarrel BpO Sector 6 POH 2L Detector|TSil|PixelBarrel_BpO|14.63|2017-09-26 10:45:52.204000|TK_PLCS/Pixel/crate05/module07/channel_read_04
PixelBarrel BpO Sector 6 POH 2L Detector|TSil|PixelBarrel_BpO|14.11|2017-09-26 10:48:24.688000|TK_PLCS/Pixel/crate05/module07/channel_read_04
PixelBarrel BpO Sector 6 POH 2L Detector|TSil|PixelBarrel_BpO|13.58|2017-09-26 10:50:14.694000|TK_PLCS/Pixel/crate05/module07/channel_read_04
PixelBarrel BpO Sector 6 POH 2L Detector|TSil|PixelBarrel_BpO|13.06|2017-09-26 10:52:42.185000|TK_PLCS/Pixel/crate05/module07/channel_read_04
PixelBarrel BpO Sector 6 POH 2L Detector|TSil|PixelBarrel_BpO|12.54|2017-09-26 10:56:07.195000|TK_PLCS/Pixel/crate05/module07/channel_read_04
PixelBarrel BpI Sector 2 POH 3L Detector|TSil|PixelBarrel_BpI|22.07|2017-09-26 10:11:54.702000|TK_PLCS/Pixel/crate05/module05/channel_read_06
PixelBarrel BpI Sector 2 POH 3L Detector|TSil|PixelBarrel_BpI|21.56|2017-09-26 10:32:14.692000|TK_PLCS/Pixel/crate05/module05/channel_read_06
PixelBarrel BpI Sector 2 POH 3L Detector|TSil|PixelBarrel_BpI|21.05|2017-09-26 10:33:17.292000|TK_PLCS/Pixel/crate05/module05/channel_read_06
PixelBarrel BpI Sector 2 POH 3L Detector|TSil|PixelBarrel_BpI|20.53|2017-09-26 10:34:34.696000|TK_PLCS/Pixel/crate05/module05/channel_read_06
PixelBarrel BpI Sector 2 POH 3L Detector|TSil|PixelBarrel_BpI|20.02|2017-09-26 10:36:04.704000|TK_PLCS/Pixel/crate05/module05/channel_read_06
PixelBarrel BpI Sector 2 POH 3L Detector|TSil|PixelBarrel_BpI|19.5|2017-09-26 10:37:49.687000|TK_PLCS/Pixel/crate05/module05/channel_read_06
PixelBarrel BpI Sector 2 POH 3L Detector|TSil|PixelBarrel_BpI|20.02|2017-09-26 10:40:14.698000|TK_PLCS/Pixel/crate05/module05/channel_read_06
PixelBarrel BpI Sector 2 POH 3L Detector|TSil|PixelBarrel_BpI|20.53|2017-09-26 10:45:29.695000|TK_PLCS/Pixel/crate05/module05/channel_read_06
PixelBarrel BpI Sector 2 POH 3L Detector|TSil|PixelBarrel_BpI|20.02|2017-09-26 10:48:19.680000|TK_PLCS/Pixel/crate05/module05/channel_read_06
PixelBarrel BpI Sector 2 POH 3L Detector|TSil|PixelBarrel_BpI|19.5|2017-09-26 10:49:49.704000|TK_PLCS/Pixel/crate05/module05/channel_read_06
PixelBarrel BpI Sector 2 POH 3L Detector|TSil|PixelBarrel_BpI|18.99|2017-09-26 10:51:44.686000|TK_PLCS/Pixel/crate05/module05/channel_read_06
PixelBarrel BpI Sector 2 POH 3L Detector|TSil|PixelBarrel_BpI|18.48|2017-09-26 10:54:14.703000|TK_PLCS/Pixel/crate05/module05/channel_read_06
PixelBarrel BpI Sector 2 POH 3L Detector|TSil|PixelBarrel_BpI|17.97|2017-09-26 10:57:37.185000|TK_PLCS/Pixel/crate05/module05/channel_read_06
PixelBarrel BpO Sector 7 POH 3L Detector|TSil|PixelBarrel_BpO|16.15|2017-09-26 10:12:47.287000|TK_PLCS/Pixel/crate05/module07/channel_read_06
PixelBarrel BpO Sector 7 POH 3L Detector|TSil|PixelBarrel_BpO|15.63|2017-09-26 10:32:22.195000|TK_PLCS/Pixel/crate05/module07/channel_read_06
PixelBarrel BpO Sector 7 POH 3L Detector|TSil|PixelBarrel_BpO|15.1|2017-09-26 10:33:32.189000|TK_PLCS/Pixel/crate05/module07/channel_read_06
PixelBarrel BpO Sector 7 POH 3L Detector|TSil|PixelBarrel_BpO|14.58|2017-09-26 10:34:59.686000|TK_PLCS/Pixel/crate05/module07/channel_read_06
PixelBarrel BpO Sector 7 POH 3L Detector|TSil|PixelBarrel_BpO|14.06|2017-09-26 10:36:47.290000|TK_PLCS/Pixel/crate05/module07/channel_read_06
PixelBarrel BpO Sector 7 POH 3L Detector|TSil|PixelBarrel_BpO|14.58|2017-09-26 10:41:52.178000|TK_PLCS/Pixel/crate05/module07/channel_read_06
PixelBarrel BpO Sector 7 POH 3L Detector|TSil|PixelBarrel_BpO|14.06|2017-09-26 10:49:32.186000|TK_PLCS/Pixel/crate05/module07/channel_read_06
PixelBarrel BpO Sector 7 POH 3L Detector|TSil|PixelBarrel_BpO|13.54|2017-09-26 10:51:39.679000|TK_PLCS/Pixel/crate05/module07/channel_read_06
PixelBarrel BpO Sector 7 POH 3L Detector|TSil|PixelBarrel_BpO|13.02|2017-09-26 10:54:32.199000|TK_PLCS/Pixel/crate05/module07/channel_read_06
PixelBarrel BpO Sector 7 POH 3L Detector|TSil|PixelBarrel_BpO|12.51|2017-09-26 10:58:52.195000|TK_PLCS/Pixel/crate05/module07/channel_read_06
PixelBarrel BmO Sector 1 POH 4L Detector|TSil|PixelBarrel_BmO|22.9|2017-09-26 10:14:34.688000|TK_PLCS/Pixel/crate05/module11/channel_read_08
PixelBarrel BmO Sector 1 POH 4L Detector|TSil|PixelBarrel_BmO|22.39|2017-09-26 10:32:49.697000|TK_PLCS/Pixel/crate05/module11/channel_read_08
PixelBarrel BmO Sector 1 POH 4L Detector|TSil|PixelBarrel_BmO|21.88|2017-09-26 10:34:09.690000|TK_PLCS/Pixel/crate05/module11/channel_read_08
PixelBarrel BmO Sector 1 POH 4L Detector|TSil|PixelBarrel_BmO|21.36|2017-09-26 10:35:44.705000|TK_PLCS/Pixel/crate05/module11/channel_read_08
PixelBarrel BmO Sector 1 POH 4L Detector|TSil|PixelBarrel_BmO|20.85|2017-09-26 10:37:42.199000|TK_PLCS/Pixel/crate05/module11/channel_read_08
PixelBarrel BmO Sector 1 POH 4L Detector|TSil|PixelBarrel_BmO|21.36|2017-09-26 10:43:17.288000|TK_PLCS/Pixel/crate05/module11/channel_read_08
PixelBarrel BmO Sector 1 POH 4L Detector|TSil|PixelBarrel_BmO|20.85|2017-09-26 10:49:04.700000|TK_PLCS/Pixel/crate05/module11/channel_read_08
PixelBarrel BmO Sector 1 POH 4L Detector|TSil|PixelBarrel_BmO|20.33|2017-09-26 10:51:07.201000|TK_PLCS/Pixel/crate05/module11/channel_read_08
PixelBarrel BmO Sector 1 POH 4L Detector|TSil|PixelBarrel_BmO|19.82|2017-09-26 10:53:29.685000|TK_PLCS/Pixel/crate05/module11/channel_read_08
PixelBarrel BmO Sector 1 POH 4L Detector|TSil|PixelBarrel_BmO|19.31|2017-09-26 10:56:44.682000|TK_PLCS/Pixel/crate05/module11/channel_read_08
PixelBarrel BmI Sector 8 POH 4L Detector|TSil|PixelBarrel_BmI|11.79|2017-09-26 10:13:17.425000|TK_PLCS/Pixel/crate05/module09/channel_read_08
PixelBarrel BmI Sector 8 POH 4L Detector|TSil|PixelBarrel_BmI|11.28|2017-09-26 10:32:34.706000|TK_PLCS/Pixel/crate05/module09/channel_read_08
PixelBarrel BmI Sector 8 POH 4L Detector|TSil|PixelBarrel_BmI|10.76|2017-09-26 10:34:05.587000|TK_PLCS/Pixel/crate05/module09/channel_read_08
PixelBarrel BmI Sector 8 POH 4L Detector|TSil|PixelBarrel_BmI|10.25|2017-09-26 10:36:02.192000|TK_PLCS/Pixel/crate05/module09/channel_read_08
PixelBarrel BmI Sector 8 POH 4L Detector|TSil|PixelBarrel_BmI|10.76|2017-09-26 10:44:37.187000|TK_PLCS/Pixel/crate05/module09/channel_read_08
PixelBarrel BmI Sector 8 POH 4L Detector|TSil|PixelBarrel_BmI|10.25|2017-09-26 10:48:52.205000|TK_PLCS/Pixel/crate05/module09/channel_read_08
PixelBarrel BmI Sector 8 POH 4L Detector|TSil|PixelBarrel_BmI|9.74|2017-09-26 10:51:19.696000|TK_PLCS/Pixel/crate05/module09/channel_read_08
PixelBarrel BmI Sector 8 POH 4L Detector|TSil|PixelBarrel_BmI|9.23|2017-09-26 10:54:44.705000|TK_PLCS/Pixel/crate05/module09/channel_read_08
PixelBarrel BmI Sector 5 POH 1L Detector|TSil|PixelBarrel_BmI|13.79|2017-09-26 10:10:39.700000|TK_PLCS/Pixel/crate05/module09/channel_read_02
PixelBarrel BmI Sector 5 POH 1L Detector|TSil|PixelBarrel_BmI|13.28|2017-09-26 10:31:59.685000|TK_PLCS/Pixel/crate05/module09/channel_read_02
PixelBarrel BmI Sector 5 POH 1L Detector|TSil|PixelBarrel_BmI|12.76|2017-09-26 10:33:07.184000|TK_PLCS/Pixel/crate05/module09/channel_read_02
PixelBarrel BmI Sector 5 POH 1L Detector|TSil|PixelBarrel_BmI|12.25|2017-09-26 10:34:39.703000|TK_PLCS/Pixel/crate05/module09/channel_read_02
PixelBarrel BmI Sector 5 POH 1L Detector|TSil|PixelBarrel_BmI|11.74|2017-09-26 10:36:29.694000|TK_PLCS/Pixel/crate05/module09/channel_read_02
PixelBarrel BmI Sector 5 POH 1L Detector|TSil|PixelBarrel_BmI|12.25|2017-09-26 10:41:37.187000|TK_PLCS/Pixel/crate05/module09/channel_read_02
PixelBarrel BmI Sector 5 POH 1L Detector|TSil|PixelBarrel_BmI|11.74|2017-09-26 10:49:22.202000|TK_PLCS/Pixel/crate05/module09/channel_read_02
PixelBarrel BmI Sector 5 POH 1L Detector|TSil|PixelBarrel_BmI|11.23|2017-09-26 10:51:39.679000|TK_PLCS/Pixel/crate05/module09/channel_read_02
PixelBarrel BmI Sector 5 POH 1L Detector|TSil|PixelBarrel_BmI|10.72|2017-09-26 10:54:52.190000|TK_PLCS/Pixel/crate05/module09/channel_read_02
PixelBarrel BmO Sector 4  POH 1L Detector|TSil|PixelBarrel_BmO|14.1|2017-09-26 10:13:12.184000|TK_PLCS/Pixel/crate05/module11/channel_read_02
PixelBarrel BmO Sector 4  POH 1L Detector|TSil|PixelBarrel_BmO|13.59|2017-09-26 10:32:27.203000|TK_PLCS/Pixel/crate05/module11/channel_read_02
PixelBarrel BmO Sector 4  POH 1L Detector|TSil|PixelBarrel_BmO|13.08|2017-09-26 10:33:37.181000|TK_PLCS/Pixel/crate05/module11/channel_read_02
PixelBarrel BmO Sector 4  POH 1L Detector|TSil|PixelBarrel_BmO|12.57|2017-09-26 10:35:07.189000|TK_PLCS/Pixel/crate05/module11/channel_read_02
PixelBarrel BmO Sector 4  POH 1L Detector|TSil|PixelBarrel_BmO|12.06|2017-09-26 10:36:59.707000|TK_PLCS/Pixel/crate05/module11/channel_read_02
PixelBarrel BmO Sector 4  POH 1L Detector|TSil|PixelBarrel_BmO|12.57|2017-09-26 10:41:07.190000|TK_PLCS/Pixel/crate05/module11/channel_read_02
PixelBarrel BmO Sector 4  POH 1L Detector|TSil|PixelBarrel_BmO|13.08|2017-09-26 10:46:32.185000|TK_PLCS/Pixel/crate05/module11/channel_read_02
PixelBarrel BmO Sector 4  POH 1L Detector|TSil|PixelBarrel_BmO|12.57|2017-09-26 10:48:04.689000|TK_PLCS/Pixel/crate05/module11/channel_read_02
PixelBarrel BmO Sector 4  POH 1L Detector|TSil|PixelBarrel_BmO|12.06|2017-09-26 10:49:37.178000|TK_PLCS/Pixel/crate05/module11/channel_read_02
PixelBarrel BmO Sector 4  POH 1L Detector|TSil|PixelBarrel_BmO|11.54|2017-09-26 10:51:47.416000|TK_PLCS/Pixel/crate05/module11/channel_read_02
PixelBarrel BmO Sector 4  POH 1L Detector|TSil|PixelBarrel_BmO|11.03|2017-09-26 10:54:57.196000|TK_PLCS/Pixel/crate05/module11/channel_read_02
PixelBarrel BmO Sector 1 POH 4L Detector|TSil|PixelBarrel_BmO|22.9|2017-09-26 10:14:34.688000|TK_PLCS/Pixel/crate05/module11/channel_read_08
PixelBarrel BmO Sector 1 POH 4L Detector|TSil|PixelBarrel_BmO|22.39|2017-09-26 10:32:49.697000|TK_PLCS/Pixel/crate05/module11/channel_read_08
PixelBarrel BmO Sector 1 POH 4L Detector|TSil|PixelBarrel_BmO|21.88|2017-09-26 10:34:09.690000|TK_PLCS/Pixel/crate05/module11/channel_read_08
PixelBarrel BmO Sector 1 POH 4L Detector|TSil|PixelBarrel_BmO|21.36|2017-09-26 10:35:44.705000|TK_PLCS/Pixel/crate05/module11/channel_read_08
PixelBarrel BmO Sector 1 POH 4L Detector|TSil|PixelBarrel_BmO|20.85|2017-09-26 10:37:42.199000|TK_PLCS/Pixel/crate05/module11/channel_read_08
PixelBarrel BmO Sector 1 POH 4L Detector|TSil|PixelBarrel_BmO|21.36|2017-09-26 10:43:17.288000|TK_PLCS/Pixel/crate05/module11/channel_read_08
PixelBarrel BmO Sector 1 POH 4L Detector|TSil|PixelBarrel_BmO|20.85|2017-09-26 10:49:04.700000|TK_PLCS/Pixel/crate05/module11/channel_read_08
PixelBarrel BmO Sector 1 POH 4L Detector|TSil|PixelBarrel_BmO|20.33|2017-09-26 10:51:07.201000|TK_PLCS/Pixel/crate05/module11/channel_read_08
PixelBarrel BmO Sector 1 POH 4L Detector|TSil|PixelBarrel_BmO|19.82|2017-09-26 10:53:29.685000|TK_PLCS/Pixel/crate05/module11/channel_read_08
PixelBarrel BmO Sector 1 POH 4L Detector|TSil|PixelBarrel_BmO|19.31|2017-09-26 10:56:44.682000|TK_PLCS/Pixel/crate05/module11/channel_read_08
PixelBarrel BmO Sector 2 POH 3L Detector|TSil|PixelBarrel_BmO|24.23|2017-09-26 10:11:42.191000|TK_PLCS/Pixel/crate05/module11/channel_read_06
PixelBarrel BmO Sector 2 POH 3L Detector|TSil|PixelBarrel_BmO|23.71|2017-09-26 10:31:54.678000|TK_PLCS/Pixel/crate05/module11/channel_read_06
PixelBarrel BmO Sector 2 POH 3L Detector|TSil|PixelBarrel_BmO|23.19|2017-09-26 10:32:47.295000|TK_PLCS/Pixel/crate05/module11/channel_read_06
PixelBarrel BmO Sector 2 POH 3L Detector|TSil|PixelBarrel_BmO|22.68|2017-09-26 10:33:49.707000|TK_PLCS/Pixel/crate05/module11/channel_read_06
PixelBarrel BmO Sector 2 POH 3L Detector|TSil|PixelBarrel_BmO|22.17|2017-09-26 10:35:07.189000|TK_PLCS/Pixel/crate05/module11/channel_read_06
PixelBarrel BmO Sector 2 POH 3L Detector|TSil|PixelBarrel_BmO|21.66|2017-09-26 10:36:39.693000|TK_PLCS/Pixel/crate05/module11/channel_read_06
PixelBarrel BmO Sector 2 POH 3L Detector|TSil|PixelBarrel_BmO|22.17|2017-09-26 10:41:22.196000|TK_PLCS/Pixel/crate05/module11/channel_read_06
PixelBarrel BmO Sector 2 POH 3L Detector|TSil|PixelBarrel_BmO|22.68|2017-09-26 10:46:37.177000|TK_PLCS/Pixel/crate05/module11/channel_read_06
PixelBarrel BmO Sector 2 POH 3L Detector|TSil|PixelBarrel_BmO|22.17|2017-09-26 10:47:47.296000|TK_PLCS/Pixel/crate05/module11/channel_read_06
PixelBarrel BmO Sector 2 POH 3L Detector|TSil|PixelBarrel_BmO|21.66|2017-09-26 10:48:49.678000|TK_PLCS/Pixel/crate05/module11/channel_read_06
PixelBarrel BmO Sector 2 POH 3L Detector|TSil|PixelBarrel_BmO|21.14|2017-09-26 10:50:22.182000|TK_PLCS/Pixel/crate05/module11/channel_read_06
PixelBarrel BmO Sector 2 POH 3L Detector|TSil|PixelBarrel_BmO|20.63|2017-09-26 10:52:24.683000|TK_PLCS/Pixel/crate05/module11/channel_read_06
PixelBarrel BmO Sector 2 POH 3L Detector|TSil|PixelBarrel_BmO|20.11|2017-09-26 10:55:02.186000|TK_PLCS/Pixel/crate05/module11/channel_read_06
PixelBarrel BmO Sector 2 POH 3L Detector|TSil|PixelBarrel_BmO|19.6|2017-09-26 10:58:39.702000|TK_PLCS/Pixel/crate05/module11/channel_read_06
PixelBarrel BmO Sector 3 POH 2L Detector|TSil|PixelBarrel_BmO|23.05|2017-09-26 10:12:09.693000|TK_PLCS/Pixel/crate05/module11/channel_read_04
PixelBarrel BmO Sector 3 POH 2L Detector|TSil|PixelBarrel_BmO|22.53|2017-09-26 10:31:52.182000|TK_PLCS/Pixel/crate05/module11/channel_read_04
PixelBarrel BmO Sector 3 POH 2L Detector|TSil|PixelBarrel_BmO|22.0|2017-09-26 10:32:34.706000|TK_PLCS/Pixel/crate05/module11/channel_read_04
PixelBarrel BmO Sector 3 POH 2L Detector|TSil|PixelBarrel_BmO|21.46|2017-09-26 10:33:32.189000|TK_PLCS/Pixel/crate05/module11/channel_read_04
PixelBarrel BmO Sector 3 POH 2L Detector|TSil|PixelBarrel_BmO|20.95|2017-09-26 10:34:44.679000|TK_PLCS/Pixel/crate05/module11/channel_read_04
PixelBarrel BmO Sector 3 POH 2L Detector|TSil|PixelBarrel_BmO|20.43|2017-09-26 10:36:12.207000|TK_PLCS/Pixel/crate05/module11/channel_read_04
PixelBarrel BmO Sector 3 POH 2L Detector|TSil|PixelBarrel_BmO|20.95|2017-09-26 10:40:32.200000|TK_PLCS/Pixel/crate05/module11/channel_read_04
PixelBarrel BmO Sector 3 POH 2L Detector|TSil|PixelBarrel_BmO|21.46|2017-09-26 10:45:09.681000|TK_PLCS/Pixel/crate05/module11/channel_read_04
PixelBarrel BmO Sector 3 POH 2L Detector|TSil|PixelBarrel_BmO|20.92|2017-09-26 10:47:52.179000|TK_PLCS/Pixel/crate05/module11/channel_read_04
PixelBarrel BmO Sector 3 POH 2L Detector|TSil|PixelBarrel_BmO|20.41|2017-09-26 10:48:44.686000|TK_PLCS/Pixel/crate05/module11/channel_read_04
PixelBarrel BmO Sector 3 POH 2L Detector|TSil|PixelBarrel_BmO|19.89|2017-09-26 10:50:07.191000|TK_PLCS/Pixel/crate05/module11/channel_read_04
PixelBarrel BmO Sector 3 POH 2L Detector|TSil|PixelBarrel_BmO|19.38|2017-09-26 10:52:07.196000|TK_PLCS/Pixel/crate05/module11/channel_read_04
PixelBarrel BmO Sector 3 POH 2L Detector|TSil|PixelBarrel_BmO|18.87|2017-09-26 10:54:59.706000|TK_PLCS/Pixel/crate05/module11/channel_read_04
PixelBarrel BmO Sector 3 POH 2L Detector|TSil|PixelBarrel_BmO|18.36|2017-09-26 10:59:32.186000|TK_PLCS/Pixel/crate05/module11/channel_read_04
PixelBarrel BmO Sector 4  POH 1L Detector|TSil|PixelBarrel_BmO|14.1|2017-09-26 10:13:12.184000|TK_PLCS/Pixel/crate05/module11/channel_read_02
PixelBarrel BmO Sector 4  POH 1L Detector|TSil|PixelBarrel_BmO|13.59|2017-09-26 10:32:27.203000|TK_PLCS/Pixel/crate05/module11/channel_read_02
PixelBarrel BmO Sector 4  POH 1L Detector|TSil|PixelBarrel_BmO|13.08|2017-09-26 10:33:37.181000|TK_PLCS/Pixel/crate05/module11/channel_read_02
PixelBarrel BmO Sector 4  POH 1L Detector|TSil|PixelBarrel_BmO|12.57|2017-09-26 10:35:07.189000|TK_PLCS/Pixel/crate05/module11/channel_read_02
PixelBarrel BmO Sector 4  POH 1L Detector|TSil|PixelBarrel_BmO|12.06|2017-09-26 10:36:59.707000|TK_PLCS/Pixel/crate05/module11/channel_read_02
PixelBarrel BmO Sector 4  POH 1L Detector|TSil|PixelBarrel_BmO|12.57|2017-09-26 10:41:07.190000|TK_PLCS/Pixel/crate05/module11/channel_read_02
PixelBarrel BmO Sector 4  POH 1L Detector|TSil|PixelBarrel_BmO|13.08|2017-09-26 10:46:32.185000|TK_PLCS/Pixel/crate05/module11/channel_read_02
PixelBarrel BmO Sector 4  POH 1L Detector|TSil|PixelBarrel_BmO|12.57|2017-09-26 10:48:04.689000|TK_PLCS/Pixel/crate05/module11/channel_read_02
PixelBarrel BmO Sector 4  POH 1L Detector|TSil|PixelBarrel_BmO|12.06|2017-09-26 10:49:37.178000|TK_PLCS/Pixel/crate05/module11/channel_read_02
PixelBarrel BmO Sector 4  POH 1L Detector|TSil|PixelBarrel_BmO|11.54|2017-09-26 10:51:47.416000|TK_PLCS/Pixel/crate05/module11/channel_read_02
PixelBarrel BmO Sector 4  POH 1L Detector|TSil|PixelBarrel_BmO|11.03|2017-09-26 10:54:57.196000|TK_PLCS/Pixel/crate05/module11/channel_read_02
PixelBarrel BmO Sector 5 POH 1R Detector|TSil|PixelBarrel_BmO|9.84|2017-09-26 10:33:57.179000|TK_PLCS/Pixel/crate04/module11/channel_read_02
PixelBarrel BmO Sector 5 POH 1R Detector|TSil|PixelBarrel_BmO|9.33|2017-09-26 10:36:22.206000|TK_PLCS/Pixel/crate04/module11/channel_read_02
PixelBarrel BmO Sector 5 POH 1R Detector|TSil|PixelBarrel_BmO|8.81|2017-09-26 10:51:27.199000|TK_PLCS/Pixel/crate04/module11/channel_read_02
PixelBarrel BmO Sector 5 POH 1R Detector|TSil|PixelBarrel_BmO|8.3|2017-09-26 10:55:37.177000|TK_PLCS/Pixel/crate04/module11/channel_read_02
PixelBarrel BmO Sector 6 POH 2R Detector|TSil|PixelBarrel_BmO|17.04|2017-09-26 10:10:14.679000|TK_PLCS/Pixel/crate04/module11/channel_read_04
PixelBarrel BmO Sector 6 POH 2R Detector|TSil|PixelBarrel_BmO|16.5|2017-09-26 10:31:42.199000|TK_PLCS/Pixel/crate04/module11/channel_read_04
PixelBarrel BmO Sector 6 POH 2R Detector|TSil|PixelBarrel_BmO|15.99|2017-09-26 10:32:32.179000|TK_PLCS/Pixel/crate04/module11/channel_read_04
PixelBarrel BmO Sector 6 POH 2R Detector|TSil|PixelBarrel_BmO|15.47|2017-09-26 10:33:42.188000|TK_PLCS/Pixel/crate04/module11/channel_read_04
PixelBarrel BmO Sector 6 POH 2R Detector|TSil|PixelBarrel_BmO|14.96|2017-09-26 10:35:12.181000|TK_PLCS/Pixel/crate04/module11/channel_read_04
PixelBarrel BmO Sector 6 POH 2R Detector|TSil|PixelBarrel_BmO|14.45|2017-09-26 10:37:02.203000|TK_PLCS/Pixel/crate04/module11/channel_read_04
PixelBarrel BmO Sector 6 POH 2R Detector|TSil|PixelBarrel_BmO|14.96|2017-09-26 10:40:02.187000|TK_PLCS/Pixel/crate04/module11/channel_read_04
PixelBarrel BmO Sector 6 POH 2R Detector|TSil|PixelBarrel_BmO|15.47|2017-09-26 10:44:32.180000|TK_PLCS/Pixel/crate04/module11/channel_read_04
PixelBarrel BmO Sector 6 POH 2R Detector|TSil|PixelBarrel_BmO|14.96|2017-09-26 10:48:12.193000|TK_PLCS/Pixel/crate04/module11/channel_read_04
PixelBarrel BmO Sector 6 POH 2R Detector|TSil|PixelBarrel_BmO|14.45|2017-09-26 10:49:42.201000|TK_PLCS/Pixel/crate04/module11/channel_read_04
PixelBarrel BmO Sector 6 POH 2R Detector|TSil|PixelBarrel_BmO|13.93|2017-09-26 10:51:54.701000|TK_PLCS/Pixel/crate04/module11/channel_read_04
PixelBarrel BmO Sector 6 POH 2R Detector|TSil|PixelBarrel_BmO|13.42|2017-09-26 10:55:09.702000|TK_PLCS/Pixel/crate04/module11/channel_read_04
PixelBarrel BmO Sector 7 POH 3R Detector|TSil|PixelBarrel_BmO|15.69|2017-09-26 10:11:19.681000|TK_PLCS/Pixel/crate04/module11/channel_read_06
PixelBarrel BmO Sector 7 POH 3R Detector|TSil|PixelBarrel_BmO|15.18|2017-09-26 10:31:59.685000|TK_PLCS/Pixel/crate04/module11/channel_read_06
PixelBarrel BmO Sector 7 POH 3R Detector|TSil|PixelBarrel_BmO|14.66|2017-09-26 10:33:04.703000|TK_PLCS/Pixel/crate04/module11/channel_read_06
PixelBarrel BmO Sector 7 POH 3R Detector|TSil|PixelBarrel_BmO|14.15|2017-09-26 10:34:27.192000|TK_PLCS/Pixel/crate04/module11/channel_read_06
PixelBarrel BmO Sector 7 POH 3R Detector|TSil|PixelBarrel_BmO|13.64|2017-09-26 10:36:07.184000|TK_PLCS/Pixel/crate04/module11/channel_read_06
PixelBarrel BmO Sector 7 POH 3R Detector|TSil|PixelBarrel_BmO|14.15|2017-09-26 10:43:02.188000|TK_PLCS/Pixel/crate04/module11/channel_read_06
PixelBarrel BmO Sector 7 POH 3R Detector|TSil|PixelBarrel_BmO|13.64|2017-09-26 10:49:02.188000|TK_PLCS/Pixel/crate04/module11/channel_read_06
PixelBarrel BmO Sector 7 POH 3R Detector|TSil|PixelBarrel_BmO|13.13|2017-09-26 10:50:59.698000|TK_PLCS/Pixel/crate04/module11/channel_read_06
PixelBarrel BmO Sector 7 POH 3R Detector|TSil|PixelBarrel_BmO|12.62|2017-09-26 10:53:44.701000|TK_PLCS/Pixel/crate04/module11/channel_read_06
PixelBarrel BmO Sector 7 POH 3R Detector|TSil|PixelBarrel_BmO|12.11|2017-09-26 10:57:44.701000|TK_PLCS/Pixel/crate04/module11/channel_read_06
PixelBarrel BmO Sector 8 POH 4R Detector|TSil|PixelBarrel_BmO|11.81|2017-09-26 10:14:09.683000|TK_PLCS/Pixel/crate04/module11/channel_read_08
PixelBarrel BmO Sector 8 POH 4R Detector|TSil|PixelBarrel_BmO|11.3|2017-09-26 10:32:44.705000|TK_PLCS/Pixel/crate04/module11/channel_read_08
PixelBarrel BmO Sector 8 POH 4R Detector|TSil|PixelBarrel_BmO|10.79|2017-09-26 10:34:27.192000|TK_PLCS/Pixel/crate04/module11/channel_read_08
PixelBarrel BmO Sector 8 POH 4R Detector|TSil|PixelBarrel_BmO|10.28|2017-09-26 10:36:32.190000|TK_PLCS/Pixel/crate04/module11/channel_read_08
PixelBarrel BmO Sector 8 POH 4R Detector|TSil|PixelBarrel_BmO|10.79|2017-09-26 10:44:27.297000|TK_PLCS/Pixel/crate04/module11/channel_read_08
PixelBarrel BmO Sector 8 POH 4R Detector|TSil|PixelBarrel_BmO|10.28|2017-09-26 10:49:09.707000|TK_PLCS/Pixel/crate04/module11/channel_read_08
PixelBarrel BmO Sector 8 POH 4R Detector|TSil|PixelBarrel_BmO|9.77|2017-09-26 10:51:44.686000|TK_PLCS/Pixel/crate04/module11/channel_read_08
PixelBarrel BmO Sector 8 POH 4R Detector|TSil|PixelBarrel_BmO|9.25|2017-09-26 10:55:22.192000|TK_PLCS/Pixel/crate04/module11/channel_read_08
PixelBarrel BmI Sector 6 POH 2L Detector|TSil|PixelBarrel_BmI|14.64|2017-09-26 10:31:44.679000|TK_PLCS/Pixel/crate05/module09/channel_read_04
PixelBarrel BmI Sector 6 POH 2L Detector|TSil|PixelBarrel_BmI|14.13|2017-09-26 10:32:49.697000|TK_PLCS/Pixel/crate05/module09/channel_read_04
PixelBarrel BmI Sector 6 POH 2L Detector|TSil|PixelBarrel_BmI|13.62|2017-09-26 10:34:09.690000|TK_PLCS/Pixel/crate05/module09/channel_read_04
PixelBarrel BmI Sector 6 POH 2L Detector|TSil|PixelBarrel_BmI|13.1|2017-09-26 10:35:52.193000|TK_PLCS/Pixel/crate05/module09/channel_read_04
PixelBarrel BmI Sector 6 POH 2L Detector|TSil|PixelBarrel_BmI|13.62|2017-09-26 10:44:12.182000|TK_PLCS/Pixel/crate05/module09/channel_read_04
PixelBarrel BmI Sector 6 POH 2L Detector|TSil|PixelBarrel_BmI|13.1|2017-09-26 10:48:47.291000|TK_PLCS/Pixel/crate05/module09/channel_read_04
PixelBarrel BmI Sector 6 POH 2L Detector|TSil|PixelBarrel_BmI|12.59|2017-09-26 10:50:47.312000|TK_PLCS/Pixel/crate05/module09/channel_read_04
PixelBarrel BmI Sector 6 POH 2L Detector|TSil|PixelBarrel_BmI|12.08|2017-09-26 10:53:19.686000|TK_PLCS/Pixel/crate05/module09/channel_read_04
PixelBarrel BmI Sector 6 POH 2L Detector|TSil|PixelBarrel_BmI|11.57|2017-09-26 10:57:12.189000|TK_PLCS/Pixel/crate05/module09/channel_read_04
PixelBarrel BmO Sector 3 POH 2L Detector|TSil|PixelBarrel_BmO|23.05|2017-09-26 10:12:09.693000|TK_PLCS/Pixel/crate05/module11/channel_read_04
PixelBarrel BmO Sector 3 POH 2L Detector|TSil|PixelBarrel_BmO|22.53|2017-09-26 10:31:52.182000|TK_PLCS/Pixel/crate05/module11/channel_read_04
PixelBarrel BmO Sector 3 POH 2L Detector|TSil|PixelBarrel_BmO|22.0|2017-09-26 10:32:34.706000|TK_PLCS/Pixel/crate05/module11/channel_read_04
PixelBarrel BmO Sector 3 POH 2L Detector|TSil|PixelBarrel_BmO|21.46|2017-09-26 10:33:32.189000|TK_PLCS/Pixel/crate05/module11/channel_read_04
PixelBarrel BmO Sector 3 POH 2L Detector|TSil|PixelBarrel_BmO|20.95|2017-09-26 10:34:44.679000|TK_PLCS/Pixel/crate05/module11/channel_read_04
PixelBarrel BmO Sector 3 POH 2L Detector|TSil|PixelBarrel_BmO|20.43|2017-09-26 10:36:12.207000|TK_PLCS/Pixel/crate05/module11/channel_read_04
PixelBarrel BmO Sector 3 POH 2L Detector|TSil|PixelBarrel_BmO|20.95|2017-09-26 10:40:32.200000|TK_PLCS/Pixel/crate05/module11/channel_read_04
PixelBarrel BmO Sector 3 POH 2L Detector|TSil|PixelBarrel_BmO|21.46|2017-09-26 10:45:09.681000|TK_PLCS/Pixel/crate05/module11/channel_read_04
PixelBarrel BmO Sector 3 POH 2L Detector|TSil|PixelBarrel_BmO|20.92|2017-09-26 10:47:52.179000|TK_PLCS/Pixel/crate05/module11/channel_read_04
PixelBarrel BmO Sector 3 POH 2L Detector|TSil|PixelBarrel_BmO|20.41|2017-09-26 10:48:44.686000|TK_PLCS/Pixel/crate05/module11/channel_read_04
PixelBarrel BmO Sector 3 POH 2L Detector|TSil|PixelBarrel_BmO|19.89|2017-09-26 10:50:07.191000|TK_PLCS/Pixel/crate05/module11/channel_read_04
PixelBarrel BmO Sector 3 POH 2L Detector|TSil|PixelBarrel_BmO|19.38|2017-09-26 10:52:07.196000|TK_PLCS/Pixel/crate05/module11/channel_read_04
PixelBarrel BmO Sector 3 POH 2L Detector|TSil|PixelBarrel_BmO|18.87|2017-09-26 10:54:59.706000|TK_PLCS/Pixel/crate05/module11/channel_read_04
PixelBarrel BmO Sector 3 POH 2L Detector|TSil|PixelBarrel_BmO|18.36|2017-09-26 10:59:32.186000|TK_PLCS/Pixel/crate05/module11/channel_read_04
PixelBarrel BmI Sector 7 POH 3L Detector|TSil|PixelBarrel_BmI|14.66|2017-09-26 10:10:59.683000|TK_PLCS/Pixel/crate05/module09/channel_read_06
PixelBarrel BmI Sector 7 POH 3L Detector|TSil|PixelBarrel_BmI|14.15|2017-09-26 10:32:04.693000|TK_PLCS/Pixel/crate05/module09/channel_read_06
PixelBarrel BmI Sector 7 POH 3L Detector|TSil|PixelBarrel_BmI|13.64|2017-09-26 10:33:14.702000|TK_PLCS/Pixel/crate05/module09/channel_read_06
PixelBarrel BmI Sector 7 POH 3L Detector|TSil|PixelBarrel_BmI|13.13|2017-09-26 10:34:47.316000|TK_PLCS/Pixel/crate05/module09/channel_read_06
PixelBarrel BmI Sector 7 POH 3L Detector|TSil|PixelBarrel_BmI|12.62|2017-09-26 10:36:34.701000|TK_PLCS/Pixel/crate05/module09/channel_read_06
PixelBarrel BmI Sector 7 POH 3L Detector|TSil|PixelBarrel_BmI|13.13|2017-09-26 10:42:19.695000|TK_PLCS/Pixel/crate05/module09/channel_read_06
PixelBarrel BmI Sector 7 POH 3L Detector|TSil|PixelBarrel_BmI|12.62|2017-09-26 10:49:27.178000|TK_PLCS/Pixel/crate05/module09/channel_read_06
PixelBarrel BmI Sector 7 POH 3L Detector|TSil|PixelBarrel_BmI|12.11|2017-09-26 10:51:39.679000|TK_PLCS/Pixel/crate05/module09/channel_read_06
PixelBarrel BmI Sector 7 POH 3L Detector|TSil|PixelBarrel_BmI|11.59|2017-09-26 10:54:44.705000|TK_PLCS/Pixel/crate05/module09/channel_read_06
PixelBarrel BmI Sector 7 POH 3L Detector|TSil|PixelBarrel_BmI|11.08|2017-09-26 10:59:32.186000|TK_PLCS/Pixel/crate05/module09/channel_read_06
PixelBarrel BmO Sector 2 POH 3L Detector|TSil|PixelBarrel_BmO|24.23|2017-09-26 10:11:42.191000|TK_PLCS/Pixel/crate05/module11/channel_read_06
PixelBarrel BmO Sector 2 POH 3L Detector|TSil|PixelBarrel_BmO|23.71|2017-09-26 10:31:54.678000|TK_PLCS/Pixel/crate05/module11/channel_read_06
PixelBarrel BmO Sector 2 POH 3L Detector|TSil|PixelBarrel_BmO|23.19|2017-09-26 10:32:47.295000|TK_PLCS/Pixel/crate05/module11/channel_read_06
PixelBarrel BmO Sector 2 POH 3L Detector|TSil|PixelBarrel_BmO|22.68|2017-09-26 10:33:49.707000|TK_PLCS/Pixel/crate05/module11/channel_read_06
PixelBarrel BmO Sector 2 POH 3L Detector|TSil|PixelBarrel_BmO|22.17|2017-09-26 10:35:07.189000|TK_PLCS/Pixel/crate05/module11/channel_read_06
PixelBarrel BmO Sector 2 POH 3L Detector|TSil|PixelBarrel_BmO|21.66|2017-09-26 10:36:39.693000|TK_PLCS/Pixel/crate05/module11/channel_read_06
PixelBarrel BmO Sector 2 POH 3L Detector|TSil|PixelBarrel_BmO|22.17|2017-09-26 10:41:22.196000|TK_PLCS/Pixel/crate05/module11/channel_read_06
PixelBarrel BmO Sector 2 POH 3L Detector|TSil|PixelBarrel_BmO|22.68|2017-09-26 10:46:37.177000|TK_PLCS/Pixel/crate05/module11/channel_read_06
PixelBarrel BmO Sector 2 POH 3L Detector|TSil|PixelBarrel_BmO|22.17|2017-09-26 10:47:47.296000|TK_PLCS/Pixel/crate05/module11/channel_read_06
PixelBarrel BmO Sector 2 POH 3L Detector|TSil|PixelBarrel_BmO|21.66|2017-09-26 10:48:49.678000|TK_PLCS/Pixel/crate05/module11/channel_read_06
PixelBarrel BmO Sector 2 POH 3L Detector|TSil|PixelBarrel_BmO|21.14|2017-09-26 10:50:22.182000|TK_PLCS/Pixel/crate05/module11/channel_read_06
PixelBarrel BmO Sector 2 POH 3L Detector|TSil|PixelBarrel_BmO|20.63|2017-09-26 10:52:24.683000|TK_PLCS/Pixel/crate05/module11/channel_read_06
PixelBarrel BmO Sector 2 POH 3L Detector|TSil|PixelBarrel_BmO|20.11|2017-09-26 10:55:02.186000|TK_PLCS/Pixel/crate05/module11/channel_read_06
PixelBarrel BmO Sector 2 POH 3L Detector|TSil|PixelBarrel_BmO|19.6|2017-09-26 10:58:39.702000|TK_PLCS/Pixel/crate05/module11/channel_read_06
PixelBarrel BpO Sector 1 POH 4R Detector|TSil|PixelBarrel_BpO|20.56|2017-09-26 10:13:27.190000|TK_PLCS/Pixel/crate04/module07/channel_read_08
PixelBarrel BpO Sector 1 POH 4R Detector|TSil|PixelBarrel_BpO|20.04|2017-09-26 10:32:37.202000|TK_PLCS/Pixel/crate04/module07/channel_read_08
PixelBarrel BpO Sector 1 POH 4R Detector|TSil|PixelBarrel_BpO|19.53|2017-09-26 10:34:05.587000|TK_PLCS/Pixel/crate04/module07/channel_read_08
PixelBarrel BpO Sector 1 POH 4R Detector|TSil|PixelBarrel_BpO|19.01|2017-09-26 10:35:49.697000|TK_PLCS/Pixel/crate04/module07/channel_read_08
PixelBarrel BpO Sector 1 POH 4R Detector|TSil|PixelBarrel_BpO|18.5|2017-09-26 10:37:52.198000|TK_PLCS/Pixel/crate04/module07/channel_read_08
PixelBarrel BpO Sector 1 POH 4R Detector|TSil|PixelBarrel_BpO|19.01|2017-09-26 10:41:49.698000|TK_PLCS/Pixel/crate04/module07/channel_read_08
PixelBarrel BpO Sector 1 POH 4R Detector|TSil|PixelBarrel_BpO|18.5|2017-09-26 10:49:32.186000|TK_PLCS/Pixel/crate04/module07/channel_read_08
PixelBarrel BpO Sector 1 POH 4R Detector|TSil|PixelBarrel_BpO|17.99|2017-09-26 10:51:49.694000|TK_PLCS/Pixel/crate04/module07/channel_read_08
PixelBarrel BpO Sector 1 POH 4R Detector|TSil|PixelBarrel_BpO|17.48|2017-09-26 10:54:34.679000|TK_PLCS/Pixel/crate04/module07/channel_read_08
PixelBarrel BpO Sector 1 POH 4R Detector|TSil|PixelBarrel_BpO|16.97|2017-09-26 10:58:29.688000|TK_PLCS/Pixel/crate04/module07/channel_read_08
PixelBarrel BpI Sector 8 POH 4R Detector|TSil|PixelBarrel_BpI|12.27|2017-09-26 10:13:17.425000|TK_PLCS/Pixel/crate04/module05/channel_read_08
PixelBarrel BpI Sector 8 POH 4R Detector|TSil|PixelBarrel_BpI|11.75|2017-09-26 10:32:47.295000|TK_PLCS/Pixel/crate04/module05/channel_read_08
PixelBarrel BpI Sector 8 POH 4R Detector|TSil|PixelBarrel_BpI|11.23|2017-09-26 10:34:24.697000|TK_PLCS/Pixel/crate04/module05/channel_read_08
PixelBarrel BpI Sector 8 POH 4R Detector|TSil|PixelBarrel_BpI|10.71|2017-09-26 10:36:29.694000|TK_PLCS/Pixel/crate04/module05/channel_read_08
PixelBarrel BpI Sector 8 POH 4R Detector|TSil|PixelBarrel_BpI|11.23|2017-09-26 10:44:02.198000|TK_PLCS/Pixel/crate04/module05/channel_read_08
PixelBarrel BpI Sector 8 POH 4R Detector|TSil|PixelBarrel_BpI|10.71|2017-09-26 10:49:07.180000|TK_PLCS/Pixel/crate04/module05/channel_read_08
PixelBarrel BpI Sector 8 POH 4R Detector|TSil|PixelBarrel_BpI|10.19|2017-09-26 10:51:42.190000|TK_PLCS/Pixel/crate04/module05/channel_read_08
PixelBarrel BpI Sector 8 POH 4R Detector|TSil|PixelBarrel_BpI|9.66|2017-09-26 10:55:19.681000|TK_PLCS/Pixel/crate04/module05/channel_read_08
PixelBarrel BpI Sector 5 POH 1R Detector|TSil|PixelBarrel_BpI|17.72|2017-09-26 10:06:24.699000|TK_PLCS/Pixel/crate04/module05/channel_read_02
PixelBarrel BpI Sector 5 POH 1R Detector|TSil|PixelBarrel_BpI|17.18|2017-09-26 10:31:44.679000|TK_PLCS/Pixel/crate04/module05/channel_read_02
PixelBarrel BpI Sector 5 POH 1R Detector|TSil|PixelBarrel_BpI|16.67|2017-09-26 10:32:34.706000|TK_PLCS/Pixel/crate04/module05/channel_read_02
PixelBarrel BpI Sector 5 POH 1R Detector|TSil|PixelBarrel_BpI|16.15|2017-09-26 10:33:42.188000|TK_PLCS/Pixel/crate04/module05/channel_read_02
PixelBarrel BpI Sector 5 POH 1R Detector|TSil|PixelBarrel_BpI|15.63|2017-09-26 10:35:12.181000|TK_PLCS/Pixel/crate04/module05/channel_read_02
PixelBarrel BpI Sector 5 POH 1R Detector|TSil|PixelBarrel_BpI|15.1|2017-09-26 10:37:07.288000|TK_PLCS/Pixel/crate04/module05/channel_read_02
PixelBarrel BpI Sector 5 POH 1R Detector|TSil|PixelBarrel_BpI|15.63|2017-09-26 10:39:34.701000|TK_PLCS/Pixel/crate04/module05/channel_read_02
PixelBarrel BpI Sector 5 POH 1R Detector|TSil|PixelBarrel_BpI|16.15|2017-09-26 10:42:27.198000|TK_PLCS/Pixel/crate04/module05/channel_read_02
PixelBarrel BpI Sector 5 POH 1R Detector|TSil|PixelBarrel_BpI|15.63|2017-09-26 10:48:27.184000|TK_PLCS/Pixel/crate04/module05/channel_read_02
PixelBarrel BpI Sector 5 POH 1R Detector|TSil|PixelBarrel_BpI|15.1|2017-09-26 10:50:02.183000|TK_PLCS/Pixel/crate04/module05/channel_read_02
PixelBarrel BpI Sector 5 POH 1R Detector|TSil|PixelBarrel_BpI|14.58|2017-09-26 10:52:17.289000|TK_PLCS/Pixel/crate04/module05/channel_read_02
PixelBarrel BpI Sector 5 POH 1R Detector|TSil|PixelBarrel_BpI|14.06|2017-09-26 10:55:39.703000|TK_PLCS/Pixel/crate04/module05/channel_read_02
PixelBarrel BpO Sector 4 POH 1R Detector|TSil|PixelBarrel_BpO|7.91|2017-09-26 10:32:42.178000|TK_PLCS/Pixel/crate04/module07/channel_read_02
PixelBarrel BpO Sector 4 POH 1R Detector|TSil|PixelBarrel_BpO|7.4|2017-09-26 10:35:07.189000|TK_PLCS/Pixel/crate04/module07/channel_read_02
PixelBarrel BpO Sector 4 POH 1R Detector|TSil|PixelBarrel_BpO|6.89|2017-09-26 10:49:54.696000|TK_PLCS/Pixel/crate04/module07/channel_read_02
PixelBarrel BpO Sector 4 POH 1R Detector|TSil|PixelBarrel_BpO|6.38|2017-09-26 10:53:52.186000|TK_PLCS/Pixel/crate04/module07/channel_read_02
PixelBarrel BpO Sector 4 POH 1R Detector|TSil|PixelBarrel_BpO|5.87|2017-09-26 10:59:52.182000|TK_PLCS/Pixel/crate04/module07/channel_read_02
PixelBarrel BpI Sector 1 POH 4L Detector|TSil|PixelBarrel_BpI|21.53|2017-09-26 10:32:49.697000|TK_PLCS/Pixel/crate05/module05/channel_read_08
PixelBarrel BpI Sector 1 POH 4L Detector|TSil|PixelBarrel_BpI|21.02|2017-09-26 10:34:14.697000|TK_PLCS/Pixel/crate05/module05/channel_read_08
PixelBarrel BpI Sector 1 POH 4L Detector|TSil|PixelBarrel_BpI|20.51|2017-09-26 10:35:49.697000|TK_PLCS/Pixel/crate05/module05/channel_read_08
PixelBarrel BpI Sector 1 POH 4L Detector|TSil|PixelBarrel_BpI|19.99|2017-09-26 10:37:44.680000|TK_PLCS/Pixel/crate05/module05/channel_read_08
PixelBarrel BpI Sector 1 POH 4L Detector|TSil|PixelBarrel_BpI|20.51|2017-09-26 10:43:19.690000|TK_PLCS/Pixel/crate05/module05/channel_read_08
PixelBarrel BpI Sector 1 POH 4L Detector|TSil|PixelBarrel_BpI|19.99|2017-09-26 10:49:04.700000|TK_PLCS/Pixel/crate05/module05/channel_read_08
PixelBarrel BpI Sector 1 POH 4L Detector|TSil|PixelBarrel_BpI|19.48|2017-09-26 10:51:07.201000|TK_PLCS/Pixel/crate05/module05/channel_read_08
PixelBarrel BpI Sector 1 POH 4L Detector|TSil|PixelBarrel_BpI|18.96|2017-09-26 10:53:37.295000|TK_PLCS/Pixel/crate05/module05/channel_read_08
PixelBarrel BpI Sector 1 POH 4L Detector|TSil|PixelBarrel_BpI|18.45|2017-09-26 10:56:52.182000|TK_PLCS/Pixel/crate05/module05/channel_read_08
PixelBarrel BpI Sector 2 POH 3L Detector|TSil|PixelBarrel_BpI|22.07|2017-09-26 10:11:54.702000|TK_PLCS/Pixel/crate05/module05/channel_read_06
PixelBarrel BpI Sector 2 POH 3L Detector|TSil|PixelBarrel_BpI|21.56|2017-09-26 10:32:14.692000|TK_PLCS/Pixel/crate05/module05/channel_read_06
PixelBarrel BpI Sector 2 POH 3L Detector|TSil|PixelBarrel_BpI|21.05|2017-09-26 10:33:17.292000|TK_PLCS/Pixel/crate05/module05/channel_read_06
PixelBarrel BpI Sector 2 POH 3L Detector|TSil|PixelBarrel_BpI|20.53|2017-09-26 10:34:34.696000|TK_PLCS/Pixel/crate05/module05/channel_read_06
PixelBarrel BpI Sector 2 POH 3L Detector|TSil|PixelBarrel_BpI|20.02|2017-09-26 10:36:04.704000|TK_PLCS/Pixel/crate05/module05/channel_read_06
PixelBarrel BpI Sector 2 POH 3L Detector|TSil|PixelBarrel_BpI|19.5|2017-09-26 10:37:49.687000|TK_PLCS/Pixel/crate05/module05/channel_read_06
PixelBarrel BpI Sector 2 POH 3L Detector|TSil|PixelBarrel_BpI|20.02|2017-09-26 10:40:14.698000|TK_PLCS/Pixel/crate05/module05/channel_read_06
PixelBarrel BpI Sector 2 POH 3L Detector|TSil|PixelBarrel_BpI|20.53|2017-09-26 10:45:29.695000|TK_PLCS/Pixel/crate05/module05/channel_read_06
PixelBarrel BpI Sector 2 POH 3L Detector|TSil|PixelBarrel_BpI|20.02|2017-09-26 10:48:19.680000|TK_PLCS/Pixel/crate05/module05/channel_read_06
PixelBarrel BpI Sector 2 POH 3L Detector|TSil|PixelBarrel_BpI|19.5|2017-09-26 10:49:49.704000|TK_PLCS/Pixel/crate05/module05/channel_read_06
PixelBarrel BpI Sector 2 POH 3L Detector|TSil|PixelBarrel_BpI|18.99|2017-09-26 10:51:44.686000|TK_PLCS/Pixel/crate05/module05/channel_read_06
PixelBarrel BpI Sector 2 POH 3L Detector|TSil|PixelBarrel_BpI|18.48|2017-09-26 10:54:14.703000|TK_PLCS/Pixel/crate05/module05/channel_read_06
PixelBarrel BpI Sector 2 POH 3L Detector|TSil|PixelBarrel_BpI|17.97|2017-09-26 10:57:37.185000|TK_PLCS/Pixel/crate05/module05/channel_read_06
PixelBarrel BpI Sector 3 POH 2L Detector|TSil|PixelBarrel_BpI|19.6|2017-09-26 10:10:29.701000|TK_PLCS/Pixel/crate05/module05/channel_read_04
PixelBarrel BpI Sector 3 POH 2L Detector|TSil|PixelBarrel_BpI|19.09|2017-09-26 10:31:49.702000|TK_PLCS/Pixel/crate05/module05/channel_read_04
PixelBarrel BpI Sector 3 POH 2L Detector|TSil|PixelBarrel_BpI|18.57|2017-09-26 10:32:42.178000|TK_PLCS/Pixel/crate05/module05/channel_read_04
PixelBarrel BpI Sector 3 POH 2L Detector|TSil|PixelBarrel_BpI|18.06|2017-09-26 10:33:47.305000|TK_PLCS/Pixel/crate05/module05/channel_read_04
PixelBarrel BpI Sector 3 POH 2L Detector|TSil|PixelBarrel_BpI|17.55|2017-09-26 10:35:04.693000|TK_PLCS/Pixel/crate05/module05/channel_read_04
PixelBarrel BpI Sector 3 POH 2L Detector|TSil|PixelBarrel_BpI|17.04|2017-09-26 10:36:44.685000|TK_PLCS/Pixel/crate05/module05/channel_read_04
PixelBarrel BpI Sector 3 POH 2L Detector|TSil|PixelBarrel_BpI|17.55|2017-09-26 10:41:29.684000|TK_PLCS/Pixel/crate05/module05/channel_read_04
PixelBarrel BpI Sector 3 POH 2L Detector|TSil|PixelBarrel_BpI|17.04|2017-09-26 10:49:12.203000|TK_PLCS/Pixel/crate05/module05/channel_read_04
PixelBarrel BpI Sector 3 POH 2L Detector|TSil|PixelBarrel_BpI|16.53|2017-09-26 10:50:57.202000|TK_PLCS/Pixel/crate05/module05/channel_read_04
PixelBarrel BpI Sector 3 POH 2L Detector|TSil|PixelBarrel_BpI|16.01|2017-09-26 10:53:12.198000|TK_PLCS/Pixel/crate05/module05/channel_read_04
PixelBarrel BpI Sector 3 POH 2L Detector|TSil|PixelBarrel_BpI|15.5|2017-09-26 10:56:24.706000|TK_PLCS/Pixel/crate05/module05/channel_read_04
PixelBarrel BpI Sector 4 POH 1L Detector|TSil|PixelBarrel_BpI|14.4|2017-09-26 10:13:57.203000|TK_PLCS/Pixel/crate05/module05/channel_read_02
PixelBarrel BpI Sector 4 POH 1L Detector|TSil|PixelBarrel_BpI|13.88|2017-09-26 10:32:32.179000|TK_PLCS/Pixel/crate05/module05/channel_read_02
PixelBarrel BpI Sector 4 POH 1L Detector|TSil|PixelBarrel_BpI|13.37|2017-09-26 10:33:47.305000|TK_PLCS/Pixel/crate05/module05/channel_read_02
PixelBarrel BpI Sector 4 POH 1L Detector|TSil|PixelBarrel_BpI|12.86|2017-09-26 10:35:19.700000|TK_PLCS/Pixel/crate05/module05/channel_read_02
PixelBarrel BpI Sector 4 POH 1L Detector|TSil|PixelBarrel_BpI|12.35|2017-09-26 10:37:14.698000|TK_PLCS/Pixel/crate05/module05/channel_read_02
PixelBarrel BpI Sector 4 POH 1L Detector|TSil|PixelBarrel_BpI|12.86|2017-09-26 10:40:29.689000|TK_PLCS/Pixel/crate05/module05/channel_read_02
PixelBarrel BpI Sector 4 POH 1L Detector|TSil|PixelBarrel_BpI|13.37|2017-09-26 10:45:49.677000|TK_PLCS/Pixel/crate05/module05/channel_read_02
PixelBarrel BpI Sector 4 POH 1L Detector|TSil|PixelBarrel_BpI|12.86|2017-09-26 10:48:14.688000|TK_PLCS/Pixel/crate05/module05/channel_read_02
PixelBarrel BpI Sector 4 POH 1L Detector|TSil|PixelBarrel_BpI|12.35|2017-09-26 10:49:54.696000|TK_PLCS/Pixel/crate05/module05/channel_read_02
PixelBarrel BpI Sector 4 POH 1L Detector|TSil|PixelBarrel_BpI|11.84|2017-09-26 10:52:07.196000|TK_PLCS/Pixel/crate05/module05/channel_read_02
PixelBarrel BpI Sector 4 POH 1L Detector|TSil|PixelBarrel_BpI|11.33|2017-09-26 10:55:32.203000|TK_PLCS/Pixel/crate05/module05/channel_read_02
PixelBarrel BpI Sector 5 POH 1R Detector|TSil|PixelBarrel_BpI|17.72|2017-09-26 10:06:24.699000|TK_PLCS/Pixel/crate04/module05/channel_read_02
PixelBarrel BpI Sector 5 POH 1R Detector|TSil|PixelBarrel_BpI|17.18|2017-09-26 10:31:44.679000|TK_PLCS/Pixel/crate04/module05/channel_read_02
PixelBarrel BpI Sector 5 POH 1R Detector|TSil|PixelBarrel_BpI|16.67|2017-09-26 10:32:34.706000|TK_PLCS/Pixel/crate04/module05/channel_read_02
PixelBarrel BpI Sector 5 POH 1R Detector|TSil|PixelBarrel_BpI|16.15|2017-09-26 10:33:42.188000|TK_PLCS/Pixel/crate04/module05/channel_read_02
PixelBarrel BpI Sector 5 POH 1R Detector|TSil|PixelBarrel_BpI|15.63|2017-09-26 10:35:12.181000|TK_PLCS/Pixel/crate04/module05/channel_read_02
PixelBarrel BpI Sector 5 POH 1R Detector|TSil|PixelBarrel_BpI|15.1|2017-09-26 10:37:07.288000|TK_PLCS/Pixel/crate04/module05/channel_read_02
PixelBarrel BpI Sector 5 POH 1R Detector|TSil|PixelBarrel_BpI|15.63|2017-09-26 10:39:34.701000|TK_PLCS/Pixel/crate04/module05/channel_read_02
PixelBarrel BpI Sector 5 POH 1R Detector|TSil|PixelBarrel_BpI|16.15|2017-09-26 10:42:27.198000|TK_PLCS/Pixel/crate04/module05/channel_read_02
PixelBarrel BpI Sector 5 POH 1R Detector|TSil|PixelBarrel_BpI|15.63|2017-09-26 10:48:27.184000|TK_PLCS/Pixel/crate04/module05/channel_read_02
PixelBarrel BpI Sector 5 POH 1R Detector|TSil|PixelBarrel_BpI|15.1|2017-09-26 10:50:02.183000|TK_PLCS/Pixel/crate04/module05/channel_read_02
PixelBarrel BpI Sector 5 POH 1R Detector|TSil|PixelBarrel_BpI|14.58|2017-09-26 10:52:17.289000|TK_PLCS/Pixel/crate04/module05/channel_read_02
PixelBarrel BpI Sector 5 POH 1R Detector|TSil|PixelBarrel_BpI|14.06|2017-09-26 10:55:39.703000|TK_PLCS/Pixel/crate04/module05/channel_read_02
PixelBarrel BpI Sector 6 POH 2R Detector|TSil|PixelBarrel_BpI|17.15|2017-09-26 10:10:34.693000|TK_PLCS/Pixel/crate04/module05/channel_read_04
PixelBarrel BpI Sector 6 POH 2R Detector|TSil|PixelBarrel_BpI|16.63|2017-09-26 10:31:57.205000|TK_PLCS/Pixel/crate04/module05/channel_read_04
PixelBarrel BpI Sector 6 POH 2R Detector|TSil|PixelBarrel_BpI|16.1|2017-09-26 10:33:02.207000|TK_PLCS/Pixel/crate04/module05/channel_read_04
PixelBarrel BpI Sector 6 POH 2R Detector|TSil|PixelBarrel_BpI|15.6|2017-09-26 10:34:24.697000|TK_PLCS/Pixel/crate04/module05/channel_read_04
PixelBarrel BpI Sector 6 POH 2R Detector|TSil|PixelBarrel_BpI|15.08|2017-09-26 10:36:02.192000|TK_PLCS/Pixel/crate04/module05/channel_read_04
PixelBarrel BpI Sector 6 POH 2R Detector|TSil|PixelBarrel_BpI|15.6|2017-09-26 10:44:04.694000|TK_PLCS/Pixel/crate04/module05/channel_read_04
PixelBarrel BpI Sector 6 POH 2R Detector|TSil|PixelBarrel_BpI|15.08|2017-09-26 10:48:49.678000|TK_PLCS/Pixel/crate04/module05/channel_read_04
PixelBarrel BpI Sector 6 POH 2R Detector|TSil|PixelBarrel_BpI|14.56|2017-09-26 10:50:44.691000|TK_PLCS/Pixel/crate04/module05/channel_read_04
PixelBarrel BpI Sector 6 POH 2R Detector|TSil|PixelBarrel_BpI|14.04|2017-09-26 10:53:19.686000|TK_PLCS/Pixel/crate04/module05/channel_read_04
PixelBarrel BpI Sector 6 POH 2R Detector|TSil|PixelBarrel_BpI|13.52|2017-09-26 10:56:54.693000|TK_PLCS/Pixel/crate04/module05/channel_read_04
PixelBarrel BpI Sector 7 POH 3R Detector|TSil|PixelBarrel_BpI|15.93|2017-09-26 10:10:29.701000|TK_PLCS/Pixel/crate04/module05/channel_read_06
PixelBarrel BpI Sector 7 POH 3R Detector|TSil|PixelBarrel_BpI|15.41|2017-09-26 10:31:54.678000|TK_PLCS/Pixel/crate04/module05/channel_read_06
PixelBarrel BpI Sector 7 POH 3R Detector|TSil|PixelBarrel_BpI|14.89|2017-09-26 10:32:57.200000|TK_PLCS/Pixel/crate04/module05/channel_read_06
PixelBarrel BpI Sector 7 POH 3R Detector|TSil|PixelBarrel_BpI|14.37|2017-09-26 10:34:17.287000|TK_PLCS/Pixel/crate04/module05/channel_read_06
PixelBarrel BpI Sector 7 POH 3R Detector|TSil|PixelBarrel_BpI|13.84|2017-09-26 10:35:54.704000|TK_PLCS/Pixel/crate04/module05/channel_read_06
PixelBarrel BpI Sector 7 POH 3R Detector|TSil|PixelBarrel_BpI|14.37|2017-09-26 10:44:07.206000|TK_PLCS/Pixel/crate04/module05/channel_read_06
PixelBarrel BpI Sector 7 POH 3R Detector|TSil|PixelBarrel_BpI|13.84|2017-09-26 10:48:47.291000|TK_PLCS/Pixel/crate04/module05/channel_read_06
PixelBarrel BpI Sector 7 POH 3R Detector|TSil|PixelBarrel_BpI|13.32|2017-09-26 10:50:44.691000|TK_PLCS/Pixel/crate04/module05/channel_read_06
PixelBarrel BpI Sector 7 POH 3R Detector|TSil|PixelBarrel_BpI|12.8|2017-09-26 10:53:19.686000|TK_PLCS/Pixel/crate04/module05/channel_read_06
PixelBarrel BpI Sector 7 POH 3R Detector|TSil|PixelBarrel_BpI|12.27|2017-09-26 10:57:09.694000|TK_PLCS/Pixel/crate04/module05/channel_read_06
PixelBarrel BpI Sector 8 POH 4R Detector|TSil|PixelBarrel_BpI|12.27|2017-09-26 10:13:17.425000|TK_PLCS/Pixel/crate04/module05/channel_read_08
PixelBarrel BpI Sector 8 POH 4R Detector|TSil|PixelBarrel_BpI|11.75|2017-09-26 10:32:47.295000|TK_PLCS/Pixel/crate04/module05/channel_read_08
PixelBarrel BpI Sector 8 POH 4R Detector|TSil|PixelBarrel_BpI|11.23|2017-09-26 10:34:24.697000|TK_PLCS/Pixel/crate04/module05/channel_read_08
PixelBarrel BpI Sector 8 POH 4R Detector|TSil|PixelBarrel_BpI|10.71|2017-09-26 10:36:29.694000|TK_PLCS/Pixel/crate04/module05/channel_read_08
PixelBarrel BpI Sector 8 POH 4R Detector|TSil|PixelBarrel_BpI|11.23|2017-09-26 10:44:02.198000|TK_PLCS/Pixel/crate04/module05/channel_read_08
PixelBarrel BpI Sector 8 POH 4R Detector|TSil|PixelBarrel_BpI|10.71|2017-09-26 10:49:07.180000|TK_PLCS/Pixel/crate04/module05/channel_read_08
PixelBarrel BpI Sector 8 POH 4R Detector|TSil|PixelBarrel_BpI|10.19|2017-09-26 10:51:42.190000|TK_PLCS/Pixel/crate04/module05/channel_read_08
PixelBarrel BpI Sector 8 POH 4R Detector|TSil|PixelBarrel_BpI|9.66|2017-09-26 10:55:19.681000|TK_PLCS/Pixel/crate04/module05/channel_read_08
PixelBarrel BpI Sector 6 POH 2R Detector|TSil|PixelBarrel_BpI|17.15|2017-09-26 10:10:34.693000|TK_PLCS/Pixel/crate04/module05/channel_read_04
PixelBarrel BpI Sector 6 POH 2R Detector|TSil|PixelBarrel_BpI|16.63|2017-09-26 10:31:57.205000|TK_PLCS/Pixel/crate04/module05/channel_read_04
PixelBarrel BpI Sector 6 POH 2R Detector|TSil|PixelBarrel_BpI|16.1|2017-09-26 10:33:02.207000|TK_PLCS/Pixel/crate04/module05/channel_read_04
PixelBarrel BpI Sector 6 POH 2R Detector|TSil|PixelBarrel_BpI|15.6|2017-09-26 10:34:24.697000|TK_PLCS/Pixel/crate04/module05/channel_read_04
PixelBarrel BpI Sector 6 POH 2R Detector|TSil|PixelBarrel_BpI|15.08|2017-09-26 10:36:02.192000|TK_PLCS/Pixel/crate04/module05/channel_read_04
PixelBarrel BpI Sector 6 POH 2R Detector|TSil|PixelBarrel_BpI|15.6|2017-09-26 10:44:04.694000|TK_PLCS/Pixel/crate04/module05/channel_read_04
PixelBarrel BpI Sector 6 POH 2R Detector|TSil|PixelBarrel_BpI|15.08|2017-09-26 10:48:49.678000|TK_PLCS/Pixel/crate04/module05/channel_read_04
PixelBarrel BpI Sector 6 POH 2R Detector|TSil|PixelBarrel_BpI|14.56|2017-09-26 10:50:44.691000|TK_PLCS/Pixel/crate04/module05/channel_read_04
PixelBarrel BpI Sector 6 POH 2R Detector|TSil|PixelBarrel_BpI|14.04|2017-09-26 10:53:19.686000|TK_PLCS/Pixel/crate04/module05/channel_read_04
PixelBarrel BpI Sector 6 POH 2R Detector|TSil|PixelBarrel_BpI|13.52|2017-09-26 10:56:54.693000|TK_PLCS/Pixel/crate04/module05/channel_read_04
PixelBarrel BpO Sector 3 POH 2R Detector|TSil|PixelBarrel_BpO|16.87|2017-09-26 10:10:49.684000|TK_PLCS/Pixel/crate04/module07/channel_read_04
PixelBarrel BpO Sector 3 POH 2R Detector|TSil|PixelBarrel_BpO|16.36|2017-09-26 10:32:04.693000|TK_PLCS/Pixel/crate04/module07/channel_read_04
PixelBarrel BpO Sector 3 POH 2R Detector|TSil|PixelBarrel_BpO|15.84|2017-09-26 10:33:12.207000|TK_PLCS/Pixel/crate04/module07/channel_read_04
PixelBarrel BpO Sector 3 POH 2R Detector|TSil|PixelBarrel_BpO|15.33|2017-09-26 10:34:39.703000|TK_PLCS/Pixel/crate04/module07/channel_read_04
PixelBarrel BpO Sector 3 POH 2R Detector|TSil|PixelBarrel_BpO|14.81|2017-09-26 10:36:27.198000|TK_PLCS/Pixel/crate04/module07/channel_read_04
PixelBarrel BpO Sector 3 POH 2R Detector|TSil|PixelBarrel_BpO|15.33|2017-09-26 10:43:04.684000|TK_PLCS/Pixel/crate04/module07/channel_read_04
PixelBarrel BpO Sector 3 POH 2R Detector|TSil|PixelBarrel_BpO|14.81|2017-09-26 10:48:59.692000|TK_PLCS/Pixel/crate04/module07/channel_read_04
PixelBarrel BpO Sector 3 POH 2R Detector|TSil|PixelBarrel_BpO|14.3|2017-09-26 10:50:54.691000|TK_PLCS/Pixel/crate04/module07/channel_read_04
PixelBarrel BpO Sector 3 POH 2R Detector|TSil|PixelBarrel_BpO|13.79|2017-09-26 10:53:42.191000|TK_PLCS/Pixel/crate04/module07/channel_read_04
PixelBarrel BpO Sector 3 POH 2R Detector|TSil|PixelBarrel_BpO|13.28|2017-09-26 10:57:42.190000|TK_PLCS/Pixel/crate04/module07/channel_read_04
PixelBarrel BpI Sector 7 POH 3R Detector|TSil|PixelBarrel_BpI|15.93|2017-09-26 10:10:29.701000|TK_PLCS/Pixel/crate04/module05/channel_read_06
PixelBarrel BpI Sector 7 POH 3R Detector|TSil|PixelBarrel_BpI|15.41|2017-09-26 10:31:54.678000|TK_PLCS/Pixel/crate04/module05/channel_read_06
PixelBarrel BpI Sector 7 POH 3R Detector|TSil|PixelBarrel_BpI|14.89|2017-09-26 10:32:57.200000|TK_PLCS/Pixel/crate04/module05/channel_read_06
PixelBarrel BpI Sector 7 POH 3R Detector|TSil|PixelBarrel_BpI|14.37|2017-09-26 10:34:17.287000|TK_PLCS/Pixel/crate04/module05/channel_read_06
PixelBarrel BpI Sector 7 POH 3R Detector|TSil|PixelBarrel_BpI|13.84|2017-09-26 10:35:54.704000|TK_PLCS/Pixel/crate04/module05/channel_read_06
PixelBarrel BpI Sector 7 POH 3R Detector|TSil|PixelBarrel_BpI|14.37|2017-09-26 10:44:07.206000|TK_PLCS/Pixel/crate04/module05/channel_read_06
PixelBarrel BpI Sector 7 POH 3R Detector|TSil|PixelBarrel_BpI|13.84|2017-09-26 10:48:47.291000|TK_PLCS/Pixel/crate04/module05/channel_read_06
PixelBarrel BpI Sector 7 POH 3R Detector|TSil|PixelBarrel_BpI|13.32|2017-09-26 10:50:44.691000|TK_PLCS/Pixel/crate04/module05/channel_read_06
PixelBarrel BpI Sector 7 POH 3R Detector|TSil|PixelBarrel_BpI|12.8|2017-09-26 10:53:19.686000|TK_PLCS/Pixel/crate04/module05/channel_read_06
PixelBarrel BpI Sector 7 POH 3R Detector|TSil|PixelBarrel_BpI|12.27|2017-09-26 10:57:09.694000|TK_PLCS/Pixel/crate04/module05/channel_read_06
PixelBarrel BpO Sector 2 POH 3R Detector|TSil|PixelBarrel_BpO|21.22|2017-09-26 10:00:57.207000|TK_PLCS/Pixel/crate04/module07/channel_read_06
PixelBarrel BpO Sector 2 POH 3R Detector|TSil|PixelBarrel_BpO|20.7|2017-09-26 10:31:49.702000|TK_PLCS/Pixel/crate04/module07/channel_read_06
PixelBarrel BpO Sector 2 POH 3R Detector|TSil|PixelBarrel_BpO|20.19|2017-09-26 10:32:47.295000|TK_PLCS/Pixel/crate04/module07/channel_read_06
PixelBarrel BpO Sector 2 POH 3R Detector|TSil|PixelBarrel_BpO|19.67|2017-09-26 10:33:59.691000|TK_PLCS/Pixel/crate04/module07/channel_read_06
PixelBarrel BpO Sector 2 POH 3R Detector|TSil|PixelBarrel_BpO|19.16|2017-09-26 10:35:27.203000|TK_PLCS/Pixel/crate04/module07/channel_read_06
PixelBarrel BpO Sector 2 POH 3R Detector|TSil|PixelBarrel_BpO|18.65|2017-09-26 10:37:17.303000|TK_PLCS/Pixel/crate04/module07/channel_read_06
PixelBarrel BpO Sector 2 POH 3R Detector|TSil|PixelBarrel_BpO|19.16|2017-09-26 10:41:07.190000|TK_PLCS/Pixel/crate04/module07/channel_read_06
PixelBarrel BpO Sector 2 POH 3R Detector|TSil|PixelBarrel_BpO|19.67|2017-09-26 10:46:29.690000|TK_PLCS/Pixel/crate04/module07/channel_read_06
PixelBarrel BpO Sector 2 POH 3R Detector|TSil|PixelBarrel_BpO|19.16|2017-09-26 10:48:04.689000|TK_PLCS/Pixel/crate04/module07/channel_read_06
PixelBarrel BpO Sector 2 POH 3R Detector|TSil|PixelBarrel_BpO|18.65|2017-09-26 10:49:37.178000|TK_PLCS/Pixel/crate04/module07/channel_read_06
PixelBarrel BpO Sector 2 POH 3R Detector|TSil|PixelBarrel_BpO|18.14|2017-09-26 10:51:34.703000|TK_PLCS/Pixel/crate04/module07/channel_read_06
PixelBarrel BpO Sector 2 POH 3R Detector|TSil|PixelBarrel_BpO|17.62|2017-09-26 10:54:09.698000|TK_PLCS/Pixel/crate04/module07/channel_read_06
PixelBarrel BpO Sector 2 POH 3R Detector|TSil|PixelBarrel_BpO|17.11|2017-09-26 10:57:47.305000|TK_PLCS/Pixel/crate04/module07/channel_read_06
PixelBarrel BmI Sector 1 POH 4R Detector|TSil|PixelBarrel_BmI|21.51|2017-09-26 10:31:52.182000|TK_PLCS/Pixel/crate04/module09/channel_read_08
PixelBarrel BmI Sector 1 POH 4R Detector|TSil|PixelBarrel_BmI|21.0|2017-09-26 10:33:07.184000|TK_PLCS/Pixel/crate04/module09/channel_read_08
PixelBarrel BmI Sector 1 POH 4R Detector|TSil|PixelBarrel_BmI|20.48|2017-09-26 10:34:39.703000|TK_PLCS/Pixel/crate04/module09/channel_read_08
PixelBarrel BmI Sector 1 POH 4R Detector|TSil|PixelBarrel_BmI|19.97|2017-09-26 10:36:24.702000|TK_PLCS/Pixel/crate04/module09/channel_read_08
PixelBarrel BmI Sector 1 POH 4R Detector|TSil|PixelBarrel_BmI|19.45|2017-09-26 10:49:54.696000|TK_PLCS/Pixel/crate04/module09/channel_read_08
PixelBarrel BmI Sector 1 POH 4R Detector|TSil|PixelBarrel_BmI|18.94|2017-09-26 10:52:14.684000|TK_PLCS/Pixel/crate04/module09/channel_read_08
PixelBarrel BmI Sector 1 POH 4R Detector|TSil|PixelBarrel_BmI|18.43|2017-09-26 10:55:12.181000|TK_PLCS/Pixel/crate04/module09/channel_read_08
PixelBarrel BmI Sector 1 POH 4R Detector|TSil|PixelBarrel_BmI|17.92|2017-09-26 10:59:07.293000|TK_PLCS/Pixel/crate04/module09/channel_read_08
PixelBarrel BmO Sector 8 POH 4R Detector|TSil|PixelBarrel_BmO|11.81|2017-09-26 10:14:09.683000|TK_PLCS/Pixel/crate04/module11/channel_read_08
PixelBarrel BmO Sector 8 POH 4R Detector|TSil|PixelBarrel_BmO|11.3|2017-09-26 10:32:44.705000|TK_PLCS/Pixel/crate04/module11/channel_read_08
PixelBarrel BmO Sector 8 POH 4R Detector|TSil|PixelBarrel_BmO|10.79|2017-09-26 10:34:27.192000|TK_PLCS/Pixel/crate04/module11/channel_read_08
PixelBarrel BmO Sector 8 POH 4R Detector|TSil|PixelBarrel_BmO|10.28|2017-09-26 10:36:32.190000|TK_PLCS/Pixel/crate04/module11/channel_read_08
PixelBarrel BmO Sector 8 POH 4R Detector|TSil|PixelBarrel_BmO|10.79|2017-09-26 10:44:27.297000|TK_PLCS/Pixel/crate04/module11/channel_read_08
PixelBarrel BmO Sector 8 POH 4R Detector|TSil|PixelBarrel_BmO|10.28|2017-09-26 10:49:09.707000|TK_PLCS/Pixel/crate04/module11/channel_read_08
PixelBarrel BmO Sector 8 POH 4R Detector|TSil|PixelBarrel_BmO|9.77|2017-09-26 10:51:44.686000|TK_PLCS/Pixel/crate04/module11/channel_read_08
PixelBarrel BmO Sector 8 POH 4R Detector|TSil|PixelBarrel_BmO|9.25|2017-09-26 10:55:22.192000|TK_PLCS/Pixel/crate04/module11/channel_read_08
PixelBarrel BmI Sector 4 POH 1R Detector|TSil|PixelBarrel_BmI|14.52|2017-09-26 10:11:17.295000|TK_PLCS/Pixel/crate04/module09/channel_read_02
PixelBarrel BmI Sector 4 POH 1R Detector|TSil|PixelBarrel_BmI|14.01|2017-09-26 10:32:09.685000|TK_PLCS/Pixel/crate04/module09/channel_read_02
PixelBarrel BmI Sector 4 POH 1R Detector|TSil|PixelBarrel_BmI|13.49|2017-09-26 10:33:17.292000|TK_PLCS/Pixel/crate04/module09/channel_read_02
PixelBarrel BmI Sector 4 POH 1R Detector|TSil|PixelBarrel_BmI|12.98|2017-09-26 10:34:47.316000|TK_PLCS/Pixel/crate04/module09/channel_read_02
PixelBarrel BmI Sector 4 POH 1R Detector|TSil|PixelBarrel_BmI|12.47|2017-09-26 10:36:47.290000|TK_PLCS/Pixel/crate04/module09/channel_read_02
PixelBarrel BmI Sector 4 POH 1R Detector|TSil|PixelBarrel_BmI|12.98|2017-09-26 10:41:37.187000|TK_PLCS/Pixel/crate04/module09/channel_read_02
PixelBarrel BmI Sector 4 POH 1R Detector|TSil|PixelBarrel_BmI|12.47|2017-09-26 10:49:19.691000|TK_PLCS/Pixel/crate04/module09/channel_read_02
PixelBarrel BmI Sector 4 POH 1R Detector|TSil|PixelBarrel_BmI|11.96|2017-09-26 10:51:34.703000|TK_PLCS/Pixel/crate04/module09/channel_read_02
PixelBarrel BmI Sector 4 POH 1R Detector|TSil|PixelBarrel_BmI|11.45|2017-09-26 10:54:39.700000|TK_PLCS/Pixel/crate04/module09/channel_read_02
PixelBarrel BmI Sector 4 POH 1R Detector|TSil|PixelBarrel_BmI|10.94|2017-09-26 10:59:57.189000|TK_PLCS/Pixel/crate04/module09/channel_read_02
PixelBarrel BmO Sector 5 POH 1R Detector|TSil|PixelBarrel_BmO|9.84|2017-09-26 10:33:57.179000|TK_PLCS/Pixel/crate04/module11/channel_read_02
PixelBarrel BmO Sector 5 POH 1R Detector|TSil|PixelBarrel_BmO|9.33|2017-09-26 10:36:22.206000|TK_PLCS/Pixel/crate04/module11/channel_read_02
PixelBarrel BmO Sector 5 POH 1R Detector|TSil|PixelBarrel_BmO|8.81|2017-09-26 10:51:27.199000|TK_PLCS/Pixel/crate04/module11/channel_read_02
PixelBarrel BmO Sector 5 POH 1R Detector|TSil|PixelBarrel_BmO|8.3|2017-09-26 10:55:37.177000|TK_PLCS/Pixel/crate04/module11/channel_read_02
PixelBarrel BpO Sector 1 POH 4R Detector|TSil|PixelBarrel_BpO|20.56|2017-09-26 10:13:27.190000|TK_PLCS/Pixel/crate04/module07/channel_read_08
PixelBarrel BpO Sector 1 POH 4R Detector|TSil|PixelBarrel_BpO|20.04|2017-09-26 10:32:37.202000|TK_PLCS/Pixel/crate04/module07/channel_read_08
PixelBarrel BpO Sector 1 POH 4R Detector|TSil|PixelBarrel_BpO|19.53|2017-09-26 10:34:05.587000|TK_PLCS/Pixel/crate04/module07/channel_read_08
PixelBarrel BpO Sector 1 POH 4R Detector|TSil|PixelBarrel_BpO|19.01|2017-09-26 10:35:49.697000|TK_PLCS/Pixel/crate04/module07/channel_read_08
PixelBarrel BpO Sector 1 POH 4R Detector|TSil|PixelBarrel_BpO|18.5|2017-09-26 10:37:52.198000|TK_PLCS/Pixel/crate04/module07/channel_read_08
PixelBarrel BpO Sector 1 POH 4R Detector|TSil|PixelBarrel_BpO|19.01|2017-09-26 10:41:49.698000|TK_PLCS/Pixel/crate04/module07/channel_read_08
PixelBarrel BpO Sector 1 POH 4R Detector|TSil|PixelBarrel_BpO|18.5|2017-09-26 10:49:32.186000|TK_PLCS/Pixel/crate04/module07/channel_read_08
PixelBarrel BpO Sector 1 POH 4R Detector|TSil|PixelBarrel_BpO|17.99|2017-09-26 10:51:49.694000|TK_PLCS/Pixel/crate04/module07/channel_read_08
PixelBarrel BpO Sector 1 POH 4R Detector|TSil|PixelBarrel_BpO|17.48|2017-09-26 10:54:34.679000|TK_PLCS/Pixel/crate04/module07/channel_read_08
PixelBarrel BpO Sector 1 POH 4R Detector|TSil|PixelBarrel_BpO|16.97|2017-09-26 10:58:29.688000|TK_PLCS/Pixel/crate04/module07/channel_read_08
PixelBarrel BpO Sector 2 POH 3R Detector|TSil|PixelBarrel_BpO|21.22|2017-09-26 10:00:57.207000|TK_PLCS/Pixel/crate04/module07/channel_read_06
PixelBarrel BpO Sector 2 POH 3R Detector|TSil|PixelBarrel_BpO|20.7|2017-09-26 10:31:49.702000|TK_PLCS/Pixel/crate04/module07/channel_read_06
PixelBarrel BpO Sector 2 POH 3R Detector|TSil|PixelBarrel_BpO|20.19|2017-09-26 10:32:47.295000|TK_PLCS/Pixel/crate04/module07/channel_read_06
PixelBarrel BpO Sector 2 POH 3R Detector|TSil|PixelBarrel_BpO|19.67|2017-09-26 10:33:59.691000|TK_PLCS/Pixel/crate04/module07/channel_read_06
PixelBarrel BpO Sector 2 POH 3R Detector|TSil|PixelBarrel_BpO|19.16|2017-09-26 10:35:27.203000|TK_PLCS/Pixel/crate04/module07/channel_read_06
PixelBarrel BpO Sector 2 POH 3R Detector|TSil|PixelBarrel_BpO|18.65|2017-09-26 10:37:17.303000|TK_PLCS/Pixel/crate04/module07/channel_read_06
PixelBarrel BpO Sector 2 POH 3R Detector|TSil|PixelBarrel_BpO|19.16|2017-09-26 10:41:07.190000|TK_PLCS/Pixel/crate04/module07/channel_read_06
PixelBarrel BpO Sector 2 POH 3R Detector|TSil|PixelBarrel_BpO|19.67|2017-09-26 10:46:29.690000|TK_PLCS/Pixel/crate04/module07/channel_read_06
PixelBarrel BpO Sector 2 POH 3R Detector|TSil|PixelBarrel_BpO|19.16|2017-09-26 10:48:04.689000|TK_PLCS/Pixel/crate04/module07/channel_read_06
PixelBarrel BpO Sector 2 POH 3R Detector|TSil|PixelBarrel_BpO|18.65|2017-09-26 10:49:37.178000|TK_PLCS/Pixel/crate04/module07/channel_read_06
PixelBarrel BpO Sector 2 POH 3R Detector|TSil|PixelBarrel_BpO|18.14|2017-09-26 10:51:34.703000|TK_PLCS/Pixel/crate04/module07/channel_read_06
PixelBarrel BpO Sector 2 POH 3R Detector|TSil|PixelBarrel_BpO|17.62|2017-09-26 10:54:09.698000|TK_PLCS/Pixel/crate04/module07/channel_read_06
PixelBarrel BpO Sector 2 POH 3R Detector|TSil|PixelBarrel_BpO|17.11|2017-09-26 10:57:47.305000|TK_PLCS/Pixel/crate04/module07/channel_read_06
PixelBarrel BpO Sector 3 POH 2R Detector|TSil|PixelBarrel_BpO|16.87|2017-09-26 10:10:49.684000|TK_PLCS/Pixel/crate04/module07/channel_read_04
PixelBarrel BpO Sector 3 POH 2R Detector|TSil|PixelBarrel_BpO|16.36|2017-09-26 10:32:04.693000|TK_PLCS/Pixel/crate04/module07/channel_read_04
PixelBarrel BpO Sector 3 POH 2R Detector|TSil|PixelBarrel_BpO|15.84|2017-09-26 10:33:12.207000|TK_PLCS/Pixel/crate04/module07/channel_read_04
PixelBarrel BpO Sector 3 POH 2R Detector|TSil|PixelBarrel_BpO|15.33|2017-09-26 10:34:39.703000|TK_PLCS/Pixel/crate04/module07/channel_read_04
PixelBarrel BpO Sector 3 POH 2R Detector|TSil|PixelBarrel_BpO|14.81|2017-09-26 10:36:27.198000|TK_PLCS/Pixel/crate04/module07/channel_read_04
PixelBarrel BpO Sector 3 POH 2R Detector|TSil|PixelBarrel_BpO|15.33|2017-09-26 10:43:04.684000|TK_PLCS/Pixel/crate04/module07/channel_read_04
PixelBarrel BpO Sector 3 POH 2R Detector|TSil|PixelBarrel_BpO|14.81|2017-09-26 10:48:59.692000|TK_PLCS/Pixel/crate04/module07/channel_read_04
PixelBarrel BpO Sector 3 POH 2R Detector|TSil|PixelBarrel_BpO|14.3|2017-09-26 10:50:54.691000|TK_PLCS/Pixel/crate04/module07/channel_read_04
PixelBarrel BpO Sector 3 POH 2R Detector|TSil|PixelBarrel_BpO|13.79|2017-09-26 10:53:42.191000|TK_PLCS/Pixel/crate04/module07/channel_read_04
PixelBarrel BpO Sector 3 POH 2R Detector|TSil|PixelBarrel_BpO|13.28|2017-09-26 10:57:42.190000|TK_PLCS/Pixel/crate04/module07/channel_read_04
PixelBarrel BpO Sector 4 POH 1R Detector|TSil|PixelBarrel_BpO|7.91|2017-09-26 10:32:42.178000|TK_PLCS/Pixel/crate04/module07/channel_read_02
PixelBarrel BpO Sector 4 POH 1R Detector|TSil|PixelBarrel_BpO|7.4|2017-09-26 10:35:07.189000|TK_PLCS/Pixel/crate04/module07/channel_read_02
PixelBarrel BpO Sector 4 POH 1R Detector|TSil|PixelBarrel_BpO|6.89|2017-09-26 10:49:54.696000|TK_PLCS/Pixel/crate04/module07/channel_read_02
PixelBarrel BpO Sector 4 POH 1R Detector|TSil|PixelBarrel_BpO|6.38|2017-09-26 10:53:52.186000|TK_PLCS/Pixel/crate04/module07/channel_read_02
PixelBarrel BpO Sector 4 POH 1R Detector|TSil|PixelBarrel_BpO|5.87|2017-09-26 10:59:52.182000|TK_PLCS/Pixel/crate04/module07/channel_read_02
PixelBarrel BpO Sector 5 POH 1L Detector|TSil|PixelBarrel_BpO|13.76|2017-09-26 10:10:17.315000|TK_PLCS/Pixel/crate05/module07/channel_read_02
PixelBarrel BpO Sector 5 POH 1L Detector|TSil|PixelBarrel_BpO|13.24|2017-09-26 10:31:54.678000|TK_PLCS/Pixel/crate05/module07/channel_read_02
PixelBarrel BpO Sector 5 POH 1L Detector|TSil|PixelBarrel_BpO|12.73|2017-09-26 10:32:57.200000|TK_PLCS/Pixel/crate05/module07/channel_read_02
PixelBarrel BpO Sector 5 POH 1L Detector|TSil|PixelBarrel_BpO|12.21|2017-09-26 10:34:22.185000|TK_PLCS/Pixel/crate05/module07/channel_read_02
PixelBarrel BpO Sector 5 POH 1L Detector|TSil|PixelBarrel_BpO|11.68|2017-09-26 10:36:12.207000|TK_PLCS/Pixel/crate05/module07/channel_read_02
PixelBarrel BpO Sector 5 POH 1L Detector|TSil|PixelBarrel_BpO|12.19|2017-09-26 10:42:59.707000|TK_PLCS/Pixel/crate05/module07/channel_read_02
PixelBarrel BpO Sector 5 POH 1L Detector|TSil|PixelBarrel_BpO|11.68|2017-09-26 10:48:54.685000|TK_PLCS/Pixel/crate05/module07/channel_read_02
PixelBarrel BpO Sector 5 POH 1L Detector|TSil|PixelBarrel_BpO|11.16|2017-09-26 10:50:57.202000|TK_PLCS/Pixel/crate05/module07/channel_read_02
PixelBarrel BpO Sector 5 POH 1L Detector|TSil|PixelBarrel_BpO|10.64|2017-09-26 10:53:57.192000|TK_PLCS/Pixel/crate05/module07/channel_read_02
PixelBarrel BpO Sector 5 POH 1L Detector|TSil|PixelBarrel_BpO|10.12|2017-09-26 10:58:54.706000|TK_PLCS/Pixel/crate05/module07/channel_read_02
PixelBarrel BpO Sector 6 POH 2L Detector|TSil|PixelBarrel_BpO|16.17|2017-09-26 10:03:27.179000|TK_PLCS/Pixel/crate05/module07/channel_read_04
PixelBarrel BpO Sector 6 POH 2L Detector|TSil|PixelBarrel_BpO|15.67|2017-09-26 10:31:47.300000|TK_PLCS/Pixel/crate05/module07/channel_read_04
PixelBarrel BpO Sector 6 POH 2L Detector|TSil|PixelBarrel_BpO|15.15|2017-09-26 10:32:47.295000|TK_PLCS/Pixel/crate05/module07/channel_read_04
PixelBarrel BpO Sector 6 POH 2L Detector|TSil|PixelBarrel_BpO|14.63|2017-09-26 10:34:05.587000|TK_PLCS/Pixel/crate05/module07/channel_read_04
PixelBarrel BpO Sector 6 POH 2L Detector|TSil|PixelBarrel_BpO|14.11|2017-09-26 10:35:44.705000|TK_PLCS/Pixel/crate05/module07/channel_read_04
PixelBarrel BpO Sector 6 POH 2L Detector|TSil|PixelBarrel_BpO|13.58|2017-09-26 10:37:44.680000|TK_PLCS/Pixel/crate05/module07/channel_read_04
PixelBarrel BpO Sector 6 POH 2L Detector|TSil|PixelBarrel_BpO|14.11|2017-09-26 10:40:34.696000|TK_PLCS/Pixel/crate05/module07/channel_read_04
PixelBarrel BpO Sector 6 POH 2L Detector|TSil|PixelBarrel_BpO|14.63|2017-09-26 10:45:52.204000|TK_PLCS/Pixel/crate05/module07/channel_read_04
PixelBarrel BpO Sector 6 POH 2L Detector|TSil|PixelBarrel_BpO|14.11|2017-09-26 10:48:24.688000|TK_PLCS/Pixel/crate05/module07/channel_read_04
PixelBarrel BpO Sector 6 POH 2L Detector|TSil|PixelBarrel_BpO|13.58|2017-09-26 10:50:14.694000|TK_PLCS/Pixel/crate05/module07/channel_read_04
PixelBarrel BpO Sector 6 POH 2L Detector|TSil|PixelBarrel_BpO|13.06|2017-09-26 10:52:42.185000|TK_PLCS/Pixel/crate05/module07/channel_read_04
PixelBarrel BpO Sector 6 POH 2L Detector|TSil|PixelBarrel_BpO|12.54|2017-09-26 10:56:07.195000|TK_PLCS/Pixel/crate05/module07/channel_read_04
PixelBarrel BpO Sector 7 POH 3L Detector|TSil|PixelBarrel_BpO|16.15|2017-09-26 10:12:47.287000|TK_PLCS/Pixel/crate05/module07/channel_read_06
PixelBarrel BpO Sector 7 POH 3L Detector|TSil|PixelBarrel_BpO|15.63|2017-09-26 10:32:22.195000|TK_PLCS/Pixel/crate05/module07/channel_read_06
PixelBarrel BpO Sector 7 POH 3L Detector|TSil|PixelBarrel_BpO|15.1|2017-09-26 10:33:32.189000|TK_PLCS/Pixel/crate05/module07/channel_read_06
PixelBarrel BpO Sector 7 POH 3L Detector|TSil|PixelBarrel_BpO|14.58|2017-09-26 10:34:59.686000|TK_PLCS/Pixel/crate05/module07/channel_read_06
PixelBarrel BpO Sector 7 POH 3L Detector|TSil|PixelBarrel_BpO|14.06|2017-09-26 10:36:47.290000|TK_PLCS/Pixel/crate05/module07/channel_read_06
PixelBarrel BpO Sector 7 POH 3L Detector|TSil|PixelBarrel_BpO|14.58|2017-09-26 10:41:52.178000|TK_PLCS/Pixel/crate05/module07/channel_read_06
PixelBarrel BpO Sector 7 POH 3L Detector|TSil|PixelBarrel_BpO|14.06|2017-09-26 10:49:32.186000|TK_PLCS/Pixel/crate05/module07/channel_read_06
PixelBarrel BpO Sector 7 POH 3L Detector|TSil|PixelBarrel_BpO|13.54|2017-09-26 10:51:39.679000|TK_PLCS/Pixel/crate05/module07/channel_read_06
PixelBarrel BpO Sector 7 POH 3L Detector|TSil|PixelBarrel_BpO|13.02|2017-09-26 10:54:32.199000|TK_PLCS/Pixel/crate05/module07/channel_read_06
PixelBarrel BpO Sector 7 POH 3L Detector|TSil|PixelBarrel_BpO|12.51|2017-09-26 10:58:52.195000|TK_PLCS/Pixel/crate05/module07/channel_read_06
PixelBarrel BpO Sector 8 POH 4L Detector|TSil|PixelBarrel_BpO|12.38|2017-09-26 10:12:44.682000|TK_PLCS/Pixel/crate05/module07/channel_read_08
PixelBarrel BpO Sector 8 POH 4L Detector|TSil|PixelBarrel_BpO|11.86|2017-09-26 10:32:32.179000|TK_PLCS/Pixel/crate05/module07/channel_read_08
PixelBarrel BpO Sector 8 POH 4L Detector|TSil|PixelBarrel_BpO|11.34|2017-09-26 10:34:07.179000|TK_PLCS/Pixel/crate05/module07/channel_read_08
PixelBarrel BpO Sector 8 POH 4L Detector|TSil|PixelBarrel_BpO|10.82|2017-09-26 10:36:02.192000|TK_PLCS/Pixel/crate05/module07/channel_read_08
PixelBarrel BpO Sector 8 POH 4L Detector|TSil|PixelBarrel_BpO|11.34|2017-09-26 10:45:17.309000|TK_PLCS/Pixel/crate05/module07/channel_read_08
PixelBarrel BpO Sector 8 POH 4L Detector|TSil|PixelBarrel_BpO|10.82|2017-09-26 10:48:49.678000|TK_PLCS/Pixel/crate05/module07/channel_read_08
PixelBarrel BpO Sector 8 POH 4L Detector|TSil|PixelBarrel_BpO|10.29|2017-09-26 10:51:09.681000|TK_PLCS/Pixel/crate05/module07/channel_read_08
PixelBarrel BpO Sector 8 POH 4L Detector|TSil|PixelBarrel_BpO|9.77|2017-09-26 10:54:27.194000|TK_PLCS/Pixel/crate05/module07/channel_read_08
PixelBarrel BpO Sector 8 POH 4L Detector|TSil|PixelBarrel_BpO|9.25|2017-09-26 10:59:54.693000|TK_PLCS/Pixel/crate05/module07/channel_read_08
PixelBarrel BmI Sector 3 POH 2R Detector|TSil|PixelBarrel_BmI|18.96|2017-09-26 10:14:29.697000|TK_PLCS/Pixel/crate04/module09/channel_read_04
PixelBarrel BmI Sector 3 POH 2R Detector|TSil|PixelBarrel_BmI|18.45|2017-09-26 10:32:49.697000|TK_PLCS/Pixel/crate04/module09/channel_read_04
PixelBarrel BmI Sector 3 POH 2R Detector|TSil|PixelBarrel_BmI|17.94|2017-09-26 10:34:09.690000|TK_PLCS/Pixel/crate04/module09/channel_read_04
PixelBarrel BmI Sector 3 POH 2R Detector|TSil|PixelBarrel_BmI|17.43|2017-09-26 10:35:42.178000|TK_PLCS/Pixel/crate04/module09/channel_read_04
PixelBarrel BmI Sector 3 POH 2R Detector|TSil|PixelBarrel_BmI|16.92|2017-09-26 10:37:37.192000|TK_PLCS/Pixel/crate04/module09/channel_read_04
PixelBarrel BmI Sector 3 POH 2R Detector|TSil|PixelBarrel_BmI|17.43|2017-09-26 10:41:07.190000|TK_PLCS/Pixel/crate04/module09/channel_read_04
PixelBarrel BmI Sector 3 POH 2R Detector|TSil|PixelBarrel_BmI|16.92|2017-09-26 10:49:49.704000|TK_PLCS/Pixel/crate04/module09/channel_read_04
PixelBarrel BmI Sector 3 POH 2R Detector|TSil|PixelBarrel_BmI|16.41|2017-09-26 10:52:04.685000|TK_PLCS/Pixel/crate04/module09/channel_read_04
PixelBarrel BmI Sector 3 POH 2R Detector|TSil|PixelBarrel_BmI|15.89|2017-09-26 10:54:54.701000|TK_PLCS/Pixel/crate04/module09/channel_read_04
PixelBarrel BmI Sector 3 POH 2R Detector|TSil|PixelBarrel_BmI|15.37|2017-09-26 10:59:07.293000|TK_PLCS/Pixel/crate04/module09/channel_read_04
PixelBarrel BmO Sector 6 POH 2R Detector|TSil|PixelBarrel_BmO|17.04|2017-09-26 10:10:14.679000|TK_PLCS/Pixel/crate04/module11/channel_read_04
PixelBarrel BmO Sector 6 POH 2R Detector|TSil|PixelBarrel_BmO|16.5|2017-09-26 10:31:42.199000|TK_PLCS/Pixel/crate04/module11/channel_read_04
PixelBarrel BmO Sector 6 POH 2R Detector|TSil|PixelBarrel_BmO|15.99|2017-09-26 10:32:32.179000|TK_PLCS/Pixel/crate04/module11/channel_read_04
PixelBarrel BmO Sector 6 POH 2R Detector|TSil|PixelBarrel_BmO|15.47|2017-09-26 10:33:42.188000|TK_PLCS/Pixel/crate04/module11/channel_read_04
PixelBarrel BmO Sector 6 POH 2R Detector|TSil|PixelBarrel_BmO|14.96|2017-09-26 10:35:12.181000|TK_PLCS/Pixel/crate04/module11/channel_read_04
PixelBarrel BmO Sector 6 POH 2R Detector|TSil|PixelBarrel_BmO|14.45|2017-09-26 10:37:02.203000|TK_PLCS/Pixel/crate04/module11/channel_read_04
PixelBarrel BmO Sector 6 POH 2R Detector|TSil|PixelBarrel_BmO|14.96|2017-09-26 10:40:02.187000|TK_PLCS/Pixel/crate04/module11/channel_read_04
PixelBarrel BmO Sector 6 POH 2R Detector|TSil|PixelBarrel_BmO|15.47|2017-09-26 10:44:32.180000|TK_PLCS/Pixel/crate04/module11/channel_read_04
PixelBarrel BmO Sector 6 POH 2R Detector|TSil|PixelBarrel_BmO|14.96|2017-09-26 10:48:12.193000|TK_PLCS/Pixel/crate04/module11/channel_read_04
PixelBarrel BmO Sector 6 POH 2R Detector|TSil|PixelBarrel_BmO|14.45|2017-09-26 10:49:42.201000|TK_PLCS/Pixel/crate04/module11/channel_read_04
PixelBarrel BmO Sector 6 POH 2R Detector|TSil|PixelBarrel_BmO|13.93|2017-09-26 10:51:54.701000|TK_PLCS/Pixel/crate04/module11/channel_read_04
PixelBarrel BmO Sector 6 POH 2R Detector|TSil|PixelBarrel_BmO|13.42|2017-09-26 10:55:09.702000|TK_PLCS/Pixel/crate04/module11/channel_read_04
PixelBarrel BmI Sector 2 POH 3R Detector|TSil|PixelBarrel_BmI|21.51|2017-09-26 10:12:12.189000|TK_PLCS/Pixel/crate04/module09/channel_read_06
PixelBarrel BmI Sector 2 POH 3R Detector|TSil|PixelBarrel_BmI|21.0|2017-09-26 10:32:22.195000|TK_PLCS/Pixel/crate04/module09/channel_read_06
PixelBarrel BmI Sector 2 POH 3R Detector|TSil|PixelBarrel_BmI|20.48|2017-09-26 10:33:34.701000|TK_PLCS/Pixel/crate04/module09/channel_read_06
PixelBarrel BmI Sector 2 POH 3R Detector|TSil|PixelBarrel_BmI|19.97|2017-09-26 10:35:02.182000|TK_PLCS/Pixel/crate04/module09/channel_read_06
PixelBarrel BmI Sector 2 POH 3R Detector|TSil|PixelBarrel_BmI|19.45|2017-09-26 10:36:42.189000|TK_PLCS/Pixel/crate04/module09/channel_read_06
PixelBarrel BmI Sector 2 POH 3R Detector|TSil|PixelBarrel_BmI|19.97|2017-09-26 10:43:14.698000|TK_PLCS/Pixel/crate04/module09/channel_read_06
PixelBarrel BmI Sector 2 POH 3R Detector|TSil|PixelBarrel_BmI|19.45|2017-09-26 10:48:52.205000|TK_PLCS/Pixel/crate04/module09/channel_read_06
PixelBarrel BmI Sector 2 POH 3R Detector|TSil|PixelBarrel_BmI|18.94|2017-09-26 10:50:44.691000|TK_PLCS/Pixel/crate04/module09/channel_read_06
PixelBarrel BmI Sector 2 POH 3R Detector|TSil|PixelBarrel_BmI|18.43|2017-09-26 10:53:04.695000|TK_PLCS/Pixel/crate04/module09/channel_read_06
PixelBarrel BmI Sector 2 POH 3R Detector|TSil|PixelBarrel_BmI|17.92|2017-09-26 10:56:14.695000|TK_PLCS/Pixel/crate04/module09/channel_read_06
PixelBarrel BmO Sector 7 POH 3R Detector|TSil|PixelBarrel_BmO|15.69|2017-09-26 10:11:19.681000|TK_PLCS/Pixel/crate04/module11/channel_read_06
PixelBarrel BmO Sector 7 POH 3R Detector|TSil|PixelBarrel_BmO|15.18|2017-09-26 10:31:59.685000|TK_PLCS/Pixel/crate04/module11/channel_read_06
PixelBarrel BmO Sector 7 POH 3R Detector|TSil|PixelBarrel_BmO|14.66|2017-09-26 10:33:04.703000|TK_PLCS/Pixel/crate04/module11/channel_read_06
PixelBarrel BmO Sector 7 POH 3R Detector|TSil|PixelBarrel_BmO|14.15|2017-09-26 10:34:27.192000|TK_PLCS/Pixel/crate04/module11/channel_read_06
PixelBarrel BmO Sector 7 POH 3R Detector|TSil|PixelBarrel_BmO|13.64|2017-09-26 10:36:07.184000|TK_PLCS/Pixel/crate04/module11/channel_read_06
PixelBarrel BmO Sector 7 POH 3R Detector|TSil|PixelBarrel_BmO|14.15|2017-09-26 10:43:02.188000|TK_PLCS/Pixel/crate04/module11/channel_read_06
PixelBarrel BmO Sector 7 POH 3R Detector|TSil|PixelBarrel_BmO|13.64|2017-09-26 10:49:02.188000|TK_PLCS/Pixel/crate04/module11/channel_read_06
PixelBarrel BmO Sector 7 POH 3R Detector|TSil|PixelBarrel_BmO|13.13|2017-09-26 10:50:59.698000|TK_PLCS/Pixel/crate04/module11/channel_read_06
PixelBarrel BmO Sector 7 POH 3R Detector|TSil|PixelBarrel_BmO|12.62|2017-09-26 10:53:44.701000|TK_PLCS/Pixel/crate04/module11/channel_read_06
PixelBarrel BmO Sector 7 POH 3R Detector|TSil|PixelBarrel_BmO|12.11|2017-09-26 10:57:44.701000|TK_PLCS/Pixel/crate04/module11/channel_read_06
