name,probe_type,fsm_part,value_converted,change_date,datapoint_name
"PixelEndcap BpI DCDC 3A",TAir,PixelEndCap_BpI,-5.92,"2017-08-07 03:37:25.676000",TK_PLCS/Pixel/crate02/module04/channel_read_01
"PixelEndcap BpI DCDC 3B",TAir,PixelEndCap_BpI,-9.63,"2017-08-07 03:35:50.667000",TK_PLCS/Pixel/crate02/module04/channel_read_02
"PixelEndcap BpI Disk 3O",TSil,PixelEndCap_BpI,-16.29,"2017-08-07 03:37:30.662000",TK_PLCS/Pixel/crate02/module04/channel_read_03
"PixelEndcap BpI Disk 3I",TSil,PixelEndCap_BpI,-16.0,"2017-08-07 03:37:18.267000",TK_PLCS/Pixel/crate02/module04/channel_read_04
"PixelEndcap BpI Disk 2O",TSil,PixelEndCap_BpI,-16.31,"2017-08-07 02:37:30.680000",TK_PLCS/Pixel/crate02/module04/channel_read_05
"PixelEndcap BpI Disk 2I",TSil,PixelEndCap_BpI,-16.36,"2017-08-07 03:37:38.162000",TK_PLCS/Pixel/crate02/module04/channel_read_06
"PixelEndcap BpI DCDC 3C",TAir,PixelEndCap_BpI,-8.8,"2017-08-07 03:38:53.174000",TK_PLCS/Pixel/crate02/module05/channel_read_01
"PixelEndcap BpI DCDC 3D",TAir,PixelEndCap_BpI,-6.16,"2017-08-07 03:38:48.258000",TK_PLCS/Pixel/crate02/module05/channel_read_02
"PixelEndcap BpI 1I_SF",TLiq,PixelEndCap_BpI,-15.76,"2017-08-07 03:42:28.161000",TK_PLCS/Pixel/crate02/module05/channel_read_06
"PixelEndcap BpO DCDC 3A",TAir,PixelEndCap_BpO,-8.24,"2017-08-07 03:37:40.669000",TK_PLCS/Pixel/crate02/module06/channel_read_01
"PixelEndcap BpO DCDC 3B",TAir,PixelEndCap_BpO,-7.72,"2017-08-07 03:37:00.664000",TK_PLCS/Pixel/crate02/module06/channel_read_02
"PixelEndcap BpO Disk 3O",TSil,PixelEndCap_BpO,-15.57,"2017-08-07 03:37:33.162000",TK_PLCS/Pixel/crate02/module06/channel_read_03
"PixelEndcap BpO Disk 3I",TSil,PixelEndCap_BpO,-15.57,"2017-08-07 03:38:50.660000",TK_PLCS/Pixel/crate02/module06/channel_read_04
"PixelEndcap BpO Disk 2O",TSil,PixelEndCap_BpO,-15.54,"2017-08-07 03:40:10.668000",TK_PLCS/Pixel/crate02/module06/channel_read_05
"PixelEndcap BpO Disk 2I",TSil,PixelEndCap_BpO,-16.16,"2017-08-07 03:37:23.169000",TK_PLCS/Pixel/crate02/module06/channel_read_06
"PixelEndcap BpO Disk 1O",TSil,PixelEndCap_BpO,-15.36,"2017-08-07 03:37:33.162000",TK_PLCS/Pixel/crate02/module06/channel_read_07
"PixelEndcap BpO DCDC 3C",TAir,PixelEndCap_BpO,-7.41,"2017-08-07 03:35:53.161000",TK_PLCS/Pixel/crate02/module07/channel_read_01
"PixelEndcap BpO DCDC 3D",TAir,PixelEndCap_BpO,-9.9,"2017-08-07 03:36:20.668000",TK_PLCS/Pixel/crate02/module07/channel_read_02
"PixelEndcap BmI DCDC 3A",TAir,PixelEndCap_BmI,-9.41,"2017-08-07 03:35:45.667000",TK_PLCS/Pixel/crate02/module08/channel_read_01
"PixelEndcap BmI DCDC 3B",TAir,PixelEndCap_BmI,-6.72,"2017-08-07 02:59:28.169000",TK_PLCS/Pixel/crate02/module08/channel_read_02
"PixelEndcap BmI Disk 3I",TSil,PixelEndCap_BmI,-15.4,"2017-08-07 03:37:05.664000",TK_PLCS/Pixel/crate02/module08/channel_read_04
"PixelEndcap BmI Disk 2O",TSil,PixelEndCap_BmI,-16.13,"2017-08-07 02:37:18.392000",TK_PLCS/Pixel/crate02/module08/channel_read_05
"PixelEndcap BmI Disk 2I",TSil,PixelEndCap_BmI,-14.77,"2017-08-07 02:58:03.173000",TK_PLCS/Pixel/crate02/module08/channel_read_06
"PixelEndcap BmI Disk 1O",TSil,PixelEndCap_BmI,-15.57,"2017-08-07 02:58:05.662000",TK_PLCS/Pixel/crate02/module08/channel_read_07
"PixelEndcap BmI DCDC 3C",TAir,PixelEndCap_BmI,-7.47,"2017-08-07 02:58:20.668000",TK_PLCS/Pixel/crate02/module09/channel_read_01
"PixelEndcap BmI DCDC 3D",TAir,PixelEndCap_BmI,-9.53,"2017-08-07 03:37:50.664000",TK_PLCS/Pixel/crate02/module09/channel_read_02
"PixelEndcap BmO DCDC 3A",TAir,PixelEndCap_BmO,-6.7,"2017-08-07 03:39:58.173000",TK_PLCS/Pixel/crate02/module10/channel_read_01
"PixelEndcap BmO DCDC 3B",TAir,PixelEndCap_BmO,-9.51,"2017-08-07 03:38:35.666000",TK_PLCS/Pixel/crate02/module10/channel_read_02
"PixelEndcap BmO Disk 3O",TSil,PixelEndCap_BmO,-14.52,"2017-08-07 03:37:15.661000",TK_PLCS/Pixel/crate02/module10/channel_read_03
"PixelEndcap BmO Disk 3I",TSil,PixelEndCap_BmO,-15.78,"2017-08-07 03:35:10.676000",TK_PLCS/Pixel/crate02/module10/channel_read_04
"PixelEndcap BmO Disk 2O",TSil,PixelEndCap_BmO,-15.8,"2017-08-07 02:36:20.672000",TK_PLCS/Pixel/crate02/module10/channel_read_05
"PixelEndcap BmO Disk 2I",TSil,PixelEndCap_BmO,-16.26,"2017-08-07 03:36:15.669000",TK_PLCS/Pixel/crate02/module10/channel_read_06
"PixelEndcap BmO Disk 1O",TSil,PixelEndCap_BmO,-15.78,"2017-08-07 02:37:13.173000",TK_PLCS/Pixel/crate02/module10/channel_read_07
"PixelEndcap BmO DCDC 3C",TAir,PixelEndCap_BmO,-6.43,"2017-08-07 03:00:13.171000",TK_PLCS/Pixel/crate02/module11/channel_read_01
"PixelEndcap BmO DCDC 3D",TAir,PixelEndCap_BmO,-8.78,"2017-08-07 03:36:25.668000",TK_PLCS/Pixel/crate02/module11/channel_read_02
"PixelEndcap BmO 1I_SF",TLiq,PixelEndCap_BmO,-16.89,"2017-08-07 03:41:40.665000",TK_PLCS/Pixel/crate02/module11/channel_read_06
"PixelEndcap BpI PC 1A",TAir,PixelEndCap_BpI,-9.67881944444,"2017-08-07 03:34:50.669000",TK_PLCS/Pixel/crate03/module04/channel_read_01
"PixelEndcap BpI PC 1B",TAir,PixelEndCap_BpI,-9.02777777778,"2017-08-07 03:35:28.173000",TK_PLCS/Pixel/crate03/module04/channel_read_02
"PixelEndcap BpI PC 1C",TAir,PixelEndCap_BpI,-10.1996527778,"2017-08-07 03:59:55.666000",TK_PLCS/Pixel/crate03/module04/channel_read_03
"PixelEndcap BpI PC 1D",TAir,PixelEndCap_BpI,-9.33159722222,"2017-08-07 03:35:38.160000",TK_PLCS/Pixel/crate03/module04/channel_read_04
"PixelEndcap BpI PC 2A",TAir,PixelEndCap_BpI,-9.765625,"2017-08-07 03:52:05.661000",TK_PLCS/Pixel/crate03/module04/channel_read_05
"PixelEndcap BpI PC 2B",TAir,PixelEndCap_BpI,-9.54861111111,"2017-08-07 03:54:13.166000",TK_PLCS/Pixel/crate03/module04/channel_read_06
"PixelEndcap BpI PC 2C",TAir,PixelEndCap_BpI,-11.5451388889,"2017-08-07 03:34:50.669000",TK_PLCS/Pixel/crate03/module04/channel_read_07
"PixelEndcap BpI PC 3A",TAir,PixelEndCap_BpI,-8.59375,"2017-08-07 03:35:53.161000",TK_PLCS/Pixel/crate03/module05/channel_read_01
"PixelEndcap BpI PC 3B",TAir,PixelEndCap_BpI,-9.89583333333,"2017-08-07 03:44:55.667000",TK_PLCS/Pixel/crate03/module05/channel_read_02
"PixelEndcap BpI PC 3C",TAir,PixelEndCap_BpI,-9.67881944444,"2017-08-07 03:35:38.160000",TK_PLCS/Pixel/crate03/module05/channel_read_03
"PixelEndcap BpI PC 3D",TAir,PixelEndCap_BpI,-9.15798611111,"2017-08-07 03:49:10.670000",TK_PLCS/Pixel/crate03/module05/channel_read_04
"PixelEndcap BpI Air",TAir,PixelEndCap_BpI,-7.94270833333,"2017-08-07 03:40:00.659000",TK_PLCS/Pixel/crate03/module05/channel_read_05
"PixelEndcap BpO PC 1A",TAir,PixelEndCap_BpO,-8.89756944444,"2017-08-07 03:35:33.174000",TK_PLCS/Pixel/crate03/module06/channel_read_01
"PixelEndcap BpO PC 1B",TAir,PixelEndCap_BpO,-10.3298611111,"2017-08-07 03:52:50.670000",TK_PLCS/Pixel/crate03/module06/channel_read_02
"PixelEndcap BpO PC 1C",TAir,PixelEndCap_BpO,-8.72395833333,"2017-08-07 03:35:18.282000",TK_PLCS/Pixel/crate03/module06/channel_read_03
"PixelEndcap BpO PC 1D",TAir,PixelEndCap_BpO,-10.4600694444,"2017-08-07 03:35:18.282000",TK_PLCS/Pixel/crate03/module06/channel_read_04
"PixelEndcap BpO PC 2A",TAir,PixelEndCap_BpO,-10.546875,"2017-08-07 03:37:28.176000",TK_PLCS/Pixel/crate03/module06/channel_read_05
"PixelEndcap BpO PC 2B",TAir,PixelEndCap_BpO,-10.8506944444,"2017-08-07 03:52:03.175000",TK_PLCS/Pixel/crate03/module06/channel_read_06
"PixelEndcap BpO PC 2C",TAir,PixelEndCap_BpO,-9.98263888889,"2017-08-07 03:48:58.170000",TK_PLCS/Pixel/crate03/module06/channel_read_07
"PixelEndcap BpO PC 3A",TAir,PixelEndCap_BpO,-7.59548611111,"2017-08-07 03:52:10.675000",TK_PLCS/Pixel/crate03/module07/channel_read_01
"PixelEndcap BpO PC 3B",TAir,PixelEndCap_BpO,-8.02951388889,"2017-08-07 03:35:03.169000",TK_PLCS/Pixel/crate03/module07/channel_read_02
"PixelEndcap BpO PC 3C",TAir,PixelEndCap_BpO,-9.24479166667,"2017-08-07 03:34:58.169000",TK_PLCS/Pixel/crate03/module07/channel_read_03
"PixelEndcap BpO PC 3D",TAir,PixelEndCap_BpO,-10.4600694444,"2017-08-07 03:35:33.174000",TK_PLCS/Pixel/crate03/module07/channel_read_04
"PixelEndcap BpO Air",TAir,PixelEndCap_BpO,-3.16840277778,"2017-08-07 03:38:35.666000",TK_PLCS/Pixel/crate03/module07/channel_read_05
"PixelEndcap BmI PC 1A",TAir,PixelEndCap_BmI,-9.02777777778,"2017-08-07 03:35:43.167000",TK_PLCS/Pixel/crate03/module08/channel_read_01
"PixelEndcap BmI PC 1B",TAir,PixelEndCap_BmI,-9.41840277778,"2017-08-07 03:35:05.675000",TK_PLCS/Pixel/crate03/module08/channel_read_02
"PixelEndcap BmI PC 1C",TAir,PixelEndCap_BmI,-10.0260416667,"2017-08-07 03:35:13.170000",TK_PLCS/Pixel/crate03/module08/channel_read_03
"PixelEndcap BmI PC 1D",TAir,PixelEndCap_BmI,-9.11458333333,"2017-08-07 03:51:53.175000",TK_PLCS/Pixel/crate03/module08/channel_read_04
"PixelEndcap BmI PC 2A",TAir,PixelEndCap_BmI,-8.55034722222,"2017-08-07 03:35:43.167000",TK_PLCS/Pixel/crate03/module08/channel_read_05
"PixelEndcap BmI PC 2B",TAir,PixelEndCap_BmI,-8.02951388889,"2017-08-07 03:54:40.668000",TK_PLCS/Pixel/crate03/module08/channel_read_06
"PixelEndcap BmI PC 2C",TAir,PixelEndCap_BmI,-9.54861111111,"2017-08-07 03:35:15.676000",TK_PLCS/Pixel/crate03/module08/channel_read_07
"PixelEndcap BmI PC 3A",TAir,PixelEndCap_BmI,-7.63888888889,"2017-08-07 03:35:45.667000",TK_PLCS/Pixel/crate03/module09/channel_read_01
"PixelEndcap BmI PC 3B",TAir,PixelEndCap_BmI,-8.68055555556,"2017-08-07 03:36:53.164000",TK_PLCS/Pixel/crate03/module09/channel_read_02
"PixelEndcap BmI PC 3C",TAir,PixelEndCap_BmI,-6.20659722222,"2017-08-07 03:35:10.676000",TK_PLCS/Pixel/crate03/module09/channel_read_03
"PixelEndcap BmI PC 3D",TAir,PixelEndCap_BmI,-9.98263888889,"2017-08-07 03:52:00.675000",TK_PLCS/Pixel/crate03/module09/channel_read_04
"PixelEndcap BmI Air",TAir,PixelEndCap_BmI,-4.77430555556,"2017-08-07 03:46:38.159000",TK_PLCS/Pixel/crate03/module09/channel_read_05
"PixelEndcap BmO PC 1A",TAir,PixelEndCap_BmO,-9.11458333333,"2017-08-07 03:47:53.161000",TK_PLCS/Pixel/crate03/module10/channel_read_01
"PixelEndcap BmO PC 1B",TAir,PixelEndCap_BmO,-9.11458333333,"2017-08-07 03:52:05.661000",TK_PLCS/Pixel/crate03/module10/channel_read_02
"PixelEndcap BmO PC 1C",TAir,PixelEndCap_BmO,-8.984375,"2017-08-07 03:49:23.167000",TK_PLCS/Pixel/crate03/module10/channel_read_03
"PixelEndcap BmO PC 1D",TAir,PixelEndCap_BmO,-8.37673611111,"2017-08-07 03:35:15.676000",TK_PLCS/Pixel/crate03/module10/channel_read_04
"PixelEndcap BmO PC 2A",TAir,PixelEndCap_BmO,-10.2430555556,"2017-08-07 03:56:23.165000",TK_PLCS/Pixel/crate03/module10/channel_read_05
"PixelEndcap BmO PC 2B",TAir,PixelEndCap_BmO,-9.33159722222,"2017-08-07 03:35:08.176000",TK_PLCS/Pixel/crate03/module10/channel_read_06
"PixelEndcap BmO PC 2C",TAir,PixelEndCap_BmO,-9.67881944444,"2017-08-07 03:58:15.672000",TK_PLCS/Pixel/crate03/module10/channel_read_07
"PixelEndcap BmO PC 3A",TAir,PixelEndCap_BmO,-8.11631944444,"2017-08-07 03:34:58.169000",TK_PLCS/Pixel/crate03/module11/channel_read_01
"PixelEndcap BmO PC 3B",TAir,PixelEndCap_BmO,-9.59201388889,"2017-08-07 03:36:30.669000",TK_PLCS/Pixel/crate03/module11/channel_read_02
"PixelEndcap BmO PC 3C",TAir,PixelEndCap_BmO,-8.81076388889,"2017-08-07 03:36:43.165000",TK_PLCS/Pixel/crate03/module11/channel_read_03
"PixelEndcap BmO PC 3D",TAir,PixelEndCap_BmO,-6.94444444444,"2017-08-07 03:35:13.170000",TK_PLCS/Pixel/crate03/module11/channel_read_04
"PixelEndcap BmO Air",TAir,PixelEndCap_BmO,-6.11979166667,"2017-08-07 03:06:10.664000",TK_PLCS/Pixel/crate03/module11/channel_read_05
"PixelBarrel BpI 6M L4D3PN",TLiq,PixelBarrel_BpI,-11.29,"2017-08-07 02:53:08.157000",TK_PLCS/Pixel/crate04/module04/channel_read_08
"PixelBarrel BpI 6R L4D3PN",TLiq,PixelBarrel_BpI,-10.75,"2017-08-07 02:51:53.163000",TK_PLCS/Pixel/crate04/module05/channel_read_01
"PixelBarrel BpI Sector 5 POH 1R Detector",TSil,PixelBarrel_BpI,18.61,"2017-08-07 03:43:45.670000",TK_PLCS/Pixel/crate04/module05/channel_read_02
"PixelBarrel BpI Sector 6 POH 2R Inp",TSil,PixelBarrel_BpI,-8.68,"2017-08-07 02:59:15.670000",TK_PLCS/Pixel/crate04/module05/channel_read_03
"PixelBarrel BpI Sector 6 POH 2R Detector",TSil,PixelBarrel_BpI,17.94,"2017-08-07 03:42:33.175000",TK_PLCS/Pixel/crate04/module05/channel_read_04
"PixelBarrel BpI Sector 7 POH 3R Inp",TSil,PixelBarrel_BpI,-8.31,"2017-08-07 02:59:03.165000",TK_PLCS/Pixel/crate04/module05/channel_read_05
"PixelBarrel BpI Sector 7 POH 3R Detector",TSil,PixelBarrel_BpI,16.72,"2017-08-07 03:42:28.161000",TK_PLCS/Pixel/crate04/module05/channel_read_06
"PixelBarrel BpI Sector 8 POH 4R Inp",TSil,PixelBarrel_BpI,-9.35,"2017-08-07 02:59:38.175000",TK_PLCS/Pixel/crate04/module05/channel_read_07
"PixelBarrel BpI Sector 8 POH 4R Detector",TSil,PixelBarrel_BpI,13.13,"2017-08-07 03:12:58.157000",TK_PLCS/Pixel/crate04/module05/channel_read_08
"PixelBarrel BpO 1I L4D2PF",TLiq,PixelBarrel_BpO,-10.38,"2017-08-07 02:51:25.667000",TK_PLCS/Pixel/crate04/module06/channel_read_07
"PixelBarrel BpO 1M L4D2PF",TLiq,PixelBarrel_BpO,-11.02,"2017-08-07 02:53:05.661000",TK_PLCS/Pixel/crate04/module06/channel_read_08
"PixelBarrel BpO 1R L4D2PF",TLiq,PixelBarrel_BpO,-13.34,"2017-08-07 02:53:08.157000",TK_PLCS/Pixel/crate04/module07/channel_read_01
"PixelBarrel BpO Sector 4 POH 1R Detector",TSil,PixelBarrel_BpO,8.69,"2017-08-07 03:21:30.669000",TK_PLCS/Pixel/crate04/module07/channel_read_02
"PixelBarrel BpO Sector 3 POH 2R Inp",TSil,PixelBarrel_BpO,-8.39,"2017-08-07 03:05:03.165000",TK_PLCS/Pixel/crate04/module07/channel_read_03
"PixelBarrel BpO Sector 3 POH 2R Detector",TSil,PixelBarrel_BpO,17.79,"2017-08-07 03:45:43.160000",TK_PLCS/Pixel/crate04/module07/channel_read_04
"PixelBarrel BpO Sector 2 POH 3R Inp",TSil,PixelBarrel_BpO,-7.23,"2017-08-07 03:05:33.158000",TK_PLCS/Pixel/crate04/module07/channel_read_05
"PixelBarrel BpO Sector 2 POH 3R Detector",TSil,PixelBarrel_BpO,22.19,"2017-08-07 03:42:05.669000",TK_PLCS/Pixel/crate04/module07/channel_read_06
"PixelBarrel BpO Sector 1 POH 4R Inp",TSil,PixelBarrel_BpO,-8.71,"2017-08-07 03:06:48.283000",TK_PLCS/Pixel/crate04/module07/channel_read_07
"PixelBarrel BpO Sector 1 POH 4R Detector",TSil,PixelBarrel_BpO,22.12,"2017-08-07 03:47:35.666000",TK_PLCS/Pixel/crate04/module07/channel_read_08
"PixelBarrel BmI 1I L4D2MN",TLiq,PixelBarrel_BmI,-10.38,"2017-08-07 02:51:48.268000",TK_PLCS/Pixel/crate04/module08/channel_read_07
"PixelBarrel BmI 1M L4D2MN",TLiq,PixelBarrel_BmI,-11.45,"2017-08-07 02:51:50.665000",TK_PLCS/Pixel/crate04/module08/channel_read_08
"PixelBarrel BmI 1R L4D2MN",TLiq,PixelBarrel_BmI,-13.8,"2017-08-07 02:53:15.665000",TK_PLCS/Pixel/crate04/module09/channel_read_01
"PixelBarrel BmI Sector 4 POH 1R Detector",TSil,PixelBarrel_BmI,15.33,"2017-08-07 03:40:58.158000",TK_PLCS/Pixel/crate04/module09/channel_read_02
"PixelBarrel BmI Sector 3 POH 2R Inp",TSil,PixelBarrel_BmI,-8.15,"2017-08-07 03:07:58.160000",TK_PLCS/Pixel/crate04/module09/channel_read_03
"PixelBarrel BmI Sector 3 POH 2R Detector",TSil,PixelBarrel_BmI,20.24,"2017-08-07 03:44:43.168000",TK_PLCS/Pixel/crate04/module09/channel_read_04
"PixelBarrel BmI Sector 2 POH 3R Inp",TSil,PixelBarrel_BmI,-7.13,"2017-08-07 03:01:53.162000",TK_PLCS/Pixel/crate04/module09/channel_read_05
"PixelBarrel BmI Sector 2 POH 3R Detector",TSil,PixelBarrel_BmI,23.1,"2017-08-07 03:51:08.177000",TK_PLCS/Pixel/crate04/module09/channel_read_06
"PixelBarrel BmI Sector 1 POH 4R Inp",TSil,PixelBarrel_BmI,-8.32,"2017-08-07 03:04:48.404000",TK_PLCS/Pixel/crate04/module09/channel_read_07
"PixelBarrel BmI Sector 1 POH 4R Detector",TSil,PixelBarrel_BmI,23.1,"2017-08-07 03:45:13.164000",TK_PLCS/Pixel/crate04/module09/channel_read_08
"PixelBarrel BmO 6I L4D3MF",TLiq,PixelBarrel_BmO,-11.89,"2017-08-07 02:54:28.163000",TK_PLCS/Pixel/crate04/module10/channel_read_07
"PixelBarrel BmO 6R L4D3MF",TLiq,PixelBarrel_BmO,-13.17,"2017-08-07 02:52:13.161000",TK_PLCS/Pixel/crate04/module11/channel_read_01
"PixelBarrel BmO Sector 5 POH 1R Detector",TSil,PixelBarrel_BmO,9.91,"2017-08-07 03:14:03.171000",TK_PLCS/Pixel/crate04/module11/channel_read_02
"PixelBarrel BmO Sector 6 POH 2R Inp",TSil,PixelBarrel_BmO,-9.07,"2017-08-07 02:59:35.667000",TK_PLCS/Pixel/crate04/module11/channel_read_03
"PixelBarrel BmO Sector 6 POH 2R Detector",TSil,PixelBarrel_BmO,17.11,"2017-08-07 03:40:48.262000",TK_PLCS/Pixel/crate04/module11/channel_read_04
"PixelBarrel BmO Sector 7 POH 3R Inp",TSil,PixelBarrel_BmO,-8.44,"2017-08-07 02:58:40.670000",TK_PLCS/Pixel/crate04/module11/channel_read_05
"PixelBarrel BmO Sector 7 POH 3R Detector",TSil,PixelBarrel_BmO,16.18,"2017-08-07 03:12:38.169000",TK_PLCS/Pixel/crate04/module11/channel_read_06
"PixelBarrel BmO Sector 8 POH 4R Inp",TSil,PixelBarrel_BmO,-10.06,"2017-08-07 03:01:13.175000",TK_PLCS/Pixel/crate04/module11/channel_read_07
"PixelBarrel BmO Sector 8 POH 4R Detector",TSil,PixelBarrel_BmO,12.47,"2017-08-07 03:14:08.157000",TK_PLCS/Pixel/crate04/module11/channel_read_08
"PixelBarrel BpI 1I L4D1PN",TLiq,PixelBarrel_BpI,-8.95,"2017-08-07 02:54:18.275000",TK_PLCS/Pixel/crate05/module04/channel_read_07
"PixelBarrel BpI 1M L4D1PN",TLiq,PixelBarrel_BpI,-10.5,"2017-08-07 02:51:55.672000",TK_PLCS/Pixel/crate05/module04/channel_read_08
"PixelBarrel BpI 1R L4D1PN",TLiq,PixelBarrel_BpI,-13.39,"2017-08-07 02:52:05.675000",TK_PLCS/Pixel/crate05/module05/channel_read_01
"PixelBarrel BpI Sector 4 POH 1L Detector",TSil,PixelBarrel_BpI,15.35,"2017-08-07 03:39:40.665000",TK_PLCS/Pixel/crate05/module05/channel_read_02
"PixelBarrel BpI Sector 3 POH 2L Inp",TSil,PixelBarrel_BpI,-7.93,"2017-08-07 02:59:30.664000",TK_PLCS/Pixel/crate05/module05/channel_read_03
"PixelBarrel BpI Sector 3 POH 2L Detector",TSil,PixelBarrel_BpI,20.19,"2017-08-07 03:42:20.668000",TK_PLCS/Pixel/crate05/module05/channel_read_04
"PixelBarrel BpI Sector 2 POH 3L Inp",TSil,PixelBarrel_BpI,-6.89,"2017-08-07 02:59:38.175000",TK_PLCS/Pixel/crate05/module05/channel_read_05
"PixelBarrel BpI Sector 2 POH 3L Detector",TSil,PixelBarrel_BpI,23.49,"2017-08-07 03:48:43.163000",TK_PLCS/Pixel/crate05/module05/channel_read_06
"PixelBarrel BpI Sector 1 POH 4L Inp",TSil,PixelBarrel_BpI,-8.27,"2017-08-07 03:02:43.165000",TK_PLCS/Pixel/crate05/module05/channel_read_07
"PixelBarrel BpI Sector 1 POH 4L Detector",TSil,PixelBarrel_BpI,23.78,"2017-08-07 03:54:28.171000",TK_PLCS/Pixel/crate05/module05/channel_read_08
"PixelBarrel BpO 6I L4D4PF",TLiq,PixelBarrel_BpO,-12.52,"2017-08-07 02:52:25.656000",TK_PLCS/Pixel/crate05/module06/channel_read_07
"PixelBarrel BpO 6M L4D4PF",TLiq,PixelBarrel_BpO,-10.6,"2017-08-07 02:52:28.165000",TK_PLCS/Pixel/crate05/module06/channel_read_08
"PixelBarrel BpO 6R L4D4PF",TLiq,PixelBarrel_BpO,-8.96,"2017-08-07 02:51:05.661000",TK_PLCS/Pixel/crate05/module07/channel_read_01
"PixelBarrel BpO Sector 5 POH 1L Detector",TSil,PixelBarrel_BpO,14.28,"2017-08-07 03:39:03.163000",TK_PLCS/Pixel/crate05/module07/channel_read_02
"PixelBarrel BpO Sector 6 POH 2L Inp",TSil,PixelBarrel_BpO,-8.53,"2017-08-07 03:00:38.164000",TK_PLCS/Pixel/crate05/module07/channel_read_03
"PixelBarrel BpO Sector 6 POH 2L Detector",TSil,PixelBarrel_BpO,16.96,"2017-08-07 03:46:33.172000",TK_PLCS/Pixel/crate05/module07/channel_read_04
"PixelBarrel BpO Sector 7 POH 3L Inp",TSil,PixelBarrel_BpO,-8.35,"2017-08-07 02:59:58.169000",TK_PLCS/Pixel/crate05/module07/channel_read_05
"PixelBarrel BpO Sector 7 POH 3L Detector",TSil,PixelBarrel_BpO,17.31,"2017-08-07 03:45:03.162000",TK_PLCS/Pixel/crate05/module07/channel_read_06
"PixelBarrel BpO Sector 8 POH 4L Detector",TSil,PixelBarrel_BpO,13.43,"2017-08-07 03:45:48.265000",TK_PLCS/Pixel/crate05/module07/channel_read_08
"PixelBarrel BmI 6R L4D4MN",TLiq,PixelBarrel_BmI,-10.33,"2017-08-07 02:53:23.156000",TK_PLCS/Pixel/crate05/module08/channel_read_07
"PixelBarrel BmI 6M L4D4MN",TLiq,PixelBarrel_BmI,-11.38,"2017-08-07 02:53:23.156000",TK_PLCS/Pixel/crate05/module08/channel_read_08
"PixelBarrel BmI 6I L4D4MN",TLiq,PixelBarrel_BmI,-13.75,"2017-08-07 02:52:00.663000",TK_PLCS/Pixel/crate05/module09/channel_read_01
"PixelBarrel BmI Sector 5 POH 1L Detector",TSil,PixelBarrel_BmI,14.91,"2017-08-07 03:47:10.662000",TK_PLCS/Pixel/crate05/module09/channel_read_02
"PixelBarrel BmI Sector 6 POH 2L Inp",TSil,PixelBarrel_BmI,-8.51,"2017-08-07 03:00:38.164000",TK_PLCS/Pixel/crate05/module09/channel_read_03
"PixelBarrel BmI Sector 6 POH 2L Detector",TSil,PixelBarrel_BmI,15.74,"2017-08-07 03:41:10.664000",TK_PLCS/Pixel/crate05/module09/channel_read_04
"PixelBarrel BmI Sector 7 POH 3L Inp",TSil,PixelBarrel_BmI,-8.32,"2017-08-07 02:59:45.661000",TK_PLCS/Pixel/crate05/module09/channel_read_05
"PixelBarrel BmI Sector 7 POH 3L Detector",TSil,PixelBarrel_BmI,15.4,"2017-08-07 03:13:10.667000",TK_PLCS/Pixel/crate05/module09/channel_read_06
"PixelBarrel BmI Sector 8 POH 4L Inp",TSil,PixelBarrel_BmI,-9.63,"2017-08-07 03:00:25.658000",TK_PLCS/Pixel/crate05/module09/channel_read_07
"PixelBarrel BmI Sector 8 POH 4L Detector",TSil,PixelBarrel_BmI,12.93,"2017-08-07 03:46:45.674000",TK_PLCS/Pixel/crate05/module09/channel_read_08
"PixelBarrel BmO 1I L4D1MF",TLiq,PixelBarrel_BmO,-9.14,"2017-08-07 02:54:33.174000",TK_PLCS/Pixel/crate05/module10/channel_read_07
"PixelBarrel BmO 1M L4D1MF",TLiq,PixelBarrel_BmO,-9.99,"2017-08-07 03:37:58.158000",TK_PLCS/Pixel/crate05/module10/channel_read_08
"PixelBarrel BmO 1R L4D1MF",TLiq,PixelBarrel_BmO,-13.22,"2017-08-07 02:52:18.269000",TK_PLCS/Pixel/crate05/module11/channel_read_01
"PixelBarrel BmO Sector 4  POH 1L Detector",TSil,PixelBarrel_BmO,14.98,"2017-08-07 03:41:38.166000",TK_PLCS/Pixel/crate05/module11/channel_read_02
"PixelBarrel BmO Sector 3 POH 2L Inp",TSil,PixelBarrel_BmO,-8.32,"2017-08-07 02:59:30.664000",TK_PLCS/Pixel/crate05/module11/channel_read_03
"PixelBarrel BmO Sector 3 POH 2L Detector",TSil,PixelBarrel_BmO,23.44,"2017-08-07 03:41:35.672000",TK_PLCS/Pixel/crate05/module11/channel_read_04
"PixelBarrel BmO Sector 2 POH 3L Inp",TSil,PixelBarrel_BmO,-7.89,"2017-08-07 03:01:00.668000",TK_PLCS/Pixel/crate05/module11/channel_read_05
"PixelBarrel BmO Sector 2 POH 3L Detector",TSil,PixelBarrel_BmO,24.76,"2017-08-07 03:41:03.164000",TK_PLCS/Pixel/crate05/module11/channel_read_06
"PixelBarrel BmO Sector 1 POH 4L Inp",TSil,PixelBarrel_BmO,-8.66,"2017-08-07 03:02:50.661000",TK_PLCS/Pixel/crate05/module11/channel_read_07
"PixelBarrel BmO Sector 1 POH 4L Detector",TSil,PixelBarrel_BmO,24.42,"2017-08-07 03:47:55.668000",TK_PLCS/Pixel/crate05/module11/channel_read_08
